Projeto Final/simulation/qsim/main.msim.vcd
$comment
	File created using the following command:
		vcd file main.msim.vcd -direction
$end
$date
	Thu Jun 20 00:43:36 2024
$end
$version
	ModelSim Version 10.5b
$end
$timescale
	1ps
$end

$scope module main_vhd_vec_tst $end
$var wire 1 ! ADDRESS [7] $end
$var wire 1 " ADDRESS [6] $end
$var wire 1 # ADDRESS [5] $end
$var wire 1 $ ADDRESS [4] $end
$var wire 1 % ADDRESS [3] $end
$var wire 1 & ADDRESS [2] $end
$var wire 1 ' ADDRESS [1] $end
$var wire 1 ( ADDRESS [0] $end
$var wire 1 ) CLK $end
$var wire 1 * endereco [7] $end
$var wire 1 + endereco [6] $end
$var wire 1 , endereco [5] $end
$var wire 1 - endereco [4] $end
$var wire 1 . endereco [3] $end
$var wire 1 / endereco [2] $end
$var wire 1 0 endereco [1] $end
$var wire 1 1 endereco [0] $end
$var wire 1 2 Q [23] $end
$var wire 1 3 Q [22] $end
$var wire 1 4 Q [21] $end
$var wire 1 5 Q [20] $end
$var wire 1 6 Q [19] $end
$var wire 1 7 Q [18] $end
$var wire 1 8 Q [17] $end
$var wire 1 9 Q [16] $end
$var wire 1 : Q [15] $end
$var wire 1 ; Q [14] $end
$var wire 1 < Q [13] $end
$var wire 1 = Q [12] $end
$var wire 1 > Q [11] $end
$var wire 1 ? Q [10] $end
$var wire 1 @ Q [9] $end
$var wire 1 A Q [8] $end
$var wire 1 B Q [7] $end
$var wire 1 C Q [6] $end
$var wire 1 D Q [5] $end
$var wire 1 E Q [4] $end
$var wire 1 F Q [3] $end
$var wire 1 G Q [2] $end
$var wire 1 H Q [1] $end
$var wire 1 I Q [0] $end

$scope module i1 $end
$var wire 1 J gnd $end
$var wire 1 K vcc $end
$var wire 1 L unknown $end
$var wire 1 M devoe $end
$var wire 1 N devclrn $end
$var wire 1 O devpor $end
$var wire 1 P ww_devoe $end
$var wire 1 Q ww_devclrn $end
$var wire 1 R ww_devpor $end
$var wire 1 S ww_ADDRESS [7] $end
$var wire 1 T ww_ADDRESS [6] $end
$var wire 1 U ww_ADDRESS [5] $end
$var wire 1 V ww_ADDRESS [4] $end
$var wire 1 W ww_ADDRESS [3] $end
$var wire 1 X ww_ADDRESS [2] $end
$var wire 1 Y ww_ADDRESS [1] $end
$var wire 1 Z ww_ADDRESS [0] $end
$var wire 1 [ ww_CLK $end
$var wire 1 \ ww_endereco [7] $end
$var wire 1 ] ww_endereco [6] $end
$var wire 1 ^ ww_endereco [5] $end
$var wire 1 _ ww_endereco [4] $end
$var wire 1 ` ww_endereco [3] $end
$var wire 1 a ww_endereco [2] $end
$var wire 1 b ww_endereco [1] $end
$var wire 1 c ww_endereco [0] $end
$var wire 1 d ww_Q [23] $end
$var wire 1 e ww_Q [22] $end
$var wire 1 f ww_Q [21] $end
$var wire 1 g ww_Q [20] $end
$var wire 1 h ww_Q [19] $end
$var wire 1 i ww_Q [18] $end
$var wire 1 j ww_Q [17] $end
$var wire 1 k ww_Q [16] $end
$var wire 1 l ww_Q [15] $end
$var wire 1 m ww_Q [14] $end
$var wire 1 n ww_Q [13] $end
$var wire 1 o ww_Q [12] $end
$var wire 1 p ww_Q [11] $end
$var wire 1 q ww_Q [10] $end
$var wire 1 r ww_Q [9] $end
$var wire 1 s ww_Q [8] $end
$var wire 1 t ww_Q [7] $end
$var wire 1 u ww_Q [6] $end
$var wire 1 v ww_Q [5] $end
$var wire 1 w ww_Q [4] $end
$var wire 1 x ww_Q [3] $end
$var wire 1 y ww_Q [2] $end
$var wire 1 z ww_Q [1] $end
$var wire 1 { ww_Q [0] $end
$var wire 1 | \inst_mem|altsyncram_component|auto_generated|ram_block1a0_PORTAADDR_bus\ [7] $end
$var wire 1 } \inst_mem|altsyncram_component|auto_generated|ram_block1a0_PORTAADDR_bus\ [6] $end
$var wire 1 ~ \inst_mem|altsyncram_component|auto_generated|ram_block1a0_PORTAADDR_bus\ [5] $end
$var wire 1 !! \inst_mem|altsyncram_component|auto_generated|ram_block1a0_PORTAADDR_bus\ [4] $end
$var wire 1 "! \inst_mem|altsyncram_component|auto_generated|ram_block1a0_PORTAADDR_bus\ [3] $end
$var wire 1 #! \inst_mem|altsyncram_component|auto_generated|ram_block1a0_PORTAADDR_bus\ [2] $end
$var wire 1 $! \inst_mem|altsyncram_component|auto_generated|ram_block1a0_PORTAADDR_bus\ [1] $end
$var wire 1 %! \inst_mem|altsyncram_component|auto_generated|ram_block1a0_PORTAADDR_bus\ [0] $end
$var wire 1 &! \inst_mem|altsyncram_component|auto_generated|ram_block1a0_PORTADATAOUT_bus\ [35] $end
$var wire 1 '! \inst_mem|altsyncram_component|auto_generated|ram_block1a0_PORTADATAOUT_bus\ [34] $end
$var wire 1 (! \inst_mem|altsyncram_component|auto_generated|ram_block1a0_PORTADATAOUT_bus\ [33] $end
$var wire 1 )! \inst_mem|altsyncram_component|auto_generated|ram_block1a0_PORTADATAOUT_bus\ [32] $end
$var wire 1 *! \inst_mem|altsyncram_component|auto_generated|ram_block1a0_PORTADATAOUT_bus\ [31] $end
$var wire 1 +! \inst_mem|altsyncram_component|auto_generated|ram_block1a0_PORTADATAOUT_bus\ [30] $end
$var wire 1 ,! \inst_mem|altsyncram_component|auto_generated|ram_block1a0_PORTADATAOUT_bus\ [29] $end
$var wire 1 -! \inst_mem|altsyncram_component|auto_generated|ram_block1a0_PORTADATAOUT_bus\ [28] $end
$var wire 1 .! \inst_mem|altsyncram_component|auto_generated|ram_block1a0_PORTADATAOUT_bus\ [27] $end
$var wire 1 /! \inst_mem|altsyncram_component|auto_generated|ram_block1a0_PORTADATAOUT_bus\ [26] $end
$var wire 1 0! \inst_mem|altsyncram_component|auto_generated|ram_block1a0_PORTADATAOUT_bus\ [25] $end
$var wire 1 1! \inst_mem|altsyncram_component|auto_generated|ram_block1a0_PORTADATAOUT_bus\ [24] $end
$var wire 1 2! \inst_mem|altsyncram_component|auto_generated|ram_block1a0_PORTADATAOUT_bus\ [23] $end
$var wire 1 3! \inst_mem|altsyncram_component|auto_generated|ram_block1a0_PORTADATAOUT_bus\ [22] $end
$var wire 1 4! \inst_mem|altsyncram_component|auto_generated|ram_block1a0_PORTADATAOUT_bus\ [21] $end
$var wire 1 5! \inst_mem|altsyncram_component|auto_generated|ram_block1a0_PORTADATAOUT_bus\ [20] $end
$var wire 1 6! \inst_mem|altsyncram_component|auto_generated|ram_block1a0_PORTADATAOUT_bus\ [19] $end
$var wire 1 7! \inst_mem|altsyncram_component|auto_generated|ram_block1a0_PORTADATAOUT_bus\ [18] $end
$var wire 1 8! \inst_mem|altsyncram_component|auto_generated|ram_block1a0_PORTADATAOUT_bus\ [17] $end
$var wire 1 9! \inst_mem|altsyncram_component|auto_generated|ram_block1a0_PORTADATAOUT_bus\ [16] $end
$var wire 1 :! \inst_mem|altsyncram_component|auto_generated|ram_block1a0_PORTADATAOUT_bus\ [15] $end
$var wire 1 ;! \inst_mem|altsyncram_component|auto_generated|ram_block1a0_PORTADATAOUT_bus\ [14] $end
$var wire 1 <! \inst_mem|altsyncram_component|auto_generated|ram_block1a0_PORTADATAOUT_bus\ [13] $end
$var wire 1 =! \inst_mem|altsyncram_component|auto_generated|ram_block1a0_PORTADATAOUT_bus\ [12] $end
$var wire 1 >! \inst_mem|altsyncram_component|auto_generated|ram_block1a0_PORTADATAOUT_bus\ [11] $end
$var wire 1 ?! \inst_mem|altsyncram_component|auto_generated|ram_block1a0_PORTADATAOUT_bus\ [10] $end
$var wire 1 @! \inst_mem|altsyncram_component|auto_generated|ram_block1a0_PORTADATAOUT_bus\ [9] $end
$var wire 1 A! \inst_mem|altsyncram_component|auto_generated|ram_block1a0_PORTADATAOUT_bus\ [8] $end
$var wire 1 B! \inst_mem|altsyncram_component|auto_generated|ram_block1a0_PORTADATAOUT_bus\ [7] $end
$var wire 1 C! \inst_mem|altsyncram_component|auto_generated|ram_block1a0_PORTADATAOUT_bus\ [6] $end
$var wire 1 D! \inst_mem|altsyncram_component|auto_generated|ram_block1a0_PORTADATAOUT_bus\ [5] $end
$var wire 1 E! \inst_mem|altsyncram_component|auto_generated|ram_block1a0_PORTADATAOUT_bus\ [4] $end
$var wire 1 F! \inst_mem|altsyncram_component|auto_generated|ram_block1a0_PORTADATAOUT_bus\ [3] $end
$var wire 1 G! \inst_mem|altsyncram_component|auto_generated|ram_block1a0_PORTADATAOUT_bus\ [2] $end
$var wire 1 H! \inst_mem|altsyncram_component|auto_generated|ram_block1a0_PORTADATAOUT_bus\ [1] $end
$var wire 1 I! \inst_mem|altsyncram_component|auto_generated|ram_block1a0_PORTADATAOUT_bus\ [0] $end
$var wire 1 J! \~QUARTUS_CREATED_ADC1~_CHSEL_bus\ [4] $end
$var wire 1 K! \~QUARTUS_CREATED_ADC1~_CHSEL_bus\ [3] $end
$var wire 1 L! \~QUARTUS_CREATED_ADC1~_CHSEL_bus\ [2] $end
$var wire 1 M! \~QUARTUS_CREATED_ADC1~_CHSEL_bus\ [1] $end
$var wire 1 N! \~QUARTUS_CREATED_ADC1~_CHSEL_bus\ [0] $end
$var wire 1 O! \~QUARTUS_CREATED_ADC2~_CHSEL_bus\ [4] $end
$var wire 1 P! \~QUARTUS_CREATED_ADC2~_CHSEL_bus\ [3] $end
$var wire 1 Q! \~QUARTUS_CREATED_ADC2~_CHSEL_bus\ [2] $end
$var wire 1 R! \~QUARTUS_CREATED_ADC2~_CHSEL_bus\ [1] $end
$var wire 1 S! \~QUARTUS_CREATED_ADC2~_CHSEL_bus\ [0] $end
$var wire 1 T! \CLK~inputclkctrl_INCLK_bus\ [3] $end
$var wire 1 U! \CLK~inputclkctrl_INCLK_bus\ [2] $end
$var wire 1 V! \CLK~inputclkctrl_INCLK_bus\ [1] $end
$var wire 1 W! \CLK~inputclkctrl_INCLK_bus\ [0] $end
$var wire 1 X! \~QUARTUS_CREATED_GND~I_combout\ $end
$var wire 1 Y! \~QUARTUS_CREATED_UNVM~~busy\ $end
$var wire 1 Z! \~QUARTUS_CREATED_ADC1~~eoc\ $end
$var wire 1 [! \~QUARTUS_CREATED_ADC2~~eoc\ $end
$var wire 1 \! \ADDRESS[7]~output_o\ $end
$var wire 1 ]! \ADDRESS[6]~output_o\ $end
$var wire 1 ^! \ADDRESS[5]~output_o\ $end
$var wire 1 _! \ADDRESS[4]~output_o\ $end
$var wire 1 `! \ADDRESS[3]~output_o\ $end
$var wire 1 a! \ADDRESS[2]~output_o\ $end
$var wire 1 b! \ADDRESS[1]~output_o\ $end
$var wire 1 c! \ADDRESS[0]~output_o\ $end
$var wire 1 d! \Q[23]~output_o\ $end
$var wire 1 e! \Q[22]~output_o\ $end
$var wire 1 f! \Q[21]~output_o\ $end
$var wire 1 g! \Q[20]~output_o\ $end
$var wire 1 h! \Q[19]~output_o\ $end
$var wire 1 i! \Q[18]~output_o\ $end
$var wire 1 j! \Q[17]~output_o\ $end
$var wire 1 k! \Q[16]~output_o\ $end
$var wire 1 l! \Q[15]~output_o\ $end
$var wire 1 m! \Q[14]~output_o\ $end
$var wire 1 n! \Q[13]~output_o\ $end
$var wire 1 o! \Q[12]~output_o\ $end
$var wire 1 p! \Q[11]~output_o\ $end
$var wire 1 q! \Q[10]~output_o\ $end
$var wire 1 r! \Q[9]~output_o\ $end
$var wire 1 s! \Q[8]~output_o\ $end
$var wire 1 t! \Q[7]~output_o\ $end
$var wire 1 u! \Q[6]~output_o\ $end
$var wire 1 v! \Q[5]~output_o\ $end
$var wire 1 w! \Q[4]~output_o\ $end
$var wire 1 x! \Q[3]~output_o\ $end
$var wire 1 y! \Q[2]~output_o\ $end
$var wire 1 z! \Q[1]~output_o\ $end
$var wire 1 {! \Q[0]~output_o\ $end
$var wire 1 |! \CLK~input_o\ $end
$var wire 1 }! \CLK~inputclkctrl_outclk\ $end
$var wire 1 ~! \endereco[7]~input_o\ $end
$var wire 1 !" \inst|reg1|dff3~feeder_combout\ $end
$var wire 1 "" \inst|reg1|dff3~q\ $end
$var wire 1 #" \inst123|reg1|dff3~feeder_combout\ $end
$var wire 1 $" \inst123|reg1|dff3~q\ $end
$var wire 1 %" \endereco[6]~input_o\ $end
$var wire 1 &" \inst|reg1|dff2~feeder_combout\ $end
$var wire 1 '" \inst|reg1|dff2~q\ $end
$var wire 1 (" \inst123|reg1|dff2~feeder_combout\ $end
$var wire 1 )" \inst123|reg1|dff2~q\ $end
$var wire 1 *" \endereco[5]~input_o\ $end
$var wire 1 +" \inst|reg1|dff1~feeder_combout\ $end
$var wire 1 ," \inst|reg1|dff1~q\ $end
$var wire 1 -" \inst123|reg1|dff1~feeder_combout\ $end
$var wire 1 ." \inst123|reg1|dff1~q\ $end
$var wire 1 /" \endereco[4]~input_o\ $end
$var wire 1 0" \inst|reg1|dff0~feeder_combout\ $end
$var wire 1 1" \inst|reg1|dff0~q\ $end
$var wire 1 2" \inst123|reg1|dff0~feeder_combout\ $end
$var wire 1 3" \inst123|reg1|dff0~q\ $end
$var wire 1 4" \endereco[3]~input_o\ $end
$var wire 1 5" \inst|reg0|dff3~q\ $end
$var wire 1 6" \inst123|reg0|dff3~feeder_combout\ $end
$var wire 1 7" \inst123|reg0|dff3~q\ $end
$var wire 1 8" \endereco[2]~input_o\ $end
$var wire 1 9" \inst|reg0|dff2~feeder_combout\ $end
$var wire 1 :" \inst|reg0|dff2~q\ $end
$var wire 1 ;" \inst123|reg0|dff2~feeder_combout\ $end
$var wire 1 <" \inst123|reg0|dff2~q\ $end
$var wire 1 =" \endereco[1]~input_o\ $end
$var wire 1 >" \inst|reg0|dff1~feeder_combout\ $end
$var wire 1 ?" \inst|reg0|dff1~q\ $end
$var wire 1 @" \inst123|reg0|dff1~feeder_combout\ $end
$var wire 1 A" \inst123|reg0|dff1~q\ $end
$var wire 1 B" \endereco[0]~input_o\ $end
$var wire 1 C" \inst|reg0|dff0~feeder_combout\ $end
$var wire 1 D" \inst|reg0|dff0~q\ $end
$var wire 1 E" \inst123|reg0|dff0~feeder_combout\ $end
$var wire 1 F" \inst123|reg0|dff0~q\ $end
$var wire 1 G" \inst_mem|altsyncram_component|auto_generated|q_a\ [23] $end
$var wire 1 H" \inst_mem|altsyncram_component|auto_generated|q_a\ [22] $end
$var wire 1 I" \inst_mem|altsyncram_component|auto_generated|q_a\ [21] $end
$var wire 1 J" \inst_mem|altsyncram_component|auto_generated|q_a\ [20] $end
$var wire 1 K" \inst_mem|altsyncram_component|auto_generated|q_a\ [19] $end
$var wire 1 L" \inst_mem|altsyncram_component|auto_generated|q_a\ [18] $end
$var wire 1 M" \inst_mem|altsyncram_component|auto_generated|q_a\ [17] $end
$var wire 1 N" \inst_mem|altsyncram_component|auto_generated|q_a\ [16] $end
$var wire 1 O" \inst_mem|altsyncram_component|auto_generated|q_a\ [15] $end
$var wire 1 P" \inst_mem|altsyncram_component|auto_generated|q_a\ [14] $end
$var wire 1 Q" \inst_mem|altsyncram_component|auto_generated|q_a\ [13] $end
$var wire 1 R" \inst_mem|altsyncram_component|auto_generated|q_a\ [12] $end
$var wire 1 S" \inst_mem|altsyncram_component|auto_generated|q_a\ [11] $end
$var wire 1 T" \inst_mem|altsyncram_component|auto_generated|q_a\ [10] $end
$var wire 1 U" \inst_mem|altsyncram_component|auto_generated|q_a\ [9] $end
$var wire 1 V" \inst_mem|altsyncram_component|auto_generated|q_a\ [8] $end
$var wire 1 W" \inst_mem|altsyncram_component|auto_generated|q_a\ [7] $end
$var wire 1 X" \inst_mem|altsyncram_component|auto_generated|q_a\ [6] $end
$var wire 1 Y" \inst_mem|altsyncram_component|auto_generated|q_a\ [5] $end
$var wire 1 Z" \inst_mem|altsyncram_component|auto_generated|q_a\ [4] $end
$var wire 1 [" \inst_mem|altsyncram_component|auto_generated|q_a\ [3] $end
$var wire 1 \" \inst_mem|altsyncram_component|auto_generated|q_a\ [2] $end
$var wire 1 ]" \inst_mem|altsyncram_component|auto_generated|q_a\ [1] $end
$var wire 1 ^" \inst_mem|altsyncram_component|auto_generated|q_a\ [0] $end
$upscope $end
$upscope $end
$enddefinitions $end
#0
$dumpvars
0)
0J
1K
xL
1M
1N
1O
1P
1Q
1R
0[
0X!
zY!
zZ!
z[!
0\!
0]!
0^!
0_!
0`!
0a!
0b!
0c!
0d!
0e!
0f!
0g!
0h!
0i!
0j!
0k!
0l!
0m!
0n!
0o!
0p!
0q!
0r!
0s!
0t!
0u!
0v!
0w!
0x!
0y!
0z!
0{!
0|!
0}!
0~!
0!"
0""
0#"
0$"
0%"
0&"
0'"
0("
0)"
1*"
1+"
0,"
0-"
0."
0/"
00"
01"
02"
03"
04"
05"
06"
07"
08"
09"
0:"
0;"
0<"
0="
0>"
0?"
0@"
0A"
0B"
0C"
0D"
0E"
0F"
0*
0+
1,
0-
0.
0/
00
01
0S
0T
0U
0V
0W
0X
0Y
0Z
0\
0]
1^
0_
0`
0a
0b
0c
0d
0e
0f
0g
0h
0i
0j
0k
0l
0m
0n
0o
0p
0q
0r
0s
0t
0u
0v
0w
0x
0y
0z
0{
0&!
0'!
0(!
0)!
0*!
0+!
0,!
0-!
0.!
0/!
00!
01!
02!
03!
04!
05!
06!
07!
08!
09!
0:!
0;!
0<!
0=!
0>!
0?!
0@!
0A!
0B!
0C!
0D!
0E!
0F!
0G!
0H!
0I!
0G"
0H"
0I"
0J"
0K"
0L"
0M"
0N"
0O"
0P"
0Q"
0R"
0S"
0T"
0U"
0V"
0W"
0X"
0Y"
0Z"
0["
0\"
0]"
0^"
1T!
1U!
1V!
0W!
0J!
0K!
0L!
0M!
0N!
0O!
0P!
0Q!
0R!
0S!
0!
0"
0#
0$
0%
0&
0'
0(
02
03
04
05
06
07
08
09
0:
0;
0<
0=
0>
0?
0@
0A
0B
0C
0D
0E
0F
0G
0H
0I
0|
0}
1~
0!!
0"!
0#!
0$!
0%!
$end
#10000
1)
1[
1|!
1W!
1}!
1,"
1-"
#20000
0)
11
0[
1c
1B"
0|!
1%!
0W!
1C"
0}!
#30000
1)
1[
1|!
1W!
1}!
1."
1D"
1^!
1E"
1I!
1H!
1G!
1F!
1E!
1D!
1C!
1B!
1A!
1@!
1?!
1>!
1=!
1<!
1;!
1:!
19!
18!
17!
16!
15!
14!
13!
12!
1U
1^"
1]"
1\"
1["
1Z"
1Y"
1X"
1W"
1V"
1U"
1T"
1S"
1R"
1Q"
1P"
1O"
1N"
1M"
1L"
1K"
1J"
1I"
1H"
1G"
1#
1d!
1e!
1f!
1g!
1h!
1i!
1j!
1k!
1l!
1m!
1n!
1o!
1p!
1q!
1r!
1s!
1t!
1u!
1v!
1w!
1x!
1y!
1z!
1{!
1d
1e
1f
1g
1h
1i
1j
1k
1l
1m
1n
1o
1p
1q
1r
1s
1t
1u
1v
1w
1x
1y
1z
1{
1I
1H
1G
1F
1E
1D
1C
1B
1A
1@
1?
1>
1=
1<
1;
1:
19
18
17
16
15
14
13
12
#40000
0)
01
10
0[
0c
1b
1="
0B"
0|!
0%!
1$!
0W!
0C"
1>"
0}!
#50000
1)
1[
1|!
1W!
1}!
1?"
0D"
1F"
1c!
0E"
1@"
1Z
1(
#60000
0)
11
0[
1c
1B"
0|!
1%!
0W!
1C"
0}!
#70000
1)
1[
1|!
1W!
1}!
1A"
1D"
0F"
0c!
1b!
1E"
0I!
0H!
0G!
0F!
0E!
0D!
0C!
0B!
0A!
0@!
0?!
0>!
0=!
0<!
0;!
0:!
09!
08!
07!
06!
05!
04!
03!
02!
0Z
1Y
0^"
0]"
0\"
0["
0Z"
0Y"
0X"
0W"
0V"
0U"
0T"
0S"
0R"
0Q"
0P"
0O"
0N"
0M"
0L"
0K"
0J"
0I"
0H"
0G"
0(
1'
0d!
0e!
0f!
0g!
0h!
0i!
0j!
0k!
0l!
0m!
0n!
0o!
0p!
0q!
0r!
0s!
0t!
0u!
0v!
0w!
0x!
0y!
0z!
0{!
0d
0e
0f
0g
0h
0i
0j
0k
0l
0m
0n
0o
0p
0q
0r
0s
0t
0u
0v
0w
0x
0y
0z
0{
0I
0H
0G
0F
0E
0D
0C
0B
0A
0@
0?
0>
0=
0<
0;
0:
09
08
07
06
05
04
03
02
#80000
0)
01
00
1/
0[
0c
0b
1a
18"
0="
0B"
0|!
0%!
0$!
1#!
0W!
0C"
0>"
19"
0}!
#90000
1)
1[
1|!
1W!
1}!
1:"
0?"
0D"
1F"
1c!
0E"
0@"
1;"
1Z
1(
#100000
0)
11
0[
1c
1B"
0|!
1%!
0W!
1C"
0}!
#110000
1)
1[
1|!
1W!
1}!
1<"
0A"
1D"
0F"
0c!
0b!
1a!
1E"
0Z
0Y
1X
0(
0'
1&
#120000
0)
01
10
0[
0c
1b
1="
0B"
0|!
0%!
1$!
0W!
0C"
1>"
0}!
#130000
1)
1[
1|!
1W!
1}!
1?"
0D"
1F"
1c!
0E"
1@"
1I!
1H!
1G!
1F!
1E!
1D!
1C!
1B!
1A!
1@!
1?!
1>!
1=!
1<!
1;!
1:!
19!
18!
17!
16!
15!
14!
13!
12!
1Z
1^"
1]"
1\"
1["
1Z"
1Y"
1X"
1W"
1V"
1U"
1T"
1S"
1R"
1Q"
1P"
1O"
1N"
1M"
1L"
1K"
1J"
1I"
1H"
1G"
1(
1d!
1e!
1f!
1g!
1h!
1i!
1j!
1k!
1l!
1m!
1n!
1o!
1p!
1q!
1r!
1s!
1t!
1u!
1v!
1w!
1x!
1y!
1z!
1{!
1d
1e
1f
1g
1h
1i
1j
1k
1l
1m
1n
1o
1p
1q
1r
1s
1t
1u
1v
1w
1x
1y
1z
1{
1I
1H
1G
1F
1E
1D
1C
1B
1A
1@
1?
1>
1=
1<
1;
1:
19
18
17
16
15
14
13
12
#140000
0)
11
0[
1c
1B"
0|!
1%!
0W!
1C"
0}!
#150000
1)
1[
1|!
1W!
1}!
1A"
1D"
0F"
0c!
1b!
1E"
0Z
1Y
0(
1'
#160000
0)
01
00
0/
1.
0[
0c
0b
0a
1`
14"
08"
0="
0B"
0|!
0%!
0$!
0#!
1"!
0W!
0C"
0>"
09"
0}!
#170000
1)
1[
1|!
1W!
1}!
15"
0:"
0?"
0D"
1F"
1c!
0E"
0@"
0;"
16"
1Z
1(
#180000
0)
11
0[
1c
1B"
0|!
1%!
0W!
1C"
0}!
#190000
1)
1[
1|!
1W!
1}!
17"
0<"
0A"
1D"
0F"
0c!
0b!
0a!
1`!
1E"
0Z
0Y
0X
1W
0(
0'
0&
1%
#200000
0)
01
10
0[
0c
1b
1="
0B"
0|!
0%!
1$!
0W!
0C"
1>"
0}!
#210000
1)
1[
1|!
1W!
1}!
1?"
0D"
1F"
1c!
0E"
1@"
1Z
1(
#220000
0)
11
0[
1c
1B"
0|!
1%!
0W!
1C"
0}!
#230000
1)
1[
1|!
1W!
1}!
1A"
1D"
0F"
0c!
1b!
1E"
0Z
1Y
0(
1'
#240000
0)
01
00
1/
0[
0c
0b
1a
18"
0="
0B"
0|!
0%!
0$!
1#!
0W!
0C"
0>"
19"
0}!
#250000
1)
1[
1|!
1W!
1}!
1:"
0?"
0D"
1F"
1c!
0E"
0@"
1;"
0I!
0H!
0G!
0F!
0E!
0D!
0C!
0B!
0A!
0@!
0?!
0>!
0=!
0<!
0;!
0:!
09!
08!
07!
06!
05!
04!
03!
02!
1Z
0^"
0]"
0\"
0["
0Z"
0Y"
0X"
0W"
0V"
0U"
0T"
0S"
0R"
0Q"
0P"
0O"
0N"
0M"
0L"
0K"
0J"
0I"
0H"
0G"
1(
0d!
0e!
0f!
0g!
0h!
0i!
0j!
0k!
0l!
0m!
0n!
0o!
0p!
0q!
0r!
0s!
0t!
0u!
0v!
0w!
0x!
0y!
0z!
0{!
0d
0e
0f
0g
0h
0i
0j
0k
0l
0m
0n
0o
0p
0q
0r
0s
0t
0u
0v
0w
0x
0y
0z
0{
0I
0H
0G
0F
0E
0D
0C
0B
0A
0@
0?
0>
0=
0<
0;
0:
09
08
07
06
05
04
03
02
#260000
0)
11
0[
1c
1B"
0|!
1%!
0W!
1C"
0}!
#270000
1)
1[
1|!
1W!
1}!
1<"
0A"
1D"
0F"
0c!
0b!
1a!
1E"
0Z
0Y
1X
0(
0'
1&
#280000
0)
01
10
0[
0c
1b
1="
0B"
0|!
0%!
1$!
0W!
0C"
1>"
0}!
#290000
1)
1[
1|!
1W!
1}!
1?"
0D"
1F"
1c!
0E"
1@"
1Z
1(
#300000
0)
11
0[
1c
1B"
0|!
1%!
0W!
1C"
0}!
#310000
1)
1[
1|!
1W!
1}!
1A"
1D"
0F"
0c!
1b!
1E"
1I!
1H!
1G!
1F!
1E!
1D!
1C!
1B!
1A!
1@!
1?!
1>!
1=!
1<!
1;!
1:!
19!
18!
17!
16!
15!
14!
13!
12!
0Z
1Y
1^"
1]"
1\"
1["
1Z"
1Y"
1X"
1W"
1V"
1U"
1T"
1S"
1R"
1Q"
1P"
1O"
1N"
1M"
1L"
1K"
1J"
1I"
1H"
1G"
0(
1'
1d!
1e!
1f!
1g!
1h!
1i!
1j!
1k!
1l!
1m!
1n!
1o!
1p!
1q!
1r!
1s!
1t!
1u!
1v!
1w!
1x!
1y!
1z!
1{!
1d
1e
1f
1g
1h
1i
1j
1k
1l
1m
1n
1o
1p
1q
1r
1s
1t
1u
1v
1w
1x
1y
1z
1{
1I
1H
1G
1F
1E
1D
1C
1B
1A
1@
1?
1>
1=
1<
1;
1:
19
18
17
16
15
14
13
12
#320000
0)
01
00
0/
0.
1-
0[
0c
0b
0a
0`
1_
1/"
04"
08"
0="
0B"
0|!
0%!
0$!
0#!
0"!
1!!
0W!
0C"
0>"
09"
10"
0}!
#330000
1)
1[
1|!
1W!
1}!
11"
05"
0:"
0?"
0D"
1F"
1c!
0E"
0@"
0;"
06"
12"
1Z
1(
#340000
0)
11
0[
1c
1B"
0|!
1%!
0W!
1C"
0}!
#350000
1)
1[
1|!
1W!
1}!
13"
07"
0<"
0A"
1D"
0F"
0c!
0b!
0a!
0`!
1_!
1E"
0Z
0Y
0X
0W
1V
0(
0'
0&
0%
1$
#360000
0)
01
10
0[
0c
1b
1="
0B"
0|!
0%!
1$!
0W!
0C"
1>"
0}!
#370000
1)
1[
1|!
1W!
1}!
1?"
0D"
1F"
1c!
0E"
1@"
1Z
1(
#380000
0)
11
0[
1c
1B"
0|!
1%!
0W!
1C"
0}!
#390000
1)
1[
1|!
1W!
1}!
1A"
1D"
0F"
0c!
1b!
1E"
0I!
0H!
0G!
0F!
0E!
0D!
0C!
0B!
0A!
0@!
0?!
0>!
0=!
0<!
0;!
0:!
09!
08!
07!
06!
05!
04!
03!
02!
0Z
1Y
0^"
0]"
0\"
0["
0Z"
0Y"
0X"
0W"
0V"
0U"
0T"
0S"
0R"
0Q"
0P"
0O"
0N"
0M"
0L"
0K"
0J"
0I"
0H"
0G"
0(
1'
0d!
0e!
0f!
0g!
0h!
0i!
0j!
0k!
0l!
0m!
0n!
0o!
0p!
0q!
0r!
0s!
0t!
0u!
0v!
0w!
0x!
0y!
0z!
0{!
0d
0e
0f
0g
0h
0i
0j
0k
0l
0m
0n
0o
0p
0q
0r
0s
0t
0u
0v
0w
0x
0y
0z
0{
0I
0H
0G
0F
0E
0D
0C
0B
0A
0@
0?
0>
0=
0<
0;
0:
09
08
07
06
05
04
03
02
#400000
0)
01
00
1/
0[
0c
0b
1a
18"
0="
0B"
0|!
0%!
0$!
1#!
0W!
0C"
0>"
19"
0}!
#410000
1)
1[
1|!
1W!
1}!
1:"
0?"
0D"
1F"
1c!
0E"
0@"
1;"
1Z
1(
#420000
0)
11
0[
1c
1B"
0|!
1%!
0W!
1C"
0}!
#430000
1)
1[
1|!
1W!
1}!
1<"
0A"
1D"
0F"
0c!
0b!
1a!
1E"
0Z
0Y
1X
0(
0'
1&
#440000
0)
01
10
0[
0c
1b
1="
0B"
0|!
0%!
1$!
0W!
0C"
1>"
0}!
#450000
1)
1[
1|!
1W!
1}!
1?"
0D"
1F"
1c!
0E"
1@"
1I!
1H!
1G!
1F!
1E!
1D!
1C!
1B!
1A!
1@!
1?!
1>!
1=!
1<!
1;!
1:!
19!
18!
17!
16!
15!
14!
13!
12!
1Z
1^"
1]"
1\"
1["
1Z"
1Y"
1X"
1W"
1V"
1U"
1T"
1S"
1R"
1Q"
1P"
1O"
1N"
1M"
1L"
1K"
1J"
1I"
1H"
1G"
1(
1d!
1e!
1f!
1g!
1h!
1i!
1j!
1k!
1l!
1m!
1n!
1o!
1p!
1q!
1r!
1s!
1t!
1u!
1v!
1w!
1x!
1y!
1z!
1{!
1d
1e
1f
1g
1h
1i
1j
1k
1l
1m
1n
1o
1p
1q
1r
1s
1t
1u
1v
1w
1x
1y
1z
1{
1I
1H
1G
1F
1E
1D
1C
1B
1A
1@
1?
1>
1=
1<
1;
1:
19
18
17
16
15
14
13
12
#460000
0)
11
0[
1c
1B"
0|!
1%!
0W!
1C"
0}!
#470000
1)
1[
1|!
1W!
1}!
1A"
1D"
0F"
0c!
1b!
1E"
0Z
1Y
0(
1'
#480000
0)
01
00
0/
1.
0[
0c
0b
0a
1`
14"
08"
0="
0B"
0|!
0%!
0$!
0#!
1"!
0W!
0C"
0>"
09"
0}!
#490000
1)
1[
1|!
1W!
1}!
15"
0:"
0?"
0D"
1F"
1c!
0E"
0@"
0;"
16"
1Z
1(
#500000
0)
11
0[
1c
1B"
0|!
1%!
0W!
1C"
0}!
#510000
1)
1[
1|!
1W!
1}!
17"
0<"
0A"
1D"
0F"
0c!
0b!
0a!
1`!
1E"
0Z
0Y
0X
1W
0(
0'
0&
1%
#520000
0)
01
10
0[
0c
1b
1="
0B"
0|!
0%!
1$!
0W!
0C"
1>"
0}!
#530000
1)
1[
1|!
1W!
1}!
1?"
0D"
1F"
1c!
0E"
1@"
1Z
1(
