Projeto Final/simulation/qsim/main.msim.vcd
$comment
	File created using the following command:
		vcd file main.msim.vcd -direction
$end
$date
	Thu Jun 20 14:49:03 2024
$end
$version
	ModelSim Version 10.5b
$end
$timescale
	1ps
$end

$scope module tmp_2_vhd_vec_tst $end
$var wire 1 ! CLK $end
$var wire 1 " endereco [7] $end
$var wire 1 # endereco [6] $end
$var wire 1 $ endereco [5] $end
$var wire 1 % endereco [4] $end
$var wire 1 & endereco [3] $end
$var wire 1 ' endereco [2] $end
$var wire 1 ( endereco [1] $end
$var wire 1 ) endereco [0] $end
$var wire 1 * RGB [23] $end
$var wire 1 + RGB [22] $end
$var wire 1 , RGB [21] $end
$var wire 1 - RGB [20] $end
$var wire 1 . RGB [19] $end
$var wire 1 / RGB [18] $end
$var wire 1 0 RGB [17] $end
$var wire 1 1 RGB [16] $end
$var wire 1 2 RGB [15] $end
$var wire 1 3 RGB [14] $end
$var wire 1 4 RGB [13] $end
$var wire 1 5 RGB [12] $end
$var wire 1 6 RGB [11] $end
$var wire 1 7 RGB [10] $end
$var wire 1 8 RGB [9] $end
$var wire 1 9 RGB [8] $end
$var wire 1 : RGB [7] $end
$var wire 1 ; RGB [6] $end
$var wire 1 < RGB [5] $end
$var wire 1 = RGB [4] $end
$var wire 1 > RGB [3] $end
$var wire 1 ? RGB [2] $end
$var wire 1 @ RGB [1] $end
$var wire 1 A RGB [0] $end
$var wire 1 B StartStop $end

$scope module i1 $end
$var wire 1 C gnd $end
$var wire 1 D vcc $end
$var wire 1 E unknown $end
$var wire 1 F devoe $end
$var wire 1 G devclrn $end
$var wire 1 H devpor $end
$var wire 1 I ww_devoe $end
$var wire 1 J ww_devclrn $end
$var wire 1 K ww_devpor $end
$var wire 1 L ww_endereco [7] $end
$var wire 1 M ww_endereco [6] $end
$var wire 1 N ww_endereco [5] $end
$var wire 1 O ww_endereco [4] $end
$var wire 1 P ww_endereco [3] $end
$var wire 1 Q ww_endereco [2] $end
$var wire 1 R ww_endereco [1] $end
$var wire 1 S ww_endereco [0] $end
$var wire 1 T ww_CLK $end
$var wire 1 U ww_StartStop $end
$var wire 1 V ww_RGB [23] $end
$var wire 1 W ww_RGB [22] $end
$var wire 1 X ww_RGB [21] $end
$var wire 1 Y ww_RGB [20] $end
$var wire 1 Z ww_RGB [19] $end
$var wire 1 [ ww_RGB [18] $end
$var wire 1 \ ww_RGB [17] $end
$var wire 1 ] ww_RGB [16] $end
$var wire 1 ^ ww_RGB [15] $end
$var wire 1 _ ww_RGB [14] $end
$var wire 1 ` ww_RGB [13] $end
$var wire 1 a ww_RGB [12] $end
$var wire 1 b ww_RGB [11] $end
$var wire 1 c ww_RGB [10] $end
$var wire 1 d ww_RGB [9] $end
$var wire 1 e ww_RGB [8] $end
$var wire 1 f ww_RGB [7] $end
$var wire 1 g ww_RGB [6] $end
$var wire 1 h ww_RGB [5] $end
$var wire 1 i ww_RGB [4] $end
$var wire 1 j ww_RGB [3] $end
$var wire 1 k ww_RGB [2] $end
$var wire 1 l ww_RGB [1] $end
$var wire 1 m ww_RGB [0] $end
$var wire 1 n \inst_mem17|altsyncram_component|auto_generated|ram_block1a0_PORTAADDR_bus\ [7] $end
$var wire 1 o \inst_mem17|altsyncram_component|auto_generated|ram_block1a0_PORTAADDR_bus\ [6] $end
$var wire 1 p \inst_mem17|altsyncram_component|auto_generated|ram_block1a0_PORTAADDR_bus\ [5] $end
$var wire 1 q \inst_mem17|altsyncram_component|auto_generated|ram_block1a0_PORTAADDR_bus\ [4] $end
$var wire 1 r \inst_mem17|altsyncram_component|auto_generated|ram_block1a0_PORTAADDR_bus\ [3] $end
$var wire 1 s \inst_mem17|altsyncram_component|auto_generated|ram_block1a0_PORTAADDR_bus\ [2] $end
$var wire 1 t \inst_mem17|altsyncram_component|auto_generated|ram_block1a0_PORTAADDR_bus\ [1] $end
$var wire 1 u \inst_mem17|altsyncram_component|auto_generated|ram_block1a0_PORTAADDR_bus\ [0] $end
$var wire 1 v \inst_mem17|altsyncram_component|auto_generated|ram_block1a0_PORTADATAOUT_bus\ [35] $end
$var wire 1 w \inst_mem17|altsyncram_component|auto_generated|ram_block1a0_PORTADATAOUT_bus\ [34] $end
$var wire 1 x \inst_mem17|altsyncram_component|auto_generated|ram_block1a0_PORTADATAOUT_bus\ [33] $end
$var wire 1 y \inst_mem17|altsyncram_component|auto_generated|ram_block1a0_PORTADATAOUT_bus\ [32] $end
$var wire 1 z \inst_mem17|altsyncram_component|auto_generated|ram_block1a0_PORTADATAOUT_bus\ [31] $end
$var wire 1 { \inst_mem17|altsyncram_component|auto_generated|ram_block1a0_PORTADATAOUT_bus\ [30] $end
$var wire 1 | \inst_mem17|altsyncram_component|auto_generated|ram_block1a0_PORTADATAOUT_bus\ [29] $end
$var wire 1 } \inst_mem17|altsyncram_component|auto_generated|ram_block1a0_PORTADATAOUT_bus\ [28] $end
$var wire 1 ~ \inst_mem17|altsyncram_component|auto_generated|ram_block1a0_PORTADATAOUT_bus\ [27] $end
$var wire 1 !! \inst_mem17|altsyncram_component|auto_generated|ram_block1a0_PORTADATAOUT_bus\ [26] $end
$var wire 1 "! \inst_mem17|altsyncram_component|auto_generated|ram_block1a0_PORTADATAOUT_bus\ [25] $end
$var wire 1 #! \inst_mem17|altsyncram_component|auto_generated|ram_block1a0_PORTADATAOUT_bus\ [24] $end
$var wire 1 $! \inst_mem17|altsyncram_component|auto_generated|ram_block1a0_PORTADATAOUT_bus\ [23] $end
$var wire 1 %! \inst_mem17|altsyncram_component|auto_generated|ram_block1a0_PORTADATAOUT_bus\ [22] $end
$var wire 1 &! \inst_mem17|altsyncram_component|auto_generated|ram_block1a0_PORTADATAOUT_bus\ [21] $end
$var wire 1 '! \inst_mem17|altsyncram_component|auto_generated|ram_block1a0_PORTADATAOUT_bus\ [20] $end
$var wire 1 (! \inst_mem17|altsyncram_component|auto_generated|ram_block1a0_PORTADATAOUT_bus\ [19] $end
$var wire 1 )! \inst_mem17|altsyncram_component|auto_generated|ram_block1a0_PORTADATAOUT_bus\ [18] $end
$var wire 1 *! \inst_mem17|altsyncram_component|auto_generated|ram_block1a0_PORTADATAOUT_bus\ [17] $end
$var wire 1 +! \inst_mem17|altsyncram_component|auto_generated|ram_block1a0_PORTADATAOUT_bus\ [16] $end
$var wire 1 ,! \inst_mem17|altsyncram_component|auto_generated|ram_block1a0_PORTADATAOUT_bus\ [15] $end
$var wire 1 -! \inst_mem17|altsyncram_component|auto_generated|ram_block1a0_PORTADATAOUT_bus\ [14] $end
$var wire 1 .! \inst_mem17|altsyncram_component|auto_generated|ram_block1a0_PORTADATAOUT_bus\ [13] $end
$var wire 1 /! \inst_mem17|altsyncram_component|auto_generated|ram_block1a0_PORTADATAOUT_bus\ [12] $end
$var wire 1 0! \inst_mem17|altsyncram_component|auto_generated|ram_block1a0_PORTADATAOUT_bus\ [11] $end
$var wire 1 1! \inst_mem17|altsyncram_component|auto_generated|ram_block1a0_PORTADATAOUT_bus\ [10] $end
$var wire 1 2! \inst_mem17|altsyncram_component|auto_generated|ram_block1a0_PORTADATAOUT_bus\ [9] $end
$var wire 1 3! \inst_mem17|altsyncram_component|auto_generated|ram_block1a0_PORTADATAOUT_bus\ [8] $end
$var wire 1 4! \inst_mem17|altsyncram_component|auto_generated|ram_block1a0_PORTADATAOUT_bus\ [7] $end
$var wire 1 5! \inst_mem17|altsyncram_component|auto_generated|ram_block1a0_PORTADATAOUT_bus\ [6] $end
$var wire 1 6! \inst_mem17|altsyncram_component|auto_generated|ram_block1a0_PORTADATAOUT_bus\ [5] $end
$var wire 1 7! \inst_mem17|altsyncram_component|auto_generated|ram_block1a0_PORTADATAOUT_bus\ [4] $end
$var wire 1 8! \inst_mem17|altsyncram_component|auto_generated|ram_block1a0_PORTADATAOUT_bus\ [3] $end
$var wire 1 9! \inst_mem17|altsyncram_component|auto_generated|ram_block1a0_PORTADATAOUT_bus\ [2] $end
$var wire 1 :! \inst_mem17|altsyncram_component|auto_generated|ram_block1a0_PORTADATAOUT_bus\ [1] $end
$var wire 1 ;! \inst_mem17|altsyncram_component|auto_generated|ram_block1a0_PORTADATAOUT_bus\ [0] $end
$var wire 1 <! \~QUARTUS_CREATED_ADC1~_CHSEL_bus\ [4] $end
$var wire 1 =! \~QUARTUS_CREATED_ADC1~_CHSEL_bus\ [3] $end
$var wire 1 >! \~QUARTUS_CREATED_ADC1~_CHSEL_bus\ [2] $end
$var wire 1 ?! \~QUARTUS_CREATED_ADC1~_CHSEL_bus\ [1] $end
$var wire 1 @! \~QUARTUS_CREATED_ADC1~_CHSEL_bus\ [0] $end
$var wire 1 A! \~QUARTUS_CREATED_ADC2~_CHSEL_bus\ [4] $end
$var wire 1 B! \~QUARTUS_CREATED_ADC2~_CHSEL_bus\ [3] $end
$var wire 1 C! \~QUARTUS_CREATED_ADC2~_CHSEL_bus\ [2] $end
$var wire 1 D! \~QUARTUS_CREATED_ADC2~_CHSEL_bus\ [1] $end
$var wire 1 E! \~QUARTUS_CREATED_ADC2~_CHSEL_bus\ [0] $end
$var wire 1 F! \inst8|tmp~clkctrl_INCLK_bus\ [3] $end
$var wire 1 G! \inst8|tmp~clkctrl_INCLK_bus\ [2] $end
$var wire 1 H! \inst8|tmp~clkctrl_INCLK_bus\ [1] $end
$var wire 1 I! \inst8|tmp~clkctrl_INCLK_bus\ [0] $end
$var wire 1 J! \CLK~inputclkctrl_INCLK_bus\ [3] $end
$var wire 1 K! \CLK~inputclkctrl_INCLK_bus\ [2] $end
$var wire 1 L! \CLK~inputclkctrl_INCLK_bus\ [1] $end
$var wire 1 M! \CLK~inputclkctrl_INCLK_bus\ [0] $end
$var wire 1 N! \~QUARTUS_CREATED_GND~I_combout\ $end
$var wire 1 O! \~QUARTUS_CREATED_UNVM~~busy\ $end
$var wire 1 P! \~QUARTUS_CREATED_ADC1~~eoc\ $end
$var wire 1 Q! \~QUARTUS_CREATED_ADC2~~eoc\ $end
$var wire 1 R! \endereco[7]~output_o\ $end
$var wire 1 S! \endereco[6]~output_o\ $end
$var wire 1 T! \endereco[5]~output_o\ $end
$var wire 1 U! \endereco[4]~output_o\ $end
$var wire 1 V! \endereco[3]~output_o\ $end
$var wire 1 W! \endereco[2]~output_o\ $end
$var wire 1 X! \endereco[1]~output_o\ $end
$var wire 1 Y! \endereco[0]~output_o\ $end
$var wire 1 Z! \RGB[23]~output_o\ $end
$var wire 1 [! \RGB[22]~output_o\ $end
$var wire 1 \! \RGB[21]~output_o\ $end
$var wire 1 ]! \RGB[20]~output_o\ $end
$var wire 1 ^! \RGB[19]~output_o\ $end
$var wire 1 _! \RGB[18]~output_o\ $end
$var wire 1 `! \RGB[17]~output_o\ $end
$var wire 1 a! \RGB[16]~output_o\ $end
$var wire 1 b! \RGB[15]~output_o\ $end
$var wire 1 c! \RGB[14]~output_o\ $end
$var wire 1 d! \RGB[13]~output_o\ $end
$var wire 1 e! \RGB[12]~output_o\ $end
$var wire 1 f! \RGB[11]~output_o\ $end
$var wire 1 g! \RGB[10]~output_o\ $end
$var wire 1 h! \RGB[9]~output_o\ $end
$var wire 1 i! \RGB[8]~output_o\ $end
$var wire 1 j! \RGB[7]~output_o\ $end
$var wire 1 k! \RGB[6]~output_o\ $end
$var wire 1 l! \RGB[5]~output_o\ $end
$var wire 1 m! \RGB[4]~output_o\ $end
$var wire 1 n! \RGB[3]~output_o\ $end
$var wire 1 o! \RGB[2]~output_o\ $end
$var wire 1 p! \RGB[1]~output_o\ $end
$var wire 1 q! \RGB[0]~output_o\ $end
$var wire 1 r! \CLK~input_o\ $end
$var wire 1 s! \CLK~inputclkctrl_outclk\ $end
$var wire 1 t! \inst8|Add0~7\ $end
$var wire 1 u! \inst8|Add0~8_combout\ $end
$var wire 1 v! \inst8|Add0~9\ $end
$var wire 1 w! \inst8|Add0~10_combout\ $end
$var wire 1 x! \inst8|Add0~11\ $end
$var wire 1 y! \inst8|Add0~12_combout\ $end
$var wire 1 z! \inst8|Add0~13\ $end
$var wire 1 {! \inst8|Add0~14_combout\ $end
$var wire 1 |! \inst8|Add0~15\ $end
$var wire 1 }! \inst8|Add0~16_combout\ $end
$var wire 1 ~! \inst8|Add0~17\ $end
$var wire 1 !" \inst8|Add0~18_combout\ $end
$var wire 1 "" \inst8|Add0~19\ $end
$var wire 1 #" \inst8|Add0~20_combout\ $end
$var wire 1 $" \inst8|Add0~21\ $end
$var wire 1 %" \inst8|Add0~22_combout\ $end
$var wire 1 &" \inst8|Add0~23\ $end
$var wire 1 '" \inst8|Add0~24_combout\ $end
$var wire 1 (" \inst8|Add0~25\ $end
$var wire 1 )" \inst8|Add0~26_combout\ $end
$var wire 1 *" \inst8|Add0~27\ $end
$var wire 1 +" \inst8|Add0~28_combout\ $end
$var wire 1 ," \inst8|Add0~29\ $end
$var wire 1 -" \inst8|Add0~30_combout\ $end
$var wire 1 ." \inst8|Add0~31\ $end
$var wire 1 /" \inst8|Add0~32_combout\ $end
$var wire 1 0" \inst8|Add0~33\ $end
$var wire 1 1" \inst8|Add0~34_combout\ $end
$var wire 1 2" \inst8|Add0~35\ $end
$var wire 1 3" \inst8|Add0~36_combout\ $end
$var wire 1 4" \inst8|Add0~37\ $end
$var wire 1 5" \inst8|Add0~38_combout\ $end
$var wire 1 6" \inst8|Add0~39\ $end
$var wire 1 7" \inst8|Add0~40_combout\ $end
$var wire 1 8" \inst8|Add0~41\ $end
$var wire 1 9" \inst8|Add0~42_combout\ $end
$var wire 1 :" \inst8|Add0~43\ $end
$var wire 1 ;" \inst8|Add0~44_combout\ $end
$var wire 1 <" \inst8|Add0~45\ $end
$var wire 1 =" \inst8|Add0~46_combout\ $end
$var wire 1 >" \inst8|Add0~47\ $end
$var wire 1 ?" \inst8|Add0~48_combout\ $end
$var wire 1 @" \inst8|Add0~49\ $end
$var wire 1 A" \inst8|Add0~50_combout\ $end
$var wire 1 B" \inst8|Add0~51\ $end
$var wire 1 C" \inst8|Add0~52_combout\ $end
$var wire 1 D" \inst8|Add0~53\ $end
$var wire 1 E" \inst8|Add0~54_combout\ $end
$var wire 1 F" \inst8|Add0~55\ $end
$var wire 1 G" \inst8|Add0~56_combout\ $end
$var wire 1 H" \inst8|Add0~57\ $end
$var wire 1 I" \inst8|Add0~58_combout\ $end
$var wire 1 J" \inst8|Add0~59\ $end
$var wire 1 K" \inst8|Add0~60_combout\ $end
$var wire 1 L" \inst8|Add0~61\ $end
$var wire 1 M" \inst8|Add0~62_combout\ $end
$var wire 1 N" \inst8|Equal0~8_combout\ $end
$var wire 1 O" \inst8|Equal0~7_combout\ $end
$var wire 1 P" \inst8|Equal0~5_combout\ $end
$var wire 1 Q" \inst8|Equal0~6_combout\ $end
$var wire 1 R" \inst8|Equal0~9_combout\ $end
$var wire 1 S" \inst8|Add0~0_combout\ $end
$var wire 1 T" \inst8|count~0_combout\ $end
$var wire 1 U" \inst8|Add0~1\ $end
$var wire 1 V" \inst8|Add0~2_combout\ $end
$var wire 1 W" \inst8|count~1_combout\ $end
$var wire 1 X" \inst8|Add0~3\ $end
$var wire 1 Y" \inst8|Add0~4_combout\ $end
$var wire 1 Z" \inst8|Add0~5\ $end
$var wire 1 [" \inst8|Add0~6_combout\ $end
$var wire 1 \" \inst8|Equal0~0_combout\ $end
$var wire 1 ]" \inst8|Equal0~3_combout\ $end
$var wire 1 ^" \inst8|Equal0~2_combout\ $end
$var wire 1 _" \inst8|Equal0~1_combout\ $end
$var wire 1 `" \inst8|Equal0~4_combout\ $end
$var wire 1 a" \inst8|tmp~0_combout\ $end
$var wire 1 b" \inst8|tmp~feeder_combout\ $end
$var wire 1 c" \inst8|tmp~q\ $end
$var wire 1 d" \inst8|tmp~clkctrl_outclk\ $end
$var wire 1 e" \StartStop~input_o\ $end
$var wire 1 f" \inst6|count[0]~10_combout\ $end
$var wire 1 g" \inst6|count[1]~9_combout\ $end
$var wire 1 h" \inst6|count[2]~8_combout\ $end
$var wire 1 i" \inst6|count[3]~0_combout\ $end
$var wire 1 j" \inst6|count[3]~7_combout\ $end
$var wire 1 k" \inst6|count[4]~6_combout\ $end
$var wire 1 l" \inst6|count[5]~5_combout\ $end
$var wire 1 m" \inst6|count[6]~3_combout\ $end
$var wire 1 n" \inst6|count[6]~4_combout\ $end
$var wire 1 o" \inst6|count[7]~1_combout\ $end
$var wire 1 p" \inst6|count[7]~2_combout\ $end
$var wire 1 q" \inst_mem17|altsyncram_component|auto_generated|q_a\ [23] $end
$var wire 1 r" \inst_mem17|altsyncram_component|auto_generated|q_a\ [22] $end
$var wire 1 s" \inst_mem17|altsyncram_component|auto_generated|q_a\ [21] $end
$var wire 1 t" \inst_mem17|altsyncram_component|auto_generated|q_a\ [20] $end
$var wire 1 u" \inst_mem17|altsyncram_component|auto_generated|q_a\ [19] $end
$var wire 1 v" \inst_mem17|altsyncram_component|auto_generated|q_a\ [18] $end
$var wire 1 w" \inst_mem17|altsyncram_component|auto_generated|q_a\ [17] $end
$var wire 1 x" \inst_mem17|altsyncram_component|auto_generated|q_a\ [16] $end
$var wire 1 y" \inst_mem17|altsyncram_component|auto_generated|q_a\ [15] $end
$var wire 1 z" \inst_mem17|altsyncram_component|auto_generated|q_a\ [14] $end
$var wire 1 {" \inst_mem17|altsyncram_component|auto_generated|q_a\ [13] $end
$var wire 1 |" \inst_mem17|altsyncram_component|auto_generated|q_a\ [12] $end
$var wire 1 }" \inst_mem17|altsyncram_component|auto_generated|q_a\ [11] $end
$var wire 1 ~" \inst_mem17|altsyncram_component|auto_generated|q_a\ [10] $end
$var wire 1 !# \inst_mem17|altsyncram_component|auto_generated|q_a\ [9] $end
$var wire 1 "# \inst_mem17|altsyncram_component|auto_generated|q_a\ [8] $end
$var wire 1 ## \inst_mem17|altsyncram_component|auto_generated|q_a\ [7] $end
$var wire 1 $# \inst_mem17|altsyncram_component|auto_generated|q_a\ [6] $end
$var wire 1 %# \inst_mem17|altsyncram_component|auto_generated|q_a\ [5] $end
$var wire 1 &# \inst_mem17|altsyncram_component|auto_generated|q_a\ [4] $end
$var wire 1 '# \inst_mem17|altsyncram_component|auto_generated|q_a\ [3] $end
$var wire 1 (# \inst_mem17|altsyncram_component|auto_generated|q_a\ [2] $end
$var wire 1 )# \inst_mem17|altsyncram_component|auto_generated|q_a\ [1] $end
$var wire 1 *# \inst_mem17|altsyncram_component|auto_generated|q_a\ [0] $end
$var wire 1 +# \inst6|count\ [7] $end
$var wire 1 ,# \inst6|count\ [6] $end
$var wire 1 -# \inst6|count\ [5] $end
$var wire 1 .# \inst6|count\ [4] $end
$var wire 1 /# \inst6|count\ [3] $end
$var wire 1 0# \inst6|count\ [2] $end
$var wire 1 1# \inst6|count\ [1] $end
$var wire 1 2# \inst6|count\ [0] $end
$var wire 1 3# \inst8|count\ [31] $end
$var wire 1 4# \inst8|count\ [30] $end
$var wire 1 5# \inst8|count\ [29] $end
$var wire 1 6# \inst8|count\ [28] $end
$var wire 1 7# \inst8|count\ [27] $end
$var wire 1 8# \inst8|count\ [26] $end
$var wire 1 9# \inst8|count\ [25] $end
$var wire 1 :# \inst8|count\ [24] $end
$var wire 1 ;# \inst8|count\ [23] $end
$var wire 1 <# \inst8|count\ [22] $end
$var wire 1 =# \inst8|count\ [21] $end
$var wire 1 ># \inst8|count\ [20] $end
$var wire 1 ?# \inst8|count\ [19] $end
$var wire 1 @# \inst8|count\ [18] $end
$var wire 1 A# \inst8|count\ [17] $end
$var wire 1 B# \inst8|count\ [16] $end
$var wire 1 C# \inst8|count\ [15] $end
$var wire 1 D# \inst8|count\ [14] $end
$var wire 1 E# \inst8|count\ [13] $end
$var wire 1 F# \inst8|count\ [12] $end
$var wire 1 G# \inst8|count\ [11] $end
$var wire 1 H# \inst8|count\ [10] $end
$var wire 1 I# \inst8|count\ [9] $end
$var wire 1 J# \inst8|count\ [8] $end
$var wire 1 K# \inst8|count\ [7] $end
$var wire 1 L# \inst8|count\ [6] $end
$var wire 1 M# \inst8|count\ [5] $end
$var wire 1 N# \inst8|count\ [4] $end
$var wire 1 O# \inst8|count\ [3] $end
$var wire 1 P# \inst8|count\ [2] $end
$var wire 1 Q# \inst8|count\ [1] $end
$var wire 1 R# \inst8|count\ [0] $end
$upscope $end
$upscope $end
$enddefinitions $end
#0
$dumpvars
0!
0B
0C
1D
xE
1F
1G
1H
1I
1J
1K
0T
0U
0N!
zO!
zP!
zQ!
0R!
0S!
0T!
0U!
0V!
0W!
0X!
0Y!
0Z!
0[!
0\!
0]!
0^!
0_!
0`!
0a!
0b!
0c!
0d!
0e!
0f!
0g!
0h!
0i!
0j!
0k!
0l!
0m!
0n!
0o!
0p!
0q!
0r!
0s!
1t!
0u!
0v!
0w!
1x!
0y!
0z!
0{!
1|!
0}!
0~!
0!"
1""
0#"
0$"
0%"
1&"
0'"
0("
0)"
1*"
0+"
0,"
0-"
1."
0/"
00"
01"
12"
03"
04"
05"
16"
07"
08"
09"
1:"
0;"
0<"
0="
1>"
0?"
0@"
0A"
1B"
0C"
0D"
0E"
1F"
0G"
0H"
0I"
1J"
0K"
0L"
0M"
1N"
1O"
1P"
1Q"
1R"
0S"
0T"
1U"
1V"
0W"
1X"
0Y"
0Z"
0["
1\"
1]"
1^"
1_"
1`"
1a"
1b"
0c"
0d"
0e"
0f"
0g"
0h"
0i"
0j"
0k"
0l"
0m"
0n"
1o"
0p"
0V
0W
0X
0Y
0Z
0[
0\
0]
0^
0_
0`
0a
0b
0c
0d
0e
0f
0g
0h
0i
0j
0k
0l
0m
0v
0w
0x
0y
0z
0{
0|
0}
0~
0!!
0"!
0#!
0$!
0%!
0&!
0'!
0(!
0)!
0*!
0+!
0,!
0-!
0.!
0/!
00!
01!
02!
03!
04!
05!
06!
07!
08!
09!
0:!
0;!
0L
0M
0N
0O
0P
0Q
0R
0S
0q"
0r"
0s"
0t"
0u"
0v"
0w"
0x"
0y"
0z"
0{"
0|"
0}"
0~"
0!#
0"#
0##
0$#
0%#
0&#
0'#
0(#
0)#
0*#
0+#
0,#
0-#
0.#
0/#
00#
01#
02#
03#
04#
05#
06#
07#
08#
09#
0:#
0;#
0<#
0=#
0>#
0?#
0@#
0A#
0B#
0C#
0D#
0E#
0F#
0G#
0H#
0I#
0J#
0K#
0L#
0M#
0N#
0O#
0P#
0Q#
0R#
1J!
1K!
1L!
0M!
1F!
1G!
1H!
0I!
0<!
0=!
0>!
0?!
0@!
0A!
0B!
0C!
0D!
0E!
0"
0#
0$
0%
0&
0'
0(
0)
0*
0+
0,
0-
0.
0/
00
01
02
03
04
05
06
07
08
09
0:
0;
0<
0=
0>
0?
0@
0A
0n
0o
0p
0q
0r
0s
0t
0u
$end
#10000
1!
1T
1r!
1M!
1s!
1c"
1I!
0a"
0b"
1d"
#20000
0!
0T
0r!
0M!
0s!
#30000
1!
1T
1r!
1M!
1s!
0c"
0I!
1a"
1b"
0d"
#40000
0!
0T
0r!
0M!
0s!
#50000
1!
1T
1r!
1M!
1s!
1c"
1I!
0a"
0b"
1d"
1;!
1:!
19!
18!
17!
16!
15!
14!
13!
12!
11!
10!
1/!
1.!
1-!
1,!
1+!
1*!
1)!
1(!
1'!
1&!
1%!
1$!
1*#
1)#
1(#
1'#
1&#
1%#
1$#
1##
1"#
1!#
1~"
1}"
1|"
1{"
1z"
1y"
1x"
1w"
1v"
1u"
1t"
1s"
1r"
1q"
1Z!
1[!
1\!
1]!
1^!
1_!
1`!
1a!
1b!
1c!
1d!
1e!
1f!
1g!
1h!
1i!
1j!
1k!
1l!
1m!
1n!
1o!
1p!
1q!
1V
1W
1X
1Y
1Z
1[
1\
1]
1^
1_
1`
1a
1b
1c
1d
1e
1f
1g
1h
1i
1j
1k
1l
1m
1A
1@
1?
1>
1=
1<
1;
1:
19
18
17
16
15
14
13
12
11
10
1/
1.
1-
1,
1+
1*
#60000
0!
0T
0r!
0M!
0s!
#70000
1!
1T
1r!
1M!
1s!
0c"
0I!
1a"
1b"
0d"
#80000
0!
0T
0r!
0M!
0s!
#90000
1!
1T
1r!
1M!
1s!
1c"
1I!
0a"
0b"
1d"
#100000
0!
0T
0r!
0M!
0s!
#110000
1!
1T
1r!
1M!
1s!
0c"
0I!
1a"
1b"
0d"
#120000
0!
0T
0r!
0M!
0s!
#130000
1!
1T
1r!
1M!
1s!
1c"
1I!
0a"
0b"
1d"
#140000
0!
0T
0r!
0M!
0s!
#150000
1!
1T
1r!
1M!
1s!
0c"
0I!
1a"
1b"
0d"
#160000
0!
0T
0r!
0M!
0s!
#170000
1!
1T
1r!
1M!
1s!
1c"
1I!
0a"
0b"
1d"
#180000
0!
0T
0r!
0M!
0s!
#190000
1!
1T
1r!
1M!
1s!
0c"
0I!
1a"
1b"
0d"
#200000
0!
0T
0r!
0M!
0s!
#210000
1!
1T
1r!
1M!
1s!
1c"
1I!
0a"
0b"
1d"
#220000
0!
0T
0r!
0M!
0s!
#230000
1!
1T
1r!
1M!
1s!
0c"
0I!
1a"
1b"
0d"
#240000
0!
0T
0r!
0M!
0s!
#250000
1!
1T
1r!
1M!
1s!
1c"
1I!
0a"
0b"
1d"
#260000
0!
0T
0r!
0M!
0s!
#270000
1!
1T
1r!
1M!
1s!
0c"
0I!
1a"
1b"
0d"
#280000
0!
0T
0r!
0M!
0s!
#290000
1!
1T
1r!
1M!
1s!
1c"
1I!
0a"
0b"
1d"
#300000
0!
0T
0r!
0M!
0s!
#310000
1!
1T
1r!
1M!
1s!
0c"
0I!
1a"
1b"
0d"
#320000
0!
0T
0r!
0M!
0s!
#330000
1!
1T
1r!
1M!
1s!
1c"
1I!
0a"
0b"
1d"
#340000
0!
0T
0r!
0M!
0s!
#350000
1!
1T
1r!
1M!
1s!
0c"
0I!
1a"
1b"
0d"
#360000
0!
0T
0r!
0M!
0s!
#370000
1!
1T
1r!
1M!
1s!
1c"
1I!
0a"
0b"
1d"
#380000
0!
0T
0r!
0M!
0s!
#390000
1!
1T
1r!
1M!
1s!
0c"
0I!
1a"
1b"
0d"
#400000
0!
0T
0r!
0M!
0s!
#410000
1!
1T
1r!
1M!
1s!
1c"
1I!
0a"
0b"
1d"
#420000
0!
0T
0r!
0M!
0s!
#430000
1!
1T
1r!
1M!
1s!
0c"
0I!
1a"
1b"
0d"
#440000
0!
0T
0r!
0M!
0s!
#450000
1!
1T
1r!
1M!
1s!
1c"
1I!
0a"
0b"
1d"
#460000
0!
0T
0r!
0M!
0s!
#470000
1!
1T
1r!
1M!
1s!
0c"
0I!
1a"
1b"
0d"
#480000
0!
0T
0r!
0M!
0s!
#490000
1!
1T
1r!
1M!
1s!
1c"
1I!
0a"
0b"
1d"
#500000
0!
0T
0r!
0M!
0s!
#510000
1!
1T
1r!
1M!
1s!
0c"
0I!
1a"
1b"
0d"
#520000
0!
0T
0r!
0M!
0s!
#530000
1!
1T
1r!
1M!
1s!
1c"
1I!
0a"
0b"
1d"
#540000
0!
0T
0r!
0M!
0s!
#550000
1!
1T
1r!
1M!
1s!
0c"
0I!
1a"
1b"
0d"
#560000
0!
0T
0r!
0M!
0s!
#570000
1!
1T
1r!
1M!
1s!
1c"
1I!
0a"
0b"
1d"
#580000
0!
0T
0r!
0M!
0s!
#590000
1!
1T
1r!
1M!
1s!
0c"
0I!
1a"
1b"
0d"
#600000
0!
0T
0r!
0M!
0s!
#610000
1!
1T
1r!
1M!
1s!
1c"
1I!
0a"
0b"
1d"
#620000
0!
0T
0r!
0M!
0s!
#630000
1!
1T
1r!
1M!
1s!
0c"
0I!
1a"
1b"
0d"
#640000
0!
0T
0r!
0M!
0s!
#650000
1!
1T
1r!
1M!
1s!
1c"
1I!
0a"
0b"
1d"
#660000
0!
0T
0r!
0M!
0s!
#670000
1!
1T
1r!
1M!
1s!
0c"
0I!
1a"
1b"
0d"
#680000
0!
0T
0r!
0M!
0s!
#690000
1!
1T
1r!
1M!
1s!
1c"
1I!
0a"
0b"
1d"
#700000
0!
0T
0r!
0M!
0s!
#710000
1!
1T
1r!
1M!
1s!
0c"
0I!
1a"
1b"
0d"
#720000
0!
0T
0r!
0M!
0s!
#730000
1!
1T
1r!
1M!
1s!
1c"
1I!
0a"
0b"
1d"
#740000
0!
0T
0r!
0M!
0s!
#750000
1!
1T
1r!
1M!
1s!
0c"
0I!
1a"
1b"
0d"
#760000
0!
0T
0r!
0M!
0s!
#770000
1!
1T
1r!
1M!
1s!
1c"
1I!
0a"
0b"
1d"
#780000
0!
0T
0r!
0M!
0s!
#790000
1!
1T
1r!
1M!
1s!
0c"
0I!
1a"
1b"
0d"
#800000
0!
0T
0r!
0M!
0s!
#810000
1!
1T
1r!
1M!
1s!
1c"
1I!
0a"
0b"
1d"
#820000
0!
0T
0r!
0M!
0s!
#830000
1!
1T
1r!
1M!
1s!
0c"
0I!
1a"
1b"
0d"
#840000
0!
0T
0r!
0M!
0s!
#850000
1!
1T
1r!
1M!
1s!
1c"
1I!
0a"
0b"
1d"
#860000
0!
0T
0r!
0M!
0s!
#870000
1!
1T
1r!
1M!
1s!
0c"
0I!
1a"
1b"
0d"
#880000
0!
0T
0r!
0M!
0s!
#890000
1!
1T
1r!
1M!
1s!
1c"
1I!
0a"
0b"
1d"
#900000
0!
0T
0r!
0M!
0s!
#910000
1!
1T
1r!
1M!
1s!
0c"
0I!
1a"
1b"
0d"
#920000
0!
0T
0r!
0M!
0s!
#930000
1!
1T
1r!
1M!
1s!
1c"
1I!
0a"
0b"
1d"
#940000
0!
0T
0r!
0M!
0s!
#950000
1!
1T
1r!
1M!
1s!
0c"
0I!
1a"
1b"
0d"
#960000
0!
0T
0r!
0M!
0s!
#970000
1!
1T
1r!
1M!
1s!
1c"
1I!
0a"
0b"
1d"
#980000
0!
0T
0r!
0M!
0s!
