Projeto Final/simulation/qsim/main.msim.vcd
$comment
	File created using the following command:
		vcd file main.msim.vcd -direction
$end
$date
	Fri Jun 21 23:48:35 2024
$end
$version
	ModelSim Version 10.5b
$end
$timescale
	1ps
$end

$scope module tmp_2_vhd_vec_tst $end
$var wire 1 ! ADDRESS [7] $end
$var wire 1 " ADDRESS [6] $end
$var wire 1 # ADDRESS [5] $end
$var wire 1 $ ADDRESS [4] $end
$var wire 1 % ADDRESS [3] $end
$var wire 1 & ADDRESS [2] $end
$var wire 1 ' ADDRESS [1] $end
$var wire 1 ( ADDRESS [0] $end
$var wire 1 ) CLK $end
$var wire 1 * CLK_2 $end
$var wire 1 + StStop $end

$scope module i1 $end
$var wire 1 , gnd $end
$var wire 1 - vcc $end
$var wire 1 . unknown $end
$var wire 1 / devoe $end
$var wire 1 0 devclrn $end
$var wire 1 1 devpor $end
$var wire 1 2 ww_devoe $end
$var wire 1 3 ww_devclrn $end
$var wire 1 4 ww_devpor $end
$var wire 1 5 ww_ADDRESS [7] $end
$var wire 1 6 ww_ADDRESS [6] $end
$var wire 1 7 ww_ADDRESS [5] $end
$var wire 1 8 ww_ADDRESS [4] $end
$var wire 1 9 ww_ADDRESS [3] $end
$var wire 1 : ww_ADDRESS [2] $end
$var wire 1 ; ww_ADDRESS [1] $end
$var wire 1 < ww_ADDRESS [0] $end
$var wire 1 = ww_CLK $end
$var wire 1 > ww_CLK_2 $end
$var wire 1 ? ww_StStop $end
$var wire 1 @ \~QUARTUS_CREATED_ADC1~_CHSEL_bus\ [4] $end
$var wire 1 A \~QUARTUS_CREATED_ADC1~_CHSEL_bus\ [3] $end
$var wire 1 B \~QUARTUS_CREATED_ADC1~_CHSEL_bus\ [2] $end
$var wire 1 C \~QUARTUS_CREATED_ADC1~_CHSEL_bus\ [1] $end
$var wire 1 D \~QUARTUS_CREATED_ADC1~_CHSEL_bus\ [0] $end
$var wire 1 E \~QUARTUS_CREATED_ADC2~_CHSEL_bus\ [4] $end
$var wire 1 F \~QUARTUS_CREATED_ADC2~_CHSEL_bus\ [3] $end
$var wire 1 G \~QUARTUS_CREATED_ADC2~_CHSEL_bus\ [2] $end
$var wire 1 H \~QUARTUS_CREATED_ADC2~_CHSEL_bus\ [1] $end
$var wire 1 I \~QUARTUS_CREATED_ADC2~_CHSEL_bus\ [0] $end
$var wire 1 J \CLK_2~inputclkctrl_INCLK_bus\ [3] $end
$var wire 1 K \CLK_2~inputclkctrl_INCLK_bus\ [2] $end
$var wire 1 L \CLK_2~inputclkctrl_INCLK_bus\ [1] $end
$var wire 1 M \CLK_2~inputclkctrl_INCLK_bus\ [0] $end
$var wire 1 N \CLK~inputclkctrl_INCLK_bus\ [3] $end
$var wire 1 O \CLK~inputclkctrl_INCLK_bus\ [2] $end
$var wire 1 P \CLK~inputclkctrl_INCLK_bus\ [1] $end
$var wire 1 Q \CLK~inputclkctrl_INCLK_bus\ [0] $end
$var wire 1 R \~QUARTUS_CREATED_GND~I_combout\ $end
$var wire 1 S \~QUARTUS_CREATED_UNVM~~busy\ $end
$var wire 1 T \~QUARTUS_CREATED_ADC1~~eoc\ $end
$var wire 1 U \~QUARTUS_CREATED_ADC2~~eoc\ $end
$var wire 1 V \ADDRESS[7]~output_o\ $end
$var wire 1 W \ADDRESS[6]~output_o\ $end
$var wire 1 X \ADDRESS[5]~output_o\ $end
$var wire 1 Y \ADDRESS[4]~output_o\ $end
$var wire 1 Z \ADDRESS[3]~output_o\ $end
$var wire 1 [ \ADDRESS[2]~output_o\ $end
$var wire 1 \ \ADDRESS[1]~output_o\ $end
$var wire 1 ] \ADDRESS[0]~output_o\ $end
$var wire 1 ^ \CLK_2~input_o\ $end
$var wire 1 _ \CLK_2~inputclkctrl_outclk\ $end
$var wire 1 ` \inst11|count[0]~4_combout\ $end
$var wire 1 a \StStop~input_o\ $end
$var wire 1 b \inst11|count[1]~3_combout\ $end
$var wire 1 c \inst11|count[2]~2_combout\ $end
$var wire 1 d \inst11|count[3]~0_combout\ $end
$var wire 1 e \inst11|count[3]~1_combout\ $end
$var wire 1 f \CLK~input_o\ $end
$var wire 1 g \CLK~inputclkctrl_outclk\ $end
$var wire 1 h \inst6|count[0]~4_combout\ $end
$var wire 1 i \inst6|count[1]~3_combout\ $end
$var wire 1 j \inst6|count[2]~2_combout\ $end
$var wire 1 k \inst6|count[3]~0_combout\ $end
$var wire 1 l \inst6|count[3]~1_combout\ $end
$var wire 1 m \inst11|count\ [3] $end
$var wire 1 n \inst11|count\ [2] $end
$var wire 1 o \inst11|count\ [1] $end
$var wire 1 p \inst11|count\ [0] $end
$var wire 1 q \inst6|count\ [3] $end
$var wire 1 r \inst6|count\ [2] $end
$var wire 1 s \inst6|count\ [1] $end
$var wire 1 t \inst6|count\ [0] $end
$var wire 1 u \ALT_INV_CLK_2~inputclkctrl_outclk\ $end
$upscope $end
$upscope $end
$enddefinitions $end
#0
$dumpvars
0)
0*
1+
0,
1-
x.
1/
10
11
12
13
14
0=
0>
1?
0R
zS
zT
zU
0V
0W
0X
0Y
0Z
0[
0\
0]
0^
0_
1`
1a
0b
0c
0d
0e
0f
0g
1h
0i
0j
0k
0l
1u
05
06
07
08
09
0:
0;
0<
0m
0n
0o
0p
0q
0r
0s
0t
1J
1K
1L
0M
1N
1O
1P
0Q
0@
0A
0B
0C
0D
0E
0F
0G
0H
0I
0!
0"
0#
0$
0%
0&
0'
0(
$end
#10000
1)
1=
1f
1Q
1g
1t
1]
0h
1i
1<
1(
#20000
0)
0=
0f
0Q
0g
#30000
1)
1=
1f
1Q
1g
0t
1s
1\
0]
1h
1;
0<
0(
1'
#40000
0)
0=
0f
0Q
0g
#50000
1)
1=
1f
1Q
1g
1t
1]
0h
0i
1j
1<
1(
#60000
0)
0=
0f
0Q
0g
#70000
1)
1=
1f
1Q
1g
0t
0s
1r
1[
0\
0]
1h
1:
0;
0<
0(
0'
1&
#80000
0)
0=
0f
0Q
0g
#90000
1)
1=
1f
1Q
1g
1t
1]
0h
1i
1<
1(
#100000
0)
0=
0f
0Q
0g
#110000
1)
1=
1f
1Q
1g
0t
1s
1\
0]
1h
1;
0<
0(
1'
#120000
0)
0=
0f
0Q
0g
#130000
1)
1=
1f
1Q
1g
1t
1]
0h
0i
0j
1k
1<
1l
1(
#140000
0)
0=
0f
0Q
0g
#150000
1)
1=
1f
1Q
1g
0t
0s
0r
1q
1Z
0[
0\
0]
0l
1h
0k
19
0:
0;
0<
1l
0(
0'
0&
1%
#160000
0)
0=
0f
0Q
0g
#170000
1)
1=
1f
1Q
1g
1t
1]
0h
1i
1<
1(
#180000
0)
0=
0f
0Q
0g
#190000
1)
1=
1f
1Q
1g
0t
1s
1\
0]
1h
1;
0<
0(
1'
#200000
0)
0=
0f
0Q
0g
#210000
1)
1=
1f
1Q
1g
1t
1]
0h
0i
1j
1<
1(
#220000
0)
0=
0f
0Q
0g
#230000
1)
1=
1f
1Q
1g
0t
0s
1r
1[
0\
0]
1h
1:
0;
0<
0(
0'
1&
#240000
0)
0=
0f
0Q
0g
#250000
1)
1=
1f
1Q
1g
1t
1]
0h
1i
1<
1(
#260000
0)
0=
0f
0Q
0g
#270000
1)
1=
1f
1Q
1g
0t
1s
1\
0]
1h
1;
0<
0(
1'
#280000
0)
0=
0f
0Q
0g
#290000
1)
1=
1f
1Q
1g
1t
1]
0h
0i
0j
1k
1<
0l
1(
#300000
0)
0=
0f
0Q
0g
#310000
1)
1=
1f
1Q
1g
0t
0s
0r
0q
0Z
0[
0\
0]
1l
1h
0k
09
0:
0;
0<
0l
0(
0'
0&
0%
#320000
0)
1*
0=
1>
1^
0f
1M
0Q
0g
1_
0u
1p
1Y
0`
1b
18
1$
#330000
1)
1=
1f
1Q
1g
#340000
0)
0=
0f
0Q
0g
#350000
1)
1=
1f
1Q
1g
#360000
0)
0=
0f
0Q
0g
#370000
1)
1=
1f
1Q
1g
#380000
0)
0=
0f
0Q
0g
#390000
1)
1=
1f
1Q
1g
#400000
0)
0=
0f
0Q
0g
#410000
1)
1=
1f
1Q
1g
#420000
0)
0=
0f
0Q
0g
#430000
1)
1=
1f
1Q
1g
#440000
0)
0=
0f
0Q
0g
#450000
1)
1=
1f
1Q
1g
#460000
0)
0=
0f
0Q
0g
#470000
1)
1=
1f
1Q
1g
#480000
0)
0=
0f
0Q
0g
#490000
1)
1=
1f
1Q
1g
#500000
0)
0=
0f
0Q
0g
#510000
1)
1=
1f
1Q
1g
#520000
0)
0=
0f
0Q
0g
#530000
1)
1=
1f
1Q
1g
#540000
0)
0=
0f
0Q
0g
#550000
1)
1=
1f
1Q
1g
#560000
0)
0=
0f
0Q
0g
#570000
1)
1=
1f
1Q
1g
#580000
0)
0=
0f
0Q
0g
#590000
1)
1=
1f
1Q
1g
#600000
0)
0=
0f
0Q
0g
#610000
1)
1=
1f
1Q
1g
#620000
0)
0=
0f
0Q
0g
#630000
1)
1=
1f
1Q
1g
#640000
0)
0*
0=
0>
0^
0f
0M
0Q
0g
0_
1u
#650000
1)
1=
1f
1Q
1g
1t
1]
0h
1i
1<
1(
#660000
0)
0=
0f
0Q
0g
#670000
1)
1=
1f
1Q
1g
0t
1s
1\
0]
1h
1;
0<
0(
1'
#680000
0)
0=
0f
0Q
0g
#690000
1)
1=
1f
1Q
1g
1t
1]
0h
0i
1j
1<
1(
#700000
0)
0=
0f
0Q
0g
#710000
1)
1=
1f
1Q
1g
0t
0s
1r
1[
0\
0]
1h
1:
0;
0<
0(
0'
1&
#720000
0)
0=
0f
0Q
0g
#730000
1)
1=
1f
1Q
1g
1t
1]
0h
1i
1<
1(
#740000
0)
0=
0f
0Q
0g
#750000
1)
1=
1f
1Q
1g
0t
1s
1\
0]
1h
1;
0<
0(
1'
#760000
0)
0=
0f
0Q
0g
#770000
1)
1=
1f
1Q
1g
1t
1]
0h
0i
0j
1k
1<
1l
1(
#780000
0)
0=
0f
0Q
0g
#790000
1)
1=
1f
1Q
1g
0t
0s
0r
1q
1Z
0[
0\
0]
0l
1h
0k
19
0:
0;
0<
1l
0(
0'
0&
1%
#800000
0)
0=
0f
0Q
0g
#810000
1)
1=
1f
1Q
1g
1t
1]
0h
1i
1<
1(
#820000
0)
0=
0f
0Q
0g
#830000
1)
1=
1f
1Q
1g
0t
1s
1\
0]
1h
1;
0<
0(
1'
#840000
0)
0=
0f
0Q
0g
#850000
1)
1=
1f
1Q
1g
1t
1]
0h
0i
1j
1<
1(
#860000
0)
0=
0f
0Q
0g
#870000
1)
1=
1f
1Q
1g
0t
0s
1r
1[
0\
0]
1h
1:
0;
0<
0(
0'
1&
#880000
0)
0=
0f
0Q
0g
#890000
1)
1=
1f
1Q
1g
1t
1]
0h
1i
1<
1(
#900000
0)
0=
0f
0Q
0g
#910000
1)
1=
1f
1Q
1g
0t
1s
1\
0]
1h
1;
0<
0(
1'
#920000
0)
0=
0f
0Q
0g
#930000
1)
1=
1f
1Q
1g
1t
1]
0h
0i
0j
1k
1<
0l
1(
#940000
0)
0=
0f
0Q
0g
#950000
1)
1=
1f
1Q
1g
0t
0s
0r
0q
0Z
0[
0\
0]
1l
1h
0k
09
0:
0;
0<
0l
0(
0'
0&
0%
#960000
0)
1*
0=
1>
1^
0f
1M
0Q
0g
1_
0u
0p
1o
1X
0Y
1`
17
08
0$
1#
#970000
1)
1=
1f
1Q
1g
#980000
0)
0=
0f
0Q
0g
#990000
1)
1=
1f
1Q
1g
