Lab02_1/simulation/qsim/ShiftRegister.msim.vcd
$comment
	File created using the following command:
		vcd file ShiftRegister.msim.vcd -direction
$end
$date
	Mon Apr 22 21:53:31 2024
$end
$version
	ModelSim Version 10.5b
$end
$timescale
	1ps
$end

$scope module tmp_vhd_vec_tst $end
$var wire 1 ! CTRL $end
$var wire 1 " D0 $end
$var wire 1 # D1 $end
$var wire 1 $ D2 $end
$var wire 1 % D3 $end
$var wire 1 & E0 $end
$var wire 1 ' E1 $end
$var wire 1 ( E2 $end
$var wire 1 ) E3 $end
$var wire 1 * O0 $end
$var wire 1 + O1 $end
$var wire 1 , O2 $end
$var wire 1 - O3 $end

$scope module i1 $end
$var wire 1 . gnd $end
$var wire 1 / vcc $end
$var wire 1 0 unknown $end
$var wire 1 1 devoe $end
$var wire 1 2 devclrn $end
$var wire 1 3 devpor $end
$var wire 1 4 ww_devoe $end
$var wire 1 5 ww_devclrn $end
$var wire 1 6 ww_devpor $end
$var wire 1 7 ww_O0 $end
$var wire 1 8 ww_CTRL $end
$var wire 1 9 ww_D0 $end
$var wire 1 : ww_D1 $end
$var wire 1 ; ww_D2 $end
$var wire 1 < ww_D3 $end
$var wire 1 = ww_E0 $end
$var wire 1 > ww_E1 $end
$var wire 1 ? ww_E2 $end
$var wire 1 @ ww_E3 $end
$var wire 1 A ww_O1 $end
$var wire 1 B ww_O2 $end
$var wire 1 C ww_O3 $end
$var wire 1 D \~QUARTUS_CREATED_ADC1~_CHSEL_bus\ [4] $end
$var wire 1 E \~QUARTUS_CREATED_ADC1~_CHSEL_bus\ [3] $end
$var wire 1 F \~QUARTUS_CREATED_ADC1~_CHSEL_bus\ [2] $end
$var wire 1 G \~QUARTUS_CREATED_ADC1~_CHSEL_bus\ [1] $end
$var wire 1 H \~QUARTUS_CREATED_ADC1~_CHSEL_bus\ [0] $end
$var wire 1 I \~QUARTUS_CREATED_ADC2~_CHSEL_bus\ [4] $end
$var wire 1 J \~QUARTUS_CREATED_ADC2~_CHSEL_bus\ [3] $end
$var wire 1 K \~QUARTUS_CREATED_ADC2~_CHSEL_bus\ [2] $end
$var wire 1 L \~QUARTUS_CREATED_ADC2~_CHSEL_bus\ [1] $end
$var wire 1 M \~QUARTUS_CREATED_ADC2~_CHSEL_bus\ [0] $end
$var wire 1 N \~QUARTUS_CREATED_GND~I_combout\ $end
$var wire 1 O \~QUARTUS_CREATED_UNVM~~busy\ $end
$var wire 1 P \~QUARTUS_CREATED_ADC1~~eoc\ $end
$var wire 1 Q \~QUARTUS_CREATED_ADC2~~eoc\ $end
$var wire 1 R \O0~output_o\ $end
$var wire 1 S \O1~output_o\ $end
$var wire 1 T \O2~output_o\ $end
$var wire 1 U \O3~output_o\ $end
$var wire 1 V \D0~input_o\ $end
$var wire 1 W \E0~input_o\ $end
$var wire 1 X \CTRL~input_o\ $end
$var wire 1 Y \inst|m0|Mux0~0_combout\ $end
$var wire 1 Z \E1~input_o\ $end
$var wire 1 [ \D1~input_o\ $end
$var wire 1 \ \inst|m1|Mux0~0_combout\ $end
$var wire 1 ] \D2~input_o\ $end
$var wire 1 ^ \E2~input_o\ $end
$var wire 1 _ \inst|m2|Mux0~0_combout\ $end
$var wire 1 ` \E3~input_o\ $end
$var wire 1 a \D3~input_o\ $end
$var wire 1 b \inst|m3|Mux0~0_combout\ $end
$upscope $end
$upscope $end
$enddefinitions $end
#0
$dumpvars
0!
1"
0#
0$
1%
0&
1'
1(
0)
1*
0+
0,
1-
0.
1/
x0
11
12
13
14
15
16
17
08
19
0:
0;
1<
0=
1>
1?
0@
0A
0B
1C
0N
zO
zP
zQ
1R
0S
0T
1U
1V
0W
0X
1Y
1Z
0[
0\
0]
1^
0_
0`
1a
1b
0D
0E
0F
0G
0H
0I
0J
0K
0L
0M
$end
#20000
1!
18
1X
0Y
1\
1_
0b
0U
1T
1S
0R
0C
1B
1A
07
0-
1,
1+
0*
#40000
0!
08
0X
1Y
0\
0_
1b
1U
0T
0S
1R
1C
0B
0A
17
1-
0,
0+
1*
#60000
1!
18
1X
0Y
1\
1_
0b
0U
1T
1S
0R
0C
1B
1A
07
0-
1,
1+
0*
#80000
0!
08
0X
1Y
0\
0_
1b
1U
0T
0S
1R
1C
0B
0A
17
1-
0,
0+
1*
#100000
1!
18
1X
0Y
1\
1_
0b
0U
1T
1S
0R
0C
1B
1A
07
0-
1,
1+
0*
#120000
0!
08
0X
1Y
0\
0_
1b
1U
0T
0S
1R
1C
0B
0A
17
1-
0,
0+
1*
#140000
1!
18
1X
0Y
1\
1_
0b
0U
1T
1S
0R
0C
1B
1A
07
0-
1,
1+
0*
#160000
0!
08
0X
1Y
0\
0_
1b
1U
0T
0S
1R
1C
0B
0A
17
1-
0,
0+
1*
#180000
1!
18
1X
0Y
1\
1_
0b
0U
1T
1S
0R
0C
1B
1A
07
0-
1,
1+
0*
#200000
0!
08
0X
1Y
0\
0_
1b
1U
0T
0S
1R
1C
0B
0A
17
1-
0,
0+
1*
#220000
1!
18
1X
0Y
1\
1_
0b
0U
1T
1S
0R
0C
1B
1A
07
0-
1,
1+
0*
#240000
0!
08
0X
1Y
0\
0_
1b
1U
0T
0S
1R
1C
0B
0A
17
1-
0,
0+
1*
#260000
1!
18
1X
0Y
1\
1_
0b
0U
1T
1S
0R
0C
1B
1A
07
0-
1,
1+
0*
#280000
0!
08
0X
1Y
0\
0_
1b
1U
0T
0S
1R
1C
0B
0A
17
1-
0,
0+
1*
#300000
1!
18
1X
0Y
1\
1_
0b
0U
1T
1S
0R
0C
1B
1A
07
0-
1,
1+
0*
#320000
0!
08
0X
1Y
0\
0_
1b
1U
0T
0S
1R
1C
0B
0A
17
1-
0,
0+
1*
#340000
1!
18
1X
0Y
1\
1_
0b
0U
1T
1S
0R
0C
1B
1A
07
0-
1,
1+
0*
#360000
0!
08
0X
1Y
0\
0_
1b
1U
0T
0S
1R
1C
0B
0A
17
1-
0,
0+
1*
#380000
1!
18
1X
0Y
1\
1_
0b
0U
1T
1S
0R
0C
1B
1A
07
0-
1,
1+
0*
#400000
0!
08
0X
1Y
0\
0_
1b
1U
0T
0S
1R
1C
0B
0A
17
1-
0,
0+
1*
#420000
1!
18
1X
0Y
1\
1_
0b
0U
1T
1S
0R
0C
1B
1A
07
0-
1,
1+
0*
#440000
0!
08
0X
1Y
0\
0_
1b
1U
0T
0S
1R
1C
0B
0A
17
1-
0,
0+
1*
#460000
1!
18
1X
0Y
1\
1_
0b
0U
1T
1S
0R
0C
1B
1A
07
0-
1,
1+
0*
#480000
0!
08
0X
1Y
0\
0_
1b
1U
0T
0S
1R
1C
0B
0A
17
1-
0,
0+
1*
#500000
1!
18
1X
0Y
1\
1_
0b
0U
1T
1S
0R
0C
1B
1A
07
0-
1,
1+
0*
#520000
0!
08
0X
1Y
0\
0_
1b
1U
0T
0S
1R
1C
0B
0A
17
1-
0,
0+
1*
#540000
1!
18
1X
0Y
1\
1_
0b
0U
1T
1S
0R
0C
1B
1A
07
0-
1,
1+
0*
#560000
0!
08
0X
1Y
0\
0_
1b
1U
0T
0S
1R
1C
0B
0A
17
1-
0,
0+
1*
#580000
1!
18
1X
0Y
1\
1_
0b
0U
1T
1S
0R
0C
1B
1A
07
0-
1,
1+
0*
#600000
0!
08
0X
1Y
0\
0_
1b
1U
0T
0S
1R
1C
0B
0A
17
1-
0,
0+
1*
#620000
1!
18
1X
0Y
1\
1_
0b
0U
1T
1S
0R
0C
1B
1A
07
0-
1,
1+
0*
#640000
0!
08
0X
1Y
0\
0_
1b
1U
0T
0S
1R
1C
0B
0A
17
1-
0,
0+
1*
#660000
1!
18
1X
0Y
1\
1_
0b
0U
1T
1S
0R
0C
1B
1A
07
0-
1,
1+
0*
#680000
0!
08
0X
1Y
0\
0_
1b
1U
0T
0S
1R
1C
0B
0A
17
1-
0,
0+
1*
#700000
1!
18
1X
0Y
1\
1_
0b
0U
1T
1S
0R
0C
1B
1A
07
0-
1,
1+
0*
#720000
0!
08
0X
1Y
0\
0_
1b
1U
0T
0S
1R
1C
0B
0A
17
1-
0,
0+
1*
#740000
1!
18
1X
0Y
1\
1_
0b
0U
1T
1S
0R
0C
1B
1A
07
0-
1,
1+
0*
#760000
0!
08
0X
1Y
0\
0_
1b
1U
0T
0S
1R
1C
0B
0A
17
1-
0,
0+
1*
#780000
1!
18
1X
0Y
1\
1_
0b
0U
1T
1S
0R
0C
1B
1A
07
0-
1,
1+
0*
#800000
0!
08
0X
1Y
0\
0_
1b
1U
0T
0S
1R
1C
0B
0A
17
1-
0,
0+
1*
#820000
1!
18
1X
0Y
1\
1_
0b
0U
1T
1S
0R
0C
1B
1A
07
0-
1,
1+
0*
#840000
0!
08
0X
1Y
0\
0_
1b
1U
0T
0S
1R
1C
0B
0A
17
1-
0,
0+
1*
#860000
1!
18
1X
0Y
1\
1_
0b
0U
1T
1S
0R
0C
1B
1A
07
0-
1,
1+
0*
#880000
0!
08
0X
1Y
0\
0_
1b
1U
0T
0S
1R
1C
0B
0A
17
1-
0,
0+
1*
#900000
1!
18
1X
0Y
1\
1_
0b
0U
1T
1S
0R
0C
1B
1A
07
0-
1,
1+
0*
#920000
0!
08
0X
1Y
0\
0_
1b
1U
0T
0S
1R
1C
0B
0A
17
1-
0,
0+
1*
#940000
1!
18
1X
0Y
1\
1_
0b
0U
1T
1S
0R
0C
1B
1A
07
0-
1,
1+
0*
#960000
0!
08
0X
1Y
0\
0_
1b
1U
0T
0S
1R
1C
0B
0A
17
1-
0,
0+
1*
#980000
1!
18
1X
0Y
1\
1_
0b
0U
1T
1S
0R
0C
1B
1A
07
0-
1,
1+
0*
