Lab02_1/simulation/qsim/ShiftRegister.msim.vcd
$comment
	File created using the following command:
		vcd file ShiftRegister.msim.vcd -direction
$end
$date
	Sun Apr 21 10:59:17 2024
$end
$version
	ModelSim Version 10.5b
$end
$timescale
	1ps
$end

$scope module adder_4_bits_vhd_vec_tst $end
$var wire 1 ! A0 $end
$var wire 1 " A1 $end
$var wire 1 # A2 $end
$var wire 1 $ A3 $end
$var wire 1 % B0 $end
$var wire 1 & B1 $end
$var wire 1 ' B2 $end
$var wire 1 ( B3 $end
$var wire 1 ) Cin $end
$var wire 1 * Cout $end
$var wire 1 + S0 $end
$var wire 1 , S1 $end
$var wire 1 - S2 $end
$var wire 1 . S3 $end

$scope module i1 $end
$var wire 1 / gnd $end
$var wire 1 0 vcc $end
$var wire 1 1 unknown $end
$var wire 1 2 devoe $end
$var wire 1 3 devclrn $end
$var wire 1 4 devpor $end
$var wire 1 5 ww_devoe $end
$var wire 1 6 ww_devclrn $end
$var wire 1 7 ww_devpor $end
$var wire 1 8 ww_S0 $end
$var wire 1 9 ww_Cin $end
$var wire 1 : ww_A0 $end
$var wire 1 ; ww_B0 $end
$var wire 1 < ww_S1 $end
$var wire 1 = ww_A1 $end
$var wire 1 > ww_B1 $end
$var wire 1 ? ww_S2 $end
$var wire 1 @ ww_A2 $end
$var wire 1 A ww_B2 $end
$var wire 1 B ww_S3 $end
$var wire 1 C ww_A3 $end
$var wire 1 D ww_B3 $end
$var wire 1 E ww_Cout $end
$var wire 1 F \~QUARTUS_CREATED_ADC1~_CHSEL_bus\ [4] $end
$var wire 1 G \~QUARTUS_CREATED_ADC1~_CHSEL_bus\ [3] $end
$var wire 1 H \~QUARTUS_CREATED_ADC1~_CHSEL_bus\ [2] $end
$var wire 1 I \~QUARTUS_CREATED_ADC1~_CHSEL_bus\ [1] $end
$var wire 1 J \~QUARTUS_CREATED_ADC1~_CHSEL_bus\ [0] $end
$var wire 1 K \~QUARTUS_CREATED_ADC2~_CHSEL_bus\ [4] $end
$var wire 1 L \~QUARTUS_CREATED_ADC2~_CHSEL_bus\ [3] $end
$var wire 1 M \~QUARTUS_CREATED_ADC2~_CHSEL_bus\ [2] $end
$var wire 1 N \~QUARTUS_CREATED_ADC2~_CHSEL_bus\ [1] $end
$var wire 1 O \~QUARTUS_CREATED_ADC2~_CHSEL_bus\ [0] $end
$var wire 1 P \~QUARTUS_CREATED_GND~I_combout\ $end
$var wire 1 Q \~QUARTUS_CREATED_UNVM~~busy\ $end
$var wire 1 R \~QUARTUS_CREATED_ADC1~~eoc\ $end
$var wire 1 S \~QUARTUS_CREATED_ADC2~~eoc\ $end
$var wire 1 T \S0~output_o\ $end
$var wire 1 U \S1~output_o\ $end
$var wire 1 V \S2~output_o\ $end
$var wire 1 W \S3~output_o\ $end
$var wire 1 X \Cout~output_o\ $end
$var wire 1 Y \B0~input_o\ $end
$var wire 1 Z \A0~input_o\ $end
$var wire 1 [ \Cin~input_o\ $end
$var wire 1 \ \inst|SS~0_combout\ $end
$var wire 1 ] \A1~input_o\ $end
$var wire 1 ^ \inst|Scout~0_combout\ $end
$var wire 1 _ \B1~input_o\ $end
$var wire 1 ` \inst1|SS~combout\ $end
$var wire 1 a \B2~input_o\ $end
$var wire 1 b \A2~input_o\ $end
$var wire 1 c \inst1|Scout~0_combout\ $end
$var wire 1 d \inst2|SS~combout\ $end
$var wire 1 e \B3~input_o\ $end
$var wire 1 f \A3~input_o\ $end
$var wire 1 g \inst2|Scout~0_combout\ $end
$var wire 1 h \inst3|SS~combout\ $end
$var wire 1 i \inst3|Scout~0_combout\ $end
$upscope $end
$upscope $end
$enddefinitions $end
#0
$dumpvars
0!
0"
0#
0$
0%
0&
0'
0(
0)
0*
0+
0,
0-
0.
0/
10
x1
12
13
14
15
16
17
08
09
0:
0;
0<
0=
0>
0?
0@
0A
0B
0C
0D
0E
0P
zQ
zR
zS
0T
0U
0V
0W
0X
0Y
0Z
0[
0\
0]
0^
0_
0`
0a
0b
0c
0d
0e
0f
0g
0h
0i
0F
0G
0H
0I
0J
0K
0L
0M
0N
0O
$end
#10000
1!
1:
1Z
1\
1T
18
1+
#20000
0!
1"
0:
1=
1]
0Z
0\
1`
1U
0T
1<
08
1,
0+
#30000
1!
1%
1:
1;
1Y
1Z
1^
0`
1c
0U
1d
0<
1V
0,
1?
1-
#40000
0!
0"
1#
0:
0=
1@
1b
0]
0Z
1\
0^
1`
0c
0d
1g
0V
1U
1T
1h
1d
0g
0`
0?
1<
18
0U
1V
1W
0h
0-
1,
1+
0<
1?
1B
0W
0,
1-
1.
0B
0.
#50000
1!
1:
1Z
0\
1^
0T
1`
08
1U
0+
1<
1,
#60000
0!
1"
0%
0:
1=
0;
0Y
1]
0Z
0`
1c
0^
0U
1`
0c
0d
1g
0<
0V
1U
1h
1d
0g
0,
0?
1<
1V
1W
0h
0-
1,
1?
1B
0W
1-
1.
0B
0.
#70000
1!
1&
1:
1>
1_
1Z
1\
0`
1c
0U
1T
0d
1g
0<
18
0V
1h
0,
1+
0?
1W
0-
1B
1.
#80000
0!
0"
0#
1$
0:
0=
0@
1C
1f
0b
0]
0Z
0\
1`
0c
1d
0g
0h
1i
1X
0W
1V
1U
0T
1h
0i
0d
1E
0B
1?
1<
08
0V
0X
1W
1*
0.
1-
1,
0+
0?
0E
1B
0-
0*
1.
#90000
1!
1%
1:
1;
1Y
1Z
1^
0`
1c
0U
1d
0<
1V
0,
1?
1-
#100000
0!
1"
0:
1=
1]
0Z
1\
0^
1`
1U
1T
0`
1<
18
0U
1,
1+
0<
0,
#110000
1!
1:
1Z
0\
1^
0T
1`
08
1U
0+
1<
1,
#120000
0!
0"
0%
1#
1'
0:
0=
0;
1@
1A
1a
1b
0Y
0]
0Z
0`
0^
1g
0U
0h
1i
1`
0c
0<
1U
1X
0W
0d
0,
1<
1E
0B
0V
1,
1*
0.
0?
0-
#130000
1!
1:
1Z
1\
1T
18
1+
#140000
0!
1"
0&
1(
0:
1=
0>
1D
1e
0_
1]
0Z
0\
1h
1W
0T
1B
08
1.
0+
#150000
1!
1%
1:
1;
1Y
1Z
1^
0`
1c
0U
1d
0<
1V
0,
1?
1-
#160000
0!
0"
0#
0$
0:
0=
0@
0C
0f
0b
0]
0Z
1\
0^
1`
0c
0d
0h
0W
0V
1U
1T
1d
0g
0`
0B
0?
1<
18
0U
1V
1h
0i
0.
0-
1,
1+
0<
1?
0X
1W
0,
1-
0E
1B
0*
1.
#170000
1!
1:
1Z
0\
1^
0T
1`
08
1U
0+
1<
1,
#180000
0!
1"
0%
0:
1=
0;
0Y
1]
0Z
0`
1c
0^
0U
1`
0c
0d
1g
0<
0V
1U
0h
1i
1d
0g
0,
0?
1<
1V
1X
0W
1h
0i
0-
1,
1?
1E
0B
0X
1W
1-
1*
0.
0E
1B
0*
1.
#190000
1!
1:
1Z
1\
1T
18
1+
#200000
0!
0"
1#
0:
0=
1@
1b
0]
0Z
0\
0`
0d
1g
0V
0U
0T
0h
1i
0?
0<
08
1X
0W
0-
0,
0+
1E
0B
1*
0.
#210000
1!
1%
1&
1:
1;
1>
1_
1Y
1Z
1^
1`
1U
0`
1c
1<
0U
1d
1,
0<
1V
0,
1?
1-
#220000
0!
1"
0:
1=
1]
0Z
1\
0^
1`
1U
1T
0`
1<
18
0U
1,
1+
0<
0,
#230000
1!
1:
1Z
0\
1^
0T
1`
08
1U
0+
1<
1,
#240000
0!
0"
0%
0#
1$
0'
0:
0=
0;
0@
1C
0A
0a
1f
0b
0Y
0]
0Z
0`
0^
1h
0g
1W
0U
0h
1`
0c
1B
0<
1U
0W
0d
1.
0,
1<
0B
0V
1,
0.
0?
0-
#250000
1!
1:
1Z
1\
1T
18
1+
#260000
0!
1"
0:
1=
1]
0Z
0\
0`
1c
0U
0T
1d
0<
08
1V
0,
0+
1?
1-
#270000
1!
1%
1:
1;
1Y
1Z
1^
1`
1U
1<
1,
#280000
0!
0"
1#
0&
0(
0:
0=
1@
0>
0D
0e
0_
1b
0]
0Z
1\
0^
0d
1g
0c
1h
0i
0X
1W
0V
1T
1d
0g
0h
1i
0`
0E
1B
0?
18
0U
1X
0W
1V
1h
0i
0*
1.
0-
1+
0<
1E
0B
1?
0X
1W
0,
1*
0.
1-
0E
1B
0*
1.
#290000
1!
1:
1Z
0\
1^
0T
1`
08
1U
0+
1<
1,
#300000
0!
1"
0%
0:
1=
0;
0Y
1]
0Z
0`
1c
0^
0U
1`
0c
0d
1g
0<
0V
1U
0h
1i
1d
0g
0,
0?
1<
1V
1X
0W
1h
0i
0-
1,
1?
1E
0B
0X
1W
1-
1*
0.
0E
1B
0*
1.
#310000
1!
1:
1Z
1\
1T
18
1+
#320000
0!
0"
0#
0$
0:
0=
0@
0C
0f
0b
0]
0Z
0\
0`
0d
0h
0W
0V
0U
0T
0B
0?
0<
08
0.
0-
0,
0+
#330000
1!
1%
1:
1;
1Y
1Z
1^
1`
1U
1<
1,
#340000
0!
1"
0:
1=
1]
0Z
1\
0^
0`
1c
0U
1T
1d
1`
0c
0<
18
1U
1V
0d
0,
1+
1<
1?
0V
1,
1-
0?
0-
#350000
1!
1&
1:
1>
1_
1Z
0\
1^
0`
1c
0U
0T
1d
1`
0<
08
1U
1V
0,
0+
1<
1?
1,
1-
#360000
0!
0"
0%
1#
1'
0:
0=
0;
1@
1A
1a
1b
0Y
0]
0Z
0`
0^
1g
0U
1h
1`
0c
0<
1U
1W
0d
0,
1<
1B
0V
1,
1.
0?
0-
#370000
1!
1:
1Z
1\
1T
18
1+
#380000
0!
1"
0:
1=
1]
0Z
0\
0`
1c
0U
0T
1d
0<
08
1V
0,
0+
1?
1-
#390000
1!
1%
1:
1;
1Y
1Z
1^
1`
1U
1<
1,
#400000
0!
0"
0#
1$
0:
0=
0@
1C
1f
0b
0]
0Z
1\
0^
0`
0d
0h
1i
1X
0W
0V
0U
1T
1`
0c
1E
0B
0?
0<
18
1U
1d
0g
1*
0.
0-
0,
1+
1<
1V
1h
0i
1,
1?
0X
1W
1-
0E
1B
0*
1.
#410000
1!
1:
1Z
0\
1^
0T
0`
1c
08
0U
0d
1g
0+
0<
0V
0h
1i
0,
0?
1X
0W
0-
1E
0B
1*
0.
#420000
0!
1"
0%
0&
1(
0:
1=
0;
0>
1D
1e
0_
0Y
1]
0Z
0^
1h
1W
1`
0c
1B
1U
1d
0g
1.
1<
1V
0h
1,
1?
0W
1-
0B
0.
#430000
1!
1:
1Z
1\
1T
18
1+
#440000
0!
0"
1#
0:
0=
1@
1b
0]
0Z
0\
0`
0d
1g
0V
0U
0T
1h
0?
0<
08
1W
0-
0,
0+
1B
1.
#450000
1!
1%
1:
1;
1Y
1Z
1^
1`
1U
1<
1,
#460000
0!
1"
0:
1=
1]
0Z
1\
0^
0`
1c
0U
1T
1d
1`
0c
0<
18
1U
1V
0d
0,
1+
1<
1?
0V
1,
1-
0?
0-
#470000
1!
1:
1Z
0\
1^
0T
0`
1c
08
0U
1d
0+
0<
1V
0,
1?
1-
#480000
0!
0"
0%
0#
0$
0'
0:
0=
0;
0@
0C
0A
0a
0f
0b
0Y
0]
0Z
1`
0c
0^
0h
0g
0W
1U
1h
0i
0`
0d
0B
1<
0V
0U
0X
1W
0.
1,
0?
0<
0E
1B
0-
0,
0*
1.
#490000
1!
1&
1:
1>
1_
1Z
1\
1`
1U
1T
1<
18
1,
1+
#500000
0!
1"
0:
1=
1]
0Z
0\
0`
1c
0U
0T
1d
0<
08
1V
0,
0+
1?
1-
#510000
1!
1%
1:
1;
1Y
1Z
1^
1`
1U
1<
1,
#520000
0!
0"
1#
0:
0=
1@
1b
0]
0Z
1\
0^
0`
0d
1g
0V
0U
1T
0h
1i
1`
0c
0?
0<
18
1U
1X
0W
1d
0g
0-
0,
1+
1<
1E
0B
1V
1h
0i
1,
1*
0.
1?
0X
1W
1-
0E
1B
0*
1.
#530000
1!
1:
1Z
0\
1^
0T
0`
1c
08
0U
0d
1g
0+
0<
0V
0h
1i
0,
0?
1X
0W
0-
1E
0B
1*
0.
#540000
0!
1"
0%
0:
1=
0;
0Y
1]
0Z
1`
0^
1U
0`
1<
0U
1,
0<
0,
#550000
1!
1:
1Z
1\
1T
18
1+
#560000
0!
0"
0#
0&
1$
0(
0:
0=
0@
0>
1C
0D
0e
1f
0_
0b
0]
0Z
0\
1d
0g
0c
1V
0T
0d
1h
0i
1?
08
0X
1W
0V
1-
0+
0E
1B
0?
0*
1.
0-
#570000
1!
1%
1:
1;
1Y
1Z
1^
1`
1U
1<
1,
#580000
0!
1"
0:
1=
1]
0Z
1\
0^
0`
1c
0U
1T
1d
1`
0c
0<
18
1U
1V
0d
0,
1+
1<
1?
0V
1,
1-
0?
0-
#590000
1!
1:
1Z
0\
1^
0T
0`
1c
08
0U
1d
0+
0<
1V
0,
1?
1-
#600000
0!
0"
0%
1#
1'
0:
0=
0;
1@
1A
1a
1b
0Y
0]
0Z
1`
0c
0^
1g
1U
0h
1i
0`
0d
1<
0V
0U
1X
0W
1,
0?
0<
1E
0B
0-
0,
1*
0.
#610000
1!
1:
1Z
1\
1T
18
1+
#620000
0!
1"
0:
1=
1]
0Z
0\
1`
1U
0T
1<
08
1,
0+
#630000
1!
1%
1&
1:
1;
1>
1_
1Y
1Z
1^
0`
1c
0U
1d
1`
0<
1U
1V
0,
1<
1?
1,
1-
#640000
0!
0"
0#
0$
0:
0=
0@
0C
0f
0b
0]
0Z
1\
0^
0`
0d
1h
0i
0X
1W
0V
0U
1T
1`
0c
0E
1B
0?
0<
18
1U
1d
0g
0*
1.
0-
0,
1+
1<
1V
0h
1,
1?
0W
1-
0B
0.
#650000
1!
1:
1Z
0\
1^
0T
0`
1c
08
0U
0d
1g
0+
0<
0V
1h
0,
0?
1W
0-
1B
1.
#660000
0!
1"
0%
0:
1=
0;
0Y
1]
0Z
1`
0^
1U
0`
1<
0U
1,
0<
0,
#670000
1!
1:
1Z
1\
1T
18
1+
#680000
0!
0"
1#
0:
0=
1@
1b
0]
0Z
0\
1`
0c
1d
1V
1U
0T
0d
1?
1<
08
0V
1-
1,
0+
0?
0-
#690000
1!
1%
1:
1;
1Y
1Z
1^
0`
1c
0U
1d
0<
1V
0,
1?
1-
#700000
0!
1"
0&
1(
0:
1=
0>
1D
1e
0_
1]
0Z
1\
0^
0h
1i
1X
0W
1T
1`
0c
1E
0B
18
1U
0d
1*
0.
1+
1<
0V
1,
0?
0-
#710000
1!
1:
1Z
0\
1^
0T
0`
1c
08
0U
1d
0+
0<
1V
0,
1?
1-
#720000
0!
0"
0%
0#
1$
0'
0:
0=
0;
0@
1C
0A
0a
1f
0b
0Y
0]
0Z
1`
0c
0^
1h
0g
1W
1U
0h
0`
0d
1B
1<
0V
0U
0W
1.
1,
0?
0<
0B
0-
0,
0.
#730000
1!
1:
1Z
1\
1T
18
1+
#740000
0!
1"
0:
1=
1]
0Z
0\
1`
1U
0T
1<
08
1,
0+
#750000
1!
1%
1:
1;
1Y
1Z
1^
0`
1c
0U
1d
0<
1V
0,
1?
1-
#760000
0!
0"
1#
0:
0=
1@
1b
0]
0Z
1\
0^
1`
0c
0d
1g
0V
1U
1T
1h
1d
0g
0`
0?
1<
18
0U
1V
1W
0h
0-
1,
1+
0<
1?
1B
0W
0,
1-
1.
0B
0.
#770000
1!
1&
1:
1>
1_
1Z
0\
1^
1`
1U
0T
0`
1c
1<
08
0U
0d
1g
1,
0+
0<
0V
1h
0,
0?
1W
0-
1B
1.
#780000
0!
1"
0%
0:
1=
0;
0Y
1]
0Z
1`
0^
1U
0`
1<
0U
1,
0<
0,
#790000
1!
1:
1Z
1\
1T
18
1+
#800000
0!
0"
0#
0$
0:
0=
0@
0C
0f
0b
0]
0Z
0\
1`
0c
1d
0g
0h
0W
1V
1U
0T
1h
0i
0d
0B
1?
1<
08
0V
0X
1W
0.
1-
1,
0+
0?
0E
1B
0-
0*
1.
#810000
1!
1%
1:
1;
1Y
1Z
1^
0`
1c
0U
1d
0<
1V
0,
1?
1-
#820000
0!
1"
0:
1=
1]
0Z
1\
0^
1`
1U
1T
0`
1<
18
0U
1,
1+
0<
0,
#830000
1!
1:
1Z
0\
1^
0T
1`
08
1U
0+
1<
1,
#840000
0!
0"
0%
1#
0&
1'
0(
0:
0=
0;
1@
0>
1A
0D
0e
1a
0_
1b
0Y
0]
0Z
0^
0c
1g
0h
0W
1h
0d
0`
0B
0U
0V
1W
0.
0<
0?
1B
0,
0-
1.
#850000
1!
1:
1Z
1\
1T
18
1+
#860000
0!
1"
0:
1=
1]
0Z
0\
1`
1U
0T
1<
08
1,
0+
#870000
1!
1%
1:
1;
1Y
1Z
1^
0`
1c
0U
1d
0<
1V
0,
1?
1-
#880000
0!
0"
0#
1$
0:
0=
0@
1C
1f
0b
0]
0Z
1\
0^
1`
0c
0d
0h
1i
1X
0W
0V
1U
1T
1d
0g
0`
1E
0B
0?
1<
18
0U
1V
1h
0i
1*
0.
0-
1,
1+
0<
1?
0X
1W
0,
1-
0E
1B
0*
1.
#890000
1!
1:
1Z
0\
1^
0T
1`
08
1U
0+
1<
1,
#900000
0!
1"
0%
0:
1=
0;
0Y
1]
0Z
0`
1c
0^
0U
1`
0c
0d
1g
0<
0V
1U
0h
1i
1d
0g
0,
0?
1<
1V
1X
0W
1h
0i
0-
1,
1?
1E
0B
0X
1W
1-
1*
0.
0E
1B
0*
1.
#910000
1!
1&
1:
1>
1_
1Z
1\
0`
1c
0U
1T
0d
1g
0<
18
0V
0h
1i
0,
1+
0?
1X
0W
0-
1E
0B
1*
0.
#920000
0!
0"
1#
0:
0=
1@
1b
0]
0Z
0\
1`
0c
1d
1V
1U
0T
0d
1?
1<
08
0V
1-
1,
0+
0?
0-
#930000
1!
1%
1:
1;
1Y
1Z
1^
0`
1c
0U
1d
0<
1V
0,
1?
1-
#940000
0!
1"
0:
1=
1]
0Z
1\
0^
1`
1U
1T
0`
1<
18
0U
1,
1+
0<
0,
#950000
1!
1:
1Z
0\
1^
0T
1`
08
1U
0+
1<
1,
#960000
0!
0"
0%
0#
0$
0'
0:
0=
0;
0@
0C
0A
0a
0f
0b
0Y
0]
0Z
0`
0^
1h
0i
0g
0X
1W
0U
0h
1`
0c
0E
1B
0<
1U
0W
0d
0*
1.
0,
1<
0B
0V
1,
0.
0?
0-
#970000
1!
1:
1Z
1\
1T
18
1+
#980000
0!
1"
0&
1(
0:
1=
0>
1D
1e
0_
1]
0Z
0\
1h
1W
0T
1B
08
1.
0+
#990000
1!
1%
1:
1;
1Y
1Z
1^
0`
1c
0U
1d
0<
1V
0,
1?
1-
