Lab05/simulation/qsim/main.msim.vcd
$comment
	File created using the following command:
		vcd file main.msim.vcd -direction
$end
$date
	Fri May 24 11:56:18 2024
$end
$version
	ModelSim Version 10.5b
$end
$timescale
	1ps
$end

$scope module main_vhdl_vhd_vec_tst $end
$var wire 1 ! PB0 $end
$var wire 1 " Q0 $end
$var wire 1 # Q1 $end
$var wire 1 $ Q2 $end
$var wire 1 % Q3 $end

$scope module i1 $end
$var wire 1 & gnd $end
$var wire 1 ' vcc $end
$var wire 1 ( unknown $end
$var wire 1 ) devoe $end
$var wire 1 * devclrn $end
$var wire 1 + devpor $end
$var wire 1 , ww_devoe $end
$var wire 1 - ww_devclrn $end
$var wire 1 . ww_devpor $end
$var wire 1 / ww_Q3 $end
$var wire 1 0 ww_PB0 $end
$var wire 1 1 ww_Q2 $end
$var wire 1 2 ww_Q1 $end
$var wire 1 3 ww_Q0 $end
$var wire 1 4 \~QUARTUS_CREATED_ADC1~_CHSEL_bus\ [4] $end
$var wire 1 5 \~QUARTUS_CREATED_ADC1~_CHSEL_bus\ [3] $end
$var wire 1 6 \~QUARTUS_CREATED_ADC1~_CHSEL_bus\ [2] $end
$var wire 1 7 \~QUARTUS_CREATED_ADC1~_CHSEL_bus\ [1] $end
$var wire 1 8 \~QUARTUS_CREATED_ADC1~_CHSEL_bus\ [0] $end
$var wire 1 9 \~QUARTUS_CREATED_ADC2~_CHSEL_bus\ [4] $end
$var wire 1 : \~QUARTUS_CREATED_ADC2~_CHSEL_bus\ [3] $end
$var wire 1 ; \~QUARTUS_CREATED_ADC2~_CHSEL_bus\ [2] $end
$var wire 1 < \~QUARTUS_CREATED_ADC2~_CHSEL_bus\ [1] $end
$var wire 1 = \~QUARTUS_CREATED_ADC2~_CHSEL_bus\ [0] $end
$var wire 1 > \~QUARTUS_CREATED_GND~I_combout\ $end
$var wire 1 ? \~QUARTUS_CREATED_UNVM~~busy\ $end
$var wire 1 @ \~QUARTUS_CREATED_ADC1~~eoc\ $end
$var wire 1 A \~QUARTUS_CREATED_ADC2~~eoc\ $end
$var wire 1 B \Q3~output_o\ $end
$var wire 1 C \Q2~output_o\ $end
$var wire 1 D \Q1~output_o\ $end
$var wire 1 E \Q0~output_o\ $end
$var wire 1 F \PB0~input_o\ $end
$var wire 1 G \inst|state.s1~0_combout\ $end
$var wire 1 H \inst|state.s1~q\ $end
$var wire 1 I \inst|state.s2~q\ $end
$var wire 1 J \inst|state.s3~feeder_combout\ $end
$var wire 1 K \inst|state.s3~q\ $end
$var wire 1 L \inst|state.s4~q\ $end
$var wire 1 M \inst|state.s5~feeder_combout\ $end
$var wire 1 N \inst|state.s5~q\ $end
$var wire 1 O \inst|state.s6~feeder_combout\ $end
$var wire 1 P \inst|state.s6~q\ $end
$var wire 1 Q \inst|state.s7~feeder_combout\ $end
$var wire 1 R \inst|state.s7~q\ $end
$var wire 1 S \inst|state.s8~q\ $end
$var wire 1 T \inst|state.s9~feeder_combout\ $end
$var wire 1 U \inst|state.s9~q\ $end
$var wire 1 V \inst|state.s10~q\ $end
$var wire 1 W \inst|state.s11~feeder_combout\ $end
$var wire 1 X \inst|state.s11~q\ $end
$var wire 1 Y \inst|state.s12~q\ $end
$var wire 1 Z \inst|state.s13~q\ $end
$var wire 1 [ \inst|state.s14~feeder_combout\ $end
$var wire 1 \ \inst|state.s14~q\ $end
$var wire 1 ] \inst|state.s15~q\ $end
$var wire 1 ^ \inst|state.s0~0_combout\ $end
$var wire 1 _ \inst|state.s0~q\ $end
$var wire 1 ` \inst|WideOr0~0_combout\ $end
$var wire 1 a \inst|WideOr0~1_combout\ $end
$var wire 1 b \inst|WideOr0~combout\ $end
$var wire 1 c \inst|WideOr1~0_combout\ $end
$var wire 1 d \inst|WideOr0~2_combout\ $end
$var wire 1 e \inst|WideOr1~combout\ $end
$var wire 1 f \inst|WideOr2~1_combout\ $end
$var wire 1 g \inst|WideOr2~0_combout\ $end
$var wire 1 h \inst|WideOr2~combout\ $end
$var wire 1 i \inst|WideOr3~0_combout\ $end
$var wire 1 j \inst|WideOr3~combout\ $end
$var wire 1 k \inst|Q\ [3] $end
$var wire 1 l \inst|Q\ [2] $end
$var wire 1 m \inst|Q\ [1] $end
$var wire 1 n \inst|Q\ [0] $end
$var wire 1 o \ALT_INV_PB0~input_o\ $end
$upscope $end
$upscope $end
$enddefinitions $end
#0
$dumpvars
0!
0"
0#
0$
0%
0&
1'
x(
1)
1*
1+
1,
1-
1.
0/
00
01
02
03
0>
z?
z@
zA
0B
0C
0D
0E
0F
1G
0H
0I
0J
0K
0L
0M
0N
0O
0P
0Q
0R
0S
0T
0U
0V
0W
0X
0Y
0Z
0[
0\
0]
1^
0_
0`
0a
1b
0c
0d
1e
0f
0g
1h
0i
1j
1o
0k
0l
0m
0n
04
05
06
07
08
09
0:
0;
0<
0=
$end
#10000
1!
10
1F
0o
#20000
0!
00
0F
1o
1H
1_
1k
1l
1m
1n
1E
1D
1C
1B
0G
0b
1d
1f
1g
13
12
11
1/
0j
0e
1"
1#
1$
1%
#30000
1!
10
1F
0o
#40000
0!
00
0F
1o
0H
1I
0k
0l
0n
0E
0C
0B
1J
1b
0d
03
01
0/
1e
0"
0$
0%
#50000
1!
10
1F
0o
#60000
0!
00
0F
1o
0I
1K
1k
1l
1C
1B
0f
0J
0b
1d
0g
11
1/
0e
1j
1$
1%
#70000
1!
10
1F
0o
#80000
0!
00
0F
1o
0K
1L
0k
0l
1n
1E
0C
0B
1M
1a
0d
1i
1f
13
01
0/
0h
1e
1b
1"
0$
0%
#90000
1!
10
1F
0o
#100000
0!
00
0F
1o
0L
1N
1k
1l
0m
0D
1C
1B
1O
1c
0M
0a
1d
02
11
1/
0b
0#
1$
1%
#110000
1!
10
1F
0o
#120000
0!
00
0F
1o
0N
1P
0k
0B
1Q
1a
0d
0O
0c
0i
0/
0j
1b
0%
#130000
1!
10
1F
0o
#140000
0!
00
0F
1o
0P
1R
1k
0n
0E
1B
1`
0Q
0a
1d
03
1/
0e
0"
1%
#150000
1!
10
1F
0o
#160000
0!
00
0F
1o
0R
1S
0l
0C
1T
0f
01
1h
1j
0$
#170000
1!
10
1F
0o
#180000
0!
00
0F
1o
0S
1U
1m
1n
1E
1D
1i
0T
1f
13
12
0h
1"
1#
#190000
1!
10
1F
0o
#200000
0!
00
0F
1o
0U
1V
0m
0D
1W
1g
0i
02
0j
1h
0#
#210000
1!
10
1F
0o
#220000
0!
00
0F
1o
0V
1X
1m
0n
0E
1D
0W
0`
0g
03
12
0h
0b
0"
1#
#230000
1!
10
1F
0o
#240000
0!
00
0F
1o
0X
1Y
0k
0m
0D
0B
1c
02
0/
1e
0#
0%
#250000
1!
10
1F
0o
#260000
0!
00
0F
1o
0Y
1Z
1l
1C
1[
1g
11
1h
1$
#270000
1!
10
1F
0o
#280000
0!
00
0F
1o
0Z
1\
1m
1D
1i
0[
0c
0g
12
0h
0e
1j
1#
#290000
1!
10
1F
0o
#300000
0!
00
0F
1o
0\
1]
0l
0m
1n
1E
0D
0C
0^
1c
0f
0i
13
02
01
1h
1e
1"
0#
0$
#310000
1!
10
1F
0o
#320000
0!
00
0F
1o
0]
0_
1l
1m
1D
1C
1G
1b
0d
1^
0c
12
11
1#
1$
#330000
1!
10
1F
0o
#340000
0!
00
0F
1o
1H
1_
1k
1B
0G
0b
1d
1f
1g
1/
0j
0e
1%
#350000
1!
10
1F
0o
#360000
0!
00
0F
1o
0H
1I
0k
0l
0n
0E
0C
0B
1J
1b
0d
03
01
0/
1e
0"
0$
0%
#370000
1!
10
1F
0o
#380000
0!
00
0F
1o
0I
1K
1k
1l
1C
1B
0f
0J
0b
1d
0g
11
1/
0e
1j
1$
1%
#390000
1!
10
1F
0o
#400000
0!
00
0F
1o
0K
1L
0k
0l
1n
1E
0C
0B
1M
1a
0d
1i
1f
13
01
0/
0h
1e
1b
1"
0$
0%
#410000
1!
10
1F
0o
#420000
0!
00
0F
1o
0L
1N
1k
1l
0m
0D
1C
1B
1O
1c
0M
0a
1d
02
11
1/
0b
0#
1$
1%
#430000
1!
10
1F
0o
#440000
0!
00
0F
1o
0N
1P
0k
0B
1Q
1a
0d
0O
0c
0i
0/
0j
1b
0%
#450000
1!
10
1F
0o
#460000
0!
00
0F
1o
0P
1R
1k
0n
0E
1B
1`
0Q
0a
1d
03
1/
0e
0"
1%
#470000
1!
10
1F
0o
#480000
0!
00
0F
1o
0R
1S
0l
0C
1T
0f
01
1h
1j
0$
#490000
1!
10
1F
0o
#500000
0!
00
0F
1o
0S
1U
1m
1n
1E
1D
1i
0T
1f
13
12
0h
1"
1#
#510000
1!
10
1F
0o
#520000
0!
00
0F
1o
0U
1V
0m
0D
1W
1g
0i
02
0j
1h
0#
#530000
1!
10
1F
0o
#540000
0!
00
0F
1o
0V
1X
1m
0n
0E
1D
0W
0`
0g
03
12
0h
0b
0"
1#
#550000
1!
10
1F
0o
#560000
0!
00
0F
1o
0X
1Y
0k
0m
0D
0B
1c
02
0/
1e
0#
0%
#570000
1!
10
1F
0o
#580000
0!
00
0F
1o
0Y
1Z
1l
1C
1[
1g
11
1h
1$
#590000
1!
10
1F
0o
#600000
0!
00
0F
1o
0Z
1\
1m
1D
1i
0[
0c
0g
12
0h
0e
1j
1#
#610000
1!
10
1F
0o
#620000
0!
00
0F
1o
0\
1]
0l
0m
1n
1E
0D
0C
0^
1c
0f
0i
13
02
01
1h
1e
1"
0#
0$
#630000
1!
10
1F
0o
#640000
0!
00
0F
1o
0]
0_
1l
1m
1D
1C
1G
1b
0d
1^
0c
12
11
1#
1$
#650000
1!
10
1F
0o
#660000
0!
00
0F
1o
1H
1_
1k
1B
0G
0b
1d
1f
1g
1/
0j
0e
1%
#670000
1!
10
1F
0o
#680000
0!
00
0F
1o
0H
1I
0k
0l
0n
0E
0C
0B
1J
1b
0d
03
01
0/
1e
0"
0$
0%
#690000
1!
10
1F
0o
#700000
0!
00
0F
1o
0I
1K
1k
1l
1C
1B
0f
0J
0b
1d
0g
11
1/
0e
1j
1$
1%
#710000
1!
10
1F
0o
#720000
0!
00
0F
1o
0K
1L
0k
0l
1n
1E
0C
0B
1M
1a
0d
1i
1f
13
01
0/
0h
1e
1b
1"
0$
0%
#730000
1!
10
1F
0o
#740000
0!
00
0F
1o
0L
1N
1k
1l
0m
0D
1C
1B
1O
1c
0M
0a
1d
02
11
1/
0b
0#
1$
1%
#750000
1!
10
1F
0o
#760000
0!
00
0F
1o
0N
1P
0k
0B
1Q
1a
0d
0O
0c
0i
0/
0j
1b
0%
#770000
1!
10
1F
0o
#780000
0!
00
0F
1o
0P
1R
1k
0n
0E
1B
1`
0Q
0a
1d
03
1/
0e
0"
1%
#790000
1!
10
1F
0o
#800000
0!
00
0F
1o
0R
1S
0l
0C
1T
0f
01
1h
1j
0$
#810000
1!
10
1F
0o
#820000
0!
00
0F
1o
0S
1U
1m
1n
1E
1D
1i
0T
1f
13
12
0h
1"
1#
#830000
1!
10
1F
0o
#840000
0!
00
0F
1o
0U
1V
0m
0D
1W
1g
0i
02
0j
1h
0#
#850000
1!
10
1F
0o
#860000
0!
00
0F
1o
0V
1X
1m
0n
0E
1D
0W
0`
0g
03
12
0h
0b
0"
1#
#870000
1!
10
1F
0o
#880000
0!
00
0F
1o
0X
1Y
0k
0m
0D
0B
1c
02
0/
1e
0#
0%
#890000
1!
10
1F
0o
#900000
0!
00
0F
1o
0Y
1Z
1l
1C
1[
1g
11
1h
1$
#910000
1!
10
1F
0o
#920000
0!
00
0F
1o
0Z
1\
1m
1D
1i
0[
0c
0g
12
0h
0e
1j
1#
#930000
1!
10
1F
0o
#940000
0!
00
0F
1o
0\
1]
0l
0m
1n
1E
0D
0C
0^
1c
0f
0i
13
02
01
1h
1e
1"
0#
0$
#950000
1!
10
1F
0o
#960000
0!
00
0F
1o
0]
0_
1l
1m
1D
1C
1G
1b
0d
1^
0c
12
11
1#
1$
#970000
1!
10
1F
0o
#980000
0!
00
0F
1o
1H
1_
1k
1B
0G
0b
1d
1f
1g
1/
0j
0e
1%
#990000
1!
10
1F
0o
