Lab05/simulation/qsim/main.msim.vcd
$comment
	File created using the following command:
		vcd file main.msim.vcd -direction
$end
$date
	Wed Apr 24 21:47:32 2024
$end
$version
	ModelSim Version 10.5b
$end
$timescale
	1ps
$end

$scope module main_vhdl_vhd_vec_tst $end
$var wire 1 ! CLK $end
$var wire 1 " Q [3] $end
$var wire 1 # Q [2] $end
$var wire 1 $ Q [1] $end
$var wire 1 % Q [0] $end

$scope module i1 $end
$var wire 1 & gnd $end
$var wire 1 ' vcc $end
$var wire 1 ( unknown $end
$var wire 1 ) devoe $end
$var wire 1 * devclrn $end
$var wire 1 + devpor $end
$var wire 1 , ww_devoe $end
$var wire 1 - ww_devclrn $end
$var wire 1 . ww_devpor $end
$var wire 1 / ww_Q [3] $end
$var wire 1 0 ww_Q [2] $end
$var wire 1 1 ww_Q [1] $end
$var wire 1 2 ww_Q [0] $end
$var wire 1 3 ww_CLK $end
$var wire 1 4 \~QUARTUS_CREATED_ADC1~_CHSEL_bus\ [4] $end
$var wire 1 5 \~QUARTUS_CREATED_ADC1~_CHSEL_bus\ [3] $end
$var wire 1 6 \~QUARTUS_CREATED_ADC1~_CHSEL_bus\ [2] $end
$var wire 1 7 \~QUARTUS_CREATED_ADC1~_CHSEL_bus\ [1] $end
$var wire 1 8 \~QUARTUS_CREATED_ADC1~_CHSEL_bus\ [0] $end
$var wire 1 9 \~QUARTUS_CREATED_ADC2~_CHSEL_bus\ [4] $end
$var wire 1 : \~QUARTUS_CREATED_ADC2~_CHSEL_bus\ [3] $end
$var wire 1 ; \~QUARTUS_CREATED_ADC2~_CHSEL_bus\ [2] $end
$var wire 1 < \~QUARTUS_CREATED_ADC2~_CHSEL_bus\ [1] $end
$var wire 1 = \~QUARTUS_CREATED_ADC2~_CHSEL_bus\ [0] $end
$var wire 1 > \CLK~inputclkctrl_INCLK_bus\ [3] $end
$var wire 1 ? \CLK~inputclkctrl_INCLK_bus\ [2] $end
$var wire 1 @ \CLK~inputclkctrl_INCLK_bus\ [1] $end
$var wire 1 A \CLK~inputclkctrl_INCLK_bus\ [0] $end
$var wire 1 B \~QUARTUS_CREATED_GND~I_combout\ $end
$var wire 1 C \~QUARTUS_CREATED_UNVM~~busy\ $end
$var wire 1 D \~QUARTUS_CREATED_ADC1~~eoc\ $end
$var wire 1 E \~QUARTUS_CREATED_ADC2~~eoc\ $end
$var wire 1 F \Q[3]~output_o\ $end
$var wire 1 G \Q[2]~output_o\ $end
$var wire 1 H \Q[1]~output_o\ $end
$var wire 1 I \Q[0]~output_o\ $end
$var wire 1 J \CLK~input_o\ $end
$var wire 1 K \CLK~inputclkctrl_outclk\ $end
$var wire 1 L \inst|state.s2~q\ $end
$var wire 1 M \inst|state.s3~feeder_combout\ $end
$var wire 1 N \inst|state.s3~q\ $end
$var wire 1 O \inst|state.s4~feeder_combout\ $end
$var wire 1 P \inst|state.s4~q\ $end
$var wire 1 Q \inst|state.s5~q\ $end
$var wire 1 R \inst|state.s6~feeder_combout\ $end
$var wire 1 S \inst|state.s6~q\ $end
$var wire 1 T \inst|state.s7~feeder_combout\ $end
$var wire 1 U \inst|state.s7~q\ $end
$var wire 1 V \inst|state.s8~q\ $end
$var wire 1 W \inst|state.s9~feeder_combout\ $end
$var wire 1 X \inst|state.s9~q\ $end
$var wire 1 Y \inst|state.s10~q\ $end
$var wire 1 Z \inst|state.s11~q\ $end
$var wire 1 [ \inst|state.s12~q\ $end
$var wire 1 \ \inst|state.s13~q\ $end
$var wire 1 ] \inst|state.s14~feeder_combout\ $end
$var wire 1 ^ \inst|state.s14~q\ $end
$var wire 1 _ \inst|state.s15~feeder_combout\ $end
$var wire 1 ` \inst|state.s15~q\ $end
$var wire 1 a \inst|state.s0~0_combout\ $end
$var wire 1 b \inst|state.s0~q\ $end
$var wire 1 c \inst|state.s1~0_combout\ $end
$var wire 1 d \inst|state.s1~q\ $end
$var wire 1 e \inst|WideOr0~1_combout\ $end
$var wire 1 f \inst|WideOr0~0_combout\ $end
$var wire 1 g \inst|WideOr0~combout\ $end
$var wire 1 h \inst|WideOr0~2_combout\ $end
$var wire 1 i \inst|WideOr1~0_combout\ $end
$var wire 1 j \inst|WideOr1~combout\ $end
$var wire 1 k \inst|WideOr2~1_combout\ $end
$var wire 1 l \inst|WideOr2~0_combout\ $end
$var wire 1 m \inst|WideOr2~combout\ $end
$var wire 1 n \inst|WideOr3~0_combout\ $end
$var wire 1 o \inst|WideOr3~combout\ $end
$var wire 1 p \inst|Q\ [3] $end
$var wire 1 q \inst|Q\ [2] $end
$var wire 1 r \inst|Q\ [1] $end
$var wire 1 s \inst|Q\ [0] $end
$upscope $end
$upscope $end
$enddefinitions $end
#0
$dumpvars
0!
0&
1'
x(
1)
1*
1+
1,
1-
1.
03
0B
zC
zD
zE
0F
0G
0H
0I
0J
0K
0L
0M
0N
0O
0P
0Q
0R
0S
0T
0U
0V
0W
0X
0Y
0Z
0[
0\
0]
0^
0_
0`
1a
0b
1c
0d
0e
0f
0g
0h
0i
0j
0k
0l
1m
0n
0o
0/
00
01
02
0p
0q
0r
0s
1>
1?
1@
0A
04
05
06
07
08
09
0:
0;
0<
0=
0"
0#
0$
0%
$end
#10000
1!
13
1J
1A
1K
1b
1d
1r
1H
1l
0c
1k
11
1o
1$
#20000
0!
03
0J
0A
0K
#30000
1!
13
1J
1A
1K
1L
0d
1s
1I
1g
1h
0l
1M
1f
12
0g
0m
1j
1%
#40000
0!
03
0J
0A
0K
#50000
1!
13
1J
1A
1K
0L
1N
1q
0r
0H
1G
1O
1i
1n
0M
0f
01
10
1g
0o
0j
0$
1#
#60000
0!
03
0J
0A
0K
#70000
1!
13
1J
1A
1K
0N
1P
1p
0q
0s
0I
0G
1F
1e
0h
0O
0i
02
00
1/
0g
0%
0#
1"
#80000
0!
03
0J
0A
0K
#90000
1!
13
1J
1A
1K
0P
1Q
0p
0F
1R
1f
0e
1h
0/
1j
0"
#100000
0!
03
0J
0A
0K
#110000
1!
13
1J
1A
1K
0Q
1S
1q
1G
1T
1i
0R
0f
0n
10
1o
1g
0j
1#
#120000
0!
03
0J
0A
0K
#130000
1!
13
1J
1A
1K
0S
1U
1p
0q
1s
1I
0G
1F
1f
0k
0T
0i
12
00
1/
1j
1m
0o
0g
1%
0#
1"
#140000
0!
03
0J
0A
0K
#150000
1!
13
1J
1A
1K
0U
1V
0p
1q
1r
0s
0I
1H
1G
0F
1W
1i
0f
02
11
10
0/
1g
0j
0%
1$
1#
0"
#160000
0!
03
0J
0A
0K
#170000
1!
13
1J
1A
1K
0V
1X
1p
0q
0G
1F
1n
0W
0i
1k
00
1/
0m
1j
0#
1"
#180000
0!
03
0J
0A
0K
#190000
1!
13
1J
1A
1K
0X
1Y
1q
0r
0H
1G
0k
0n
01
10
1m
0$
1#
#200000
0!
03
0J
0A
0K
#210000
1!
13
1J
1A
1K
0Y
1Z
1r
1H
1e
0h
1k
11
0m
1o
0j
0g
1$
#220000
0!
03
0J
0A
0K
#230000
1!
13
1J
1A
1K
0Z
1[
0p
0q
0r
1s
1I
0H
0G
0F
1f
1l
0e
1h
12
01
00
0/
1j
1m
1%
0$
0#
0"
#240000
0!
03
0J
0A
0K
#250000
1!
13
1J
1A
1K
0[
1\
1q
1r
1H
1G
1]
1i
0f
11
10
1g
0j
1$
1#
#260000
0!
03
0J
0A
0K
#270000
1!
13
1J
1A
1K
0\
1^
1p
0q
0G
1F
1_
0]
0i
0l
00
1/
0m
1j
0#
1"
#280000
0!
03
0J
0A
0K
#290000
1!
13
1J
1A
1K
0^
1`
1q
0r
0H
1G
0a
1l
0_
01
10
1m
0$
1#
#300000
0!
03
0J
0A
0K
#310000
1!
13
1J
1A
1K
0`
0b
1r
1H
1c
0g
0h
0k
1a
0l
11
0o
0j
1$
#320000
0!
03
0J
0A
0K
#330000
1!
13
1J
1A
1K
1b
1d
0p
0q
0s
0I
0G
0F
1l
0c
1k
02
00
0/
1o
0%
0#
0"
#340000
0!
03
0J
0A
0K
#350000
1!
13
1J
1A
1K
1L
0d
1s
1I
1g
1h
0l
1M
1f
12
0g
0m
1j
1%
#360000
0!
03
0J
0A
0K
#370000
1!
13
1J
1A
1K
0L
1N
1q
0r
0H
1G
1O
1i
1n
0M
0f
01
10
1g
0o
0j
0$
1#
#380000
0!
03
0J
0A
0K
#390000
1!
13
1J
1A
1K
0N
1P
1p
0q
0s
0I
0G
1F
1e
0h
0O
0i
02
00
1/
0g
0%
0#
1"
#400000
0!
03
0J
0A
0K
#410000
1!
13
1J
1A
1K
0P
1Q
0p
0F
1R
1f
0e
1h
0/
1j
0"
#420000
0!
03
0J
0A
0K
#430000
1!
13
1J
1A
1K
0Q
1S
1q
1G
1T
1i
0R
0f
0n
10
1o
1g
0j
1#
#440000
0!
03
0J
0A
0K
#450000
1!
13
1J
1A
1K
0S
1U
1p
0q
1s
1I
0G
1F
1f
0k
0T
0i
12
00
1/
1j
1m
0o
0g
1%
0#
1"
#460000
0!
03
0J
0A
0K
#470000
1!
13
1J
1A
1K
0U
1V
0p
1q
1r
0s
0I
1H
1G
0F
1W
1i
0f
02
11
10
0/
1g
0j
0%
1$
1#
0"
#480000
0!
03
0J
0A
0K
#490000
1!
13
1J
1A
1K
0V
1X
1p
0q
0G
1F
1n
0W
0i
1k
00
1/
0m
1j
0#
1"
#500000
0!
03
0J
0A
0K
#510000
1!
13
1J
1A
1K
0X
1Y
1q
0r
0H
1G
0k
0n
01
10
1m
0$
1#
#520000
0!
03
0J
0A
0K
#530000
1!
13
1J
1A
1K
0Y
1Z
1r
1H
1e
0h
1k
11
0m
1o
0j
0g
1$
#540000
0!
03
0J
0A
0K
#550000
1!
13
1J
1A
1K
0Z
1[
0p
0q
0r
1s
1I
0H
0G
0F
1f
1l
0e
1h
12
01
00
0/
1j
1m
1%
0$
0#
0"
#560000
0!
03
0J
0A
0K
#570000
1!
13
1J
1A
1K
0[
1\
1q
1r
1H
1G
1]
1i
0f
11
10
1g
0j
1$
1#
#580000
0!
03
0J
0A
0K
#590000
1!
13
1J
1A
1K
0\
1^
1p
0q
0G
1F
1_
0]
0i
0l
00
1/
0m
1j
0#
1"
#600000
0!
03
0J
0A
0K
#610000
1!
13
1J
1A
1K
0^
1`
1q
0r
0H
1G
0a
1l
0_
01
10
1m
0$
1#
#620000
0!
03
0J
0A
0K
#630000
1!
13
1J
1A
1K
0`
0b
1r
1H
1c
0g
0h
0k
1a
0l
11
0o
0j
1$
#640000
0!
03
0J
0A
0K
#650000
1!
13
1J
1A
1K
1b
1d
0p
0q
0s
0I
0G
0F
1l
0c
1k
02
00
0/
1o
0%
0#
0"
#660000
0!
03
0J
0A
0K
#670000
1!
13
1J
1A
1K
1L
0d
1s
1I
1g
1h
0l
1M
1f
12
0g
0m
1j
1%
#680000
0!
03
0J
0A
0K
#690000
1!
13
1J
1A
1K
0L
1N
1q
0r
0H
1G
1O
1i
1n
0M
0f
01
10
1g
0o
0j
0$
1#
#700000
0!
03
0J
0A
0K
#710000
1!
13
1J
1A
1K
0N
1P
1p
0q
0s
0I
0G
1F
1e
0h
0O
0i
02
00
1/
0g
0%
0#
1"
#720000
0!
03
0J
0A
0K
#730000
1!
13
1J
1A
1K
0P
1Q
0p
0F
1R
1f
0e
1h
0/
1j
0"
#740000
0!
03
0J
0A
0K
#750000
1!
13
1J
1A
1K
0Q
1S
1q
1G
1T
1i
0R
0f
0n
10
1o
1g
0j
1#
#760000
0!
03
0J
0A
0K
#770000
1!
13
1J
1A
1K
0S
1U
1p
0q
1s
1I
0G
1F
1f
0k
0T
0i
12
00
1/
1j
1m
0o
0g
1%
0#
1"
#780000
0!
03
0J
0A
0K
#790000
1!
13
1J
1A
1K
0U
1V
0p
1q
1r
0s
0I
1H
1G
0F
1W
1i
0f
02
11
10
0/
1g
0j
0%
1$
1#
0"
#800000
0!
03
0J
0A
0K
#810000
1!
13
1J
1A
1K
0V
1X
1p
0q
0G
1F
1n
0W
0i
1k
00
1/
0m
1j
0#
1"
#820000
0!
03
0J
0A
0K
#830000
1!
13
1J
1A
1K
0X
1Y
1q
0r
0H
1G
0k
0n
01
10
1m
0$
1#
#840000
0!
03
0J
0A
0K
#850000
1!
13
1J
1A
1K
0Y
1Z
1r
1H
1e
0h
1k
11
0m
1o
0j
0g
1$
#860000
0!
03
0J
0A
0K
#870000
1!
13
1J
1A
1K
0Z
1[
0p
0q
0r
1s
1I
0H
0G
0F
1f
1l
0e
1h
12
01
00
0/
1j
1m
1%
0$
0#
0"
#880000
0!
03
0J
0A
0K
#890000
1!
13
1J
1A
1K
0[
1\
1q
1r
1H
1G
1]
1i
0f
11
10
1g
0j
1$
1#
#900000
0!
03
0J
0A
0K
#910000
1!
13
1J
1A
1K
0\
1^
1p
0q
0G
1F
1_
0]
0i
0l
00
1/
0m
1j
0#
1"
#920000
0!
03
0J
0A
0K
#930000
1!
13
1J
1A
1K
0^
1`
1q
0r
0H
1G
0a
1l
0_
01
10
1m
0$
1#
#940000
0!
03
0J
0A
0K
#950000
1!
13
1J
1A
1K
0`
0b
1r
1H
1c
0g
0h
0k
1a
0l
11
0o
0j
1$
#960000
0!
03
0J
0A
0K
#970000
1!
13
1J
1A
1K
1b
1d
0p
0q
0s
0I
0G
0F
1l
0c
1k
02
00
0/
1o
0%
0#
0"
#980000
0!
03
0J
0A
0K
#990000
1!
13
1J
1A
1K
1L
0d
1s
1I
1g
1h
0l
1M
1f
12
0g
0m
1j
1%
