Lab01/simulation/qsim/Full_Adder_Subtractor.msim.vcd
$comment
	File created using the following command:
		vcd file Full_Adder_Subtractor.msim.vcd -direction
$end
$date
	Mon Mar 18 20:24:15 2024
$end
$version
	ModelSim Version 10.5b
$end
$timescale
	1ps
$end

$scope module Full_Adder_Subtractor_vlg_vec_tst $end
$var reg 1 ! A0 $end
$var reg 1 " A1 $end
$var reg 1 # A2 $end
$var reg 1 $ A3 $end
$var reg 1 % B0 $end
$var reg 1 & B1 $end
$var reg 1 ' B2 $end
$var reg 1 ( B3 $end
$var reg 1 ) Cin $end
$var wire 1 * Cout $end
$var wire 1 + S0 $end
$var wire 1 , S1 $end
$var wire 1 - S2 $end
$var wire 1 . S3 $end

$scope module i1 $end
$var wire 1 / gnd $end
$var wire 1 0 vcc $end
$var wire 1 1 unknown $end
$var tri1 1 2 devclrn $end
$var tri1 1 3 devpor $end
$var tri1 1 4 devoe $end
$var wire 1 5 ~QUARTUS_CREATED_GND~I_combout $end
$var wire 1 6 ~QUARTUS_CREATED_UNVM~~busy $end
$var wire 1 7 ~QUARTUS_CREATED_ADC1~~eoc $end
$var wire 1 8 ~QUARTUS_CREATED_ADC2~~eoc $end
$var wire 1 9 S0~output_o $end
$var wire 1 : S1~output_o $end
$var wire 1 ; S2~output_o $end
$var wire 1 < S3~output_o $end
$var wire 1 = Cout~output_o $end
$var wire 1 > B0~input_o $end
$var wire 1 ? A0~input_o $end
$var wire 1 @ Cin~input_o $end
$var wire 1 A inst|inst|SS~0_combout $end
$var wire 1 B A1~input_o $end
$var wire 1 C inst|inst|Scout~0_combout $end
$var wire 1 D B1~input_o $end
$var wire 1 E inst|inst1|SS~combout $end
$var wire 1 F B2~input_o $end
$var wire 1 G A2~input_o $end
$var wire 1 H inst|inst1|Scout~0_combout $end
$var wire 1 I inst|inst2|SS~combout $end
$var wire 1 J B3~input_o $end
$var wire 1 K A3~input_o $end
$var wire 1 L inst|inst2|Scout~0_combout $end
$var wire 1 M inst|inst3|SS~combout $end
$var wire 1 N inst|inst3|Scout~0_combout $end
$upscope $end
$upscope $end
$enddefinitions $end
#0
$dumpvars
0!
0"
0#
0$
0%
0&
0'
0(
0)
0*
0+
0,
0-
0.
0/
10
x1
12
13
14
05
z6
z7
z8
09
0:
0;
0<
0=
0>
0?
0@
0A
0B
0C
0D
0E
0F
0G
0H
0I
0J
0K
0L
0M
0N
$end
#1000
1!
1?
1A
19
1+
#2000
1"
0!
0?
1B
0A
1E
1:
09
0+
1,
#3000
1!
1?
1A
19
1+
#4000
1#
0"
0!
0?
0B
1G
0A
0E
1I
1;
0:
09
0+
0,
1-
#5000
1!
1?
1A
19
1+
#6000
1"
0!
0?
1B
0A
1E
1:
09
0+
1,
#7000
1!
1?
1A
19
1+
#8000
1$
0#
0"
0!
0?
0B
0G
1K
0A
0E
0I
1M
1<
0;
0:
09
0+
0,
0-
1.
#9000
1!
1?
1A
19
1+
#10000
1"
0!
0?
1B
0A
1E
1:
09
0+
1,
#11000
1!
1?
1A
19
1+
#12000
1#
0"
0!
0?
0B
1G
0A
0E
1I
1;
0:
09
0+
0,
1-
#13000
1!
1?
1A
19
1+
#14000
1"
0!
0?
1B
0A
1E
1:
09
0+
1,
#15000
1!
1?
1A
19
1+
#16000
1%
0$
0#
0"
0!
0?
0B
0G
0K
1>
0E
0I
0M
0<
0;
0:
0,
0-
0.
#17000
1!
1?
1C
0A
09
0+
1E
1:
1,
#18000
1"
0!
0?
1B
0C
1H
1A
0E
0:
19
0H
1+
0,
1E
1I
1;
1:
1,
1-
0I
0;
0-
#19000
1!
1?
1C
0A
09
1H
0+
0E
0:
0,
1I
1;
1-
#20000
1#
0"
0!
0?
0B
1G
0C
0H
1L
1A
1E
0I
0;
1:
19
0L
1+
1,
0-
0E
1I
1M
1<
1;
0:
0,
1-
1.
0M
0<
0.
#21000
1!
1?
1C
0A
09
0+
1E
1:
1,
#22000
1"
0!
0?
1B
0C
1H
1A
0E
0:
19
0H
1L
1+
0,
1E
0I
0;
1:
0L
1,
0-
1I
1M
1<
1;
1-
1.
0M
0<
0.
#23000
1!
1?
1C
0A
09
1H
0+
0E
0:
1L
0,
0I
0;
0-
1M
1<
1.
#24000
1$
0#
0"
0!
0?
0B
0G
1K
0C
0H
0L
1A
1E
1I
1N
0M
0<
1=
1;
1:
19
1+
1,
1-
1*
0.
0E
0I
0N
1M
1<
0=
0;
0:
0,
0-
0*
1.
#25000
1!
1?
1C
0A
09
0+
1E
1:
1,
#26000
1"
0!
0?
1B
0C
1H
1A
0E
0:
19
0H
1+
0,
1E
1I
1;
1:
1,
1-
0I
0;
0-
#27000
1!
1?
1C
0A
09
1H
0+
0E
0:
0,
1I
1;
1-
#28000
1#
0"
0!
0?
0B
1G
0C
0H
1L
1A
1E
0I
0;
1:
19
0L
1+
1,
0-
0E
1I
1N
0M
0<
1=
1;
0:
0,
1-
1*
0.
0N
1M
1<
0=
0*
1.
#29000
1!
1?
1C
0A
09
0+
1E
1:
1,
#30000
1"
0!
0?
1B
0C
1H
1A
0E
0:
19
0H
1L
1+
0,
1E
0I
0;
1:
0L
1,
0-
1I
1N
0M
0<
1=
1;
1-
1*
0.
0N
1M
1<
0=
0*
1.
#31000
1!
1?
1C
0A
09
1H
0+
0E
0:
1L
0,
0I
0;
0-
1N
0M
0<
1=
1*
0.
#32000
1&
0%
0$
0#
0"
0!
0?
0B
0G
0K
0>
1D
0C
0L
1I
0N
1M
1<
0=
1;
0H
1-
0*
1.
1E
0M
0<
1:
1,
0.
0I
0;
0-
#33000
1!
1?
1A
19
1+
#34000
1"
0!
0?
1B
1H
0A
0E
0:
09
0+
0,
1I
1;
1-
#35000
1!
1?
1A
19
1+
#36000
1#
0"
0!
0?
0B
1G
0H
1L
0A
1E
0I
0;
1:
09
0L
0+
1,
0-
1I
1M
1<
1;
1-
1.
0M
0<
0.
#37000
1!
1?
1A
19
1+
#38000
1"
0!
0?
1B
1H
0A
0E
0:
09
1L
0+
0,
0I
0;
0-
1M
1<
1.
#39000
1!
1?
1A
19
1+
#40000
1$
0#
0"
0!
0?
0B
0G
1K
0H
0L
0A
1E
1I
1N
0M
0<
1=
1;
1:
09
0+
1,
1-
1*
0.
0I
0N
1M
1<
0=
0;
0-
0*
1.
#41000
1!
1?
1A
19
1+
#42000
1"
0!
0?
1B
1H
0A
0E
0:
09
0+
0,
1I
1;
1-
#43000
1!
1?
1A
19
1+
#44000
1#
0"
0!
0?
0B
1G
0H
1L
0A
1E
0I
0;
1:
09
0L
0+
1,
0-
1I
1N
0M
0<
1=
1;
1-
1*
0.
0N
1M
1<
0=
0*
1.
#45000
1!
1?
1A
19
1+
#46000
1"
0!
0?
1B
1H
0A
0E
0:
09
1L
0+
0,
0I
0;
0-
1N
0M
0<
1=
1*
0.
#47000
1!
1?
1A
19
1+
#48000
1%
0$
0#
0"
0!
0?
0B
0G
0K
1>
0H
0L
1E
1I
0N
1M
1<
0=
1;
1:
1,
1-
0*
1.
0I
0M
0<
0;
0-
0.
#49000
1!
1?
1C
0A
09
1H
0+
0E
0:
0,
1I
1;
1-
#50000
1"
0!
0?
1B
0C
1A
1E
1:
19
1+
1,
0E
0:
0,
#51000
1!
1?
1C
0A
09
0+
1E
1:
1,
#52000
1#
0"
0!
0?
0B
1G
0C
1L
1A
0E
0I
0;
0:
19
0H
1+
0,
0-
1E
1M
1<
1:
0L
1,
1.
1I
1;
1-
0M
0<
0.
#53000
1!
1?
1C
0A
09
1H
0+
0E
0:
1L
0,
0I
0;
0-
1M
1<
1.
#54000
1"
0!
0?
1B
0C
1A
1E
1:
19
1+
1,
0E
0:
0,
#55000
1!
1?
1C
0A
09
0+
1E
1:
1,
#56000
1$
0#
0"
0!
0?
0B
0G
1K
0C
0L
1A
0E
1I
1N
0M
0<
1=
1;
0:
19
0H
1+
0,
1-
1*
0.
1E
0N
1M
1<
0=
1:
1,
0*
1.
0I
0;
0-
#57000
1!
1?
1C
0A
09
1H
0+
0E
0:
0,
1I
1;
1-
#58000
1"
0!
0?
1B
0C
1A
1E
1:
19
1+
1,
0E
0:
0,
#59000
1!
1?
1C
0A
09
0+
1E
1:
1,
#60000
1#
0"
0!
0?
0B
1G
0C
1L
1A
0E
0I
0;
0:
19
0H
1+
0,
0-
1E
1N
0M
0<
1=
1:
0L
1,
1*
0.
1I
1;
1-
0N
1M
1<
0=
0*
1.
#61000
1!
1?
1C
0A
09
1H
0+
0E
0:
1L
0,
0I
0;
0-
1N
0M
0<
1=
1*
0.
#62000
1"
0!
0?
1B
0C
1A
1E
1:
19
1+
1,
0E
0:
0,
#63000
1!
1?
1C
0A
09
0+
1E
1:
1,
#64000
1'
0&
0%
0$
0#
0"
0!
0?
0B
0G
0K
0>
0D
1F
0C
0H
0N
1M
1<
0=
0L
0*
1.
0E
1I
1;
0:
0,
1-
0M
0<
0.
#65000
1!
1?
1A
19
1+
#66000
1"
0!
0?
1B
0A
1E
1:
09
0+
1,
#67000
1!
1?
1A
19
1+
#68000
1#
0"
0!
0?
0B
1G
1L
0A
0E
0I
0;
0:
09
0+
0,
0-
1M
1<
1.
#69000
1!
1?
1A
19
1+
#70000
1"
0!
0?
1B
0A
1E
1:
09
0+
1,
#71000
1!
1?
1A
19
1+
#72000
1$
0#
0"
0!
0?
0B
0G
1K
0L
0A
0E
1I
1N
0M
0<
1=
1;
0:
09
0+
0,
1-
1*
0.
0N
1M
1<
0=
0*
1.
#73000
1!
1?
1A
19
1+
#74000
1"
0!
0?
1B
0A
1E
1:
09
0+
1,
#75000
1!
1?
1A
19
1+
#76000
1#
0"
0!
0?
0B
1G
1L
0A
0E
0I
0;
0:
09
0+
0,
0-
1N
0M
0<
1=
1*
0.
#77000
1!
1?
1A
19
1+
#78000
1"
0!
0?
1B
0A
1E
1:
09
0+
1,
#79000
1!
1?
1A
19
1+
#80000
1%
0$
0#
0"
0!
0?
0B
0G
0K
1>
0L
0E
1I
0N
1M
1<
0=
1;
0:
0,
1-
0*
1.
0M
0<
0.
#81000
1!
1?
1C
0A
09
0+
1E
1:
1,
#82000
1"
0!
0?
1B
0C
1H
1A
0E
0:
19
0H
1L
1+
0,
1E
0I
0;
1:
0L
1,
0-
1I
1M
1<
1;
1-
1.
0M
0<
0.
#83000
1!
1?
1C
0A
09
1H
0+
0E
0:
1L
0,
0I
0;
0-
1M
1<
1.
#84000
1#
0"
0!
0?
0B
1G
0C
0H
1A
1E
1I
1;
1:
19
1+
1,
1-
0E
0I
0;
0:
0,
0-
#85000
1!
1?
1C
0A
09
0+
1E
1:
1,
#86000
1"
0!
0?
1B
0C
1H
1A
0E
0:
19
0H
1+
0,
1E
1I
1;
1:
1,
1-
0I
0;
0-
#87000
1!
1?
1C
0A
09
1H
0+
0E
0:
0,
1I
1;
1-
#88000
1$
0#
0"
0!
0?
0B
0G
1K
0C
0H
1A
1E
0I
1N
0M
0<
1=
0;
1:
19
0L
1+
1,
0-
1*
0.
0E
1I
1;
0:
0,
1-
0N
1M
1<
0=
0*
1.
#89000
1!
1?
1C
0A
09
0+
1E
1:
1,
#90000
1"
0!
0?
1B
0C
1H
1A
0E
0:
19
0H
1L
1+
0,
1E
0I
0;
1:
0L
1,
0-
1I
1N
0M
0<
1=
1;
1-
1*
0.
0N
1M
1<
0=
0*
1.
#91000
1!
1?
1C
0A
09
1H
0+
0E
0:
1L
0,
0I
0;
0-
1N
0M
0<
1=
1*
0.
#92000
1#
0"
0!
0?
0B
1G
0C
0H
1A
1E
1I
1;
1:
19
1+
1,
1-
0E
0I
0;
0:
0,
0-
#93000
1!
1?
1C
0A
09
0+
1E
1:
1,
#94000
1"
0!
0?
1B
0C
1H
1A
0E
0:
19
0H
1+
0,
1E
1I
1;
1:
1,
1-
0I
0;
0-
#95000
1!
1?
1C
0A
09
1H
0+
0E
0:
0,
1I
1;
1-
#96000
1&
0%
0$
0#
0"
0!
0?
0B
0G
0K
0>
1D
0C
0I
0N
1M
1<
0=
0;
0H
0-
0*
1.
1E
1:
0L
1,
1I
1;
1-
0M
0<
0.
#97000
1!
1?
1A
19
1+
#98000
1"
0!
0?
1B
1H
0A
0E
0:
09
1L
0+
0,
0I
0;
0-
1M
1<
1.
#99000
1!
1?
1A
19
1+
#100000
1#
0"
0!
0?
0B
1G
0H
0A
1E
1I
1;
1:
09
0+
1,
1-
0I
0;
0-
#101000
1!
1?
1A
19
1+
#102000
1"
0!
0?
1B
1H
0A
0E
0:
09
0+
0,
1I
1;
1-
#103000
1!
1?
1A
19
1+
#104000
1$
0#
0"
0!
0?
0B
0G
1K
0H
0A
1E
0I
1N
0M
0<
1=
0;
1:
09
0L
0+
1,
0-
1*
0.
1I
1;
1-
0N
1M
1<
0=
0*
1.
#105000
1!
1?
1A
19
1+
#106000
1"
0!
0?
1B
1H
0A
0E
0:
09
1L
0+
0,
0I
0;
0-
1N
0M
0<
1=
1*
0.
#107000
1!
1?
1A
19
1+
#108000
1#
0"
0!
0?
0B
1G
0H
0A
1E
1I
1;
1:
09
0+
1,
1-
0I
0;
0-
#109000
1!
1?
1A
19
1+
#110000
1"
0!
0?
1B
1H
0A
0E
0:
09
0+
0,
1I
1;
1-
#111000
1!
1?
1A
19
1+
#112000
1%
0$
0#
0"
0!
0?
0B
0G
0K
1>
0H
1E
0I
0N
1M
1<
0=
0;
1:
0L
1,
0-
0*
1.
1I
1;
1-
0M
0<
0.
#113000
1!
1?
1C
0A
09
1H
0+
0E
0:
1L
0,
0I
0;
0-
1M
1<
1.
#114000
1"
0!
0?
1B
0C
1A
1E
1:
19
1+
1,
0E
0:
0,
#115000
1!
1?
1C
0A
09
0+
1E
1:
1,
#116000
1#
0"
0!
0?
0B
1G
0C
1A
0E
1I
1;
0:
19
0H
1+
0,
1-
1E
1:
1,
0I
0;
0-
#117000
1!
1?
1C
0A
09
1H
0+
0E
0:
0,
1I
1;
1-
#118000
1"
0!
0?
1B
0C
1A
1E
1:
19
1+
1,
0E
0:
0,
#119000
1!
1?
1C
0A
09
0+
1E
1:
1,
#120000
1$
0#
0"
0!
0?
0B
0G
1K
0C
1A
0E
0I
1N
0M
0<
1=
0;
0:
19
0H
1+
0,
0-
1*
0.
1E
1:
0L
1,
1I
1;
1-
0N
1M
1<
0=
0*
1.
#121000
1!
1?
1C
0A
09
1H
0+
0E
0:
1L
0,
0I
0;
0-
1N
0M
0<
1=
1*
0.
#122000
1"
0!
0?
1B
0C
1A
1E
1:
19
1+
1,
0E
0:
0,
#123000
1!
1?
1C
0A
09
0+
1E
1:
1,
#124000
1#
0"
0!
0?
0B
1G
0C
1A
0E
1I
1;
0:
19
0H
1+
0,
1-
1E
1:
1,
0I
0;
0-
#125000
1!
1?
1C
0A
09
1H
0+
0E
0:
0,
1I
1;
1-
#126000
1"
0!
0?
1B
0C
1A
1E
1:
19
1+
1,
0E
0:
0,
#127000
1!
1?
1C
0A
09
0+
1E
1:
1,
#128000
1(
0'
0&
0%
0$
0#
0"
0!
0?
0B
0G
0K
0>
0D
0F
1J
0C
0H
0L
0E
0I
0N
1M
1<
0=
0;
0:
0,
0-
0*
1.
#129000
1!
1?
1A
19
1+
#130000
1"
0!
0?
1B
0A
1E
1:
09
0+
1,
#131000
1!
1?
1A
19
1+
#132000
1#
0"
0!
0?
0B
1G
0A
0E
1I
1;
0:
09
0+
0,
1-
#133000
1!
1?
1A
19
1+
#134000
1"
0!
0?
1B
0A
1E
1:
09
0+
1,
#135000
1!
1?
1A
19
1+
#136000
1$
0#
0"
0!
0?
0B
0G
1K
0A
0E
0I
1N
0M
0<
1=
0;
0:
09
0+
0,
0-
1*
0.
#137000
1!
1?
1A
19
1+
#138000
1"
0!
0?
1B
0A
1E
1:
09
0+
1,
#139000
1!
1?
1A
19
1+
#140000
1#
0"
0!
0?
0B
1G
0A
0E
1I
1;
0:
09
0+
0,
1-
#141000
1!
1?
1A
19
1+
#142000
1"
0!
0?
1B
0A
1E
1:
09
0+
1,
#143000
1!
1?
1A
19
1+
#144000
1%
0$
0#
0"
0!
0?
0B
0G
0K
1>
0E
0I
0N
1M
1<
0=
0;
0:
0,
0-
0*
1.
#145000
1!
1?
1C
0A
09
0+
1E
1:
1,
#146000
1"
0!
0?
1B
0C
1H
1A
0E
0:
19
0H
1+
0,
1E
1I
1;
1:
1,
1-
0I
0;
0-
#147000
1!
1?
1C
0A
09
1H
0+
0E
0:
0,
1I
1;
1-
#148000
1#
0"
0!
0?
0B
1G
0C
0H
1L
1A
1E
0I
0;
1:
19
0L
1+
1,
0-
0E
1I
1N
0M
0<
1=
1;
0:
0,
1-
1*
0.
0N
1M
1<
0=
0*
1.
#149000
1!
1?
1C
0A
09
0+
1E
1:
1,
#150000
1"
0!
0?
1B
0C
1H
1A
0E
0:
19
0H
1L
1+
0,
1E
0I
0;
1:
0L
1,
0-
1I
1N
0M
0<
1=
1;
1-
1*
0.
0N
1M
1<
0=
0*
1.
#151000
1!
1?
1C
0A
09
1H
0+
0E
0:
1L
0,
0I
0;
0-
1N
0M
0<
1=
1*
0.
#152000
1$
0#
0"
0!
0?
0B
0G
1K
0C
0H
0L
1A
1E
1I
1M
1<
1;
1:
19
1+
1,
1-
1.
0E
0I
0M
0<
0;
0:
0,
0-
0.
#153000
1!
1?
1C
0A
09
0+
1E
1:
1,
#154000
1"
0!
0?
1B
0C
1H
1A
0E
0:
19
0H
1+
0,
1E
1I
1;
1:
1,
1-
0I
0;
0-
#155000
1!
1?
1C
0A
09
1H
0+
0E
0:
0,
1I
1;
1-
#156000
1#
0"
0!
0?
0B
1G
0C
0H
1L
1A
1E
0I
0;
1:
19
0L
1+
1,
0-
0E
1I
1M
1<
1;
0:
0,
1-
1.
0M
0<
0.
#157000
1!
1?
1C
0A
09
0+
1E
1:
1,
#158000
1"
0!
0?
1B
0C
1H
1A
0E
0:
19
0H
1L
1+
0,
1E
0I
0;
1:
0L
1,
0-
1I
1M
1<
1;
1-
1.
0M
0<
0.
#159000
1!
1?
1C
0A
09
1H
0+
0E
0:
1L
0,
0I
0;
0-
1M
1<
1.
#160000
1&
0%
0$
0#
0"
0!
0?
0B
0G
0K
0>
1D
0C
0L
1I
0M
0<
1;
0H
1-
0.
1E
0N
1M
1<
0=
1:
1,
0*
1.
0I
0;
0-
#161000
1!
1?
1A
19
1+
#162000
1"
0!
0?
1B
1H
0A
0E
0:
09
0+
0,
1I
1;
1-
#163000
1!
1?
1A
19
1+
#164000
1#
0"
0!
0?
0B
1G
0H
1L
0A
1E
0I
0;
1:
09
0L
0+
1,
0-
1I
1N
0M
0<
1=
1;
1-
1*
0.
0N
1M
1<
0=
0*
1.
#165000
1!
1?
1A
19
1+
#166000
1"
0!
0?
1B
1H
0A
0E
0:
09
1L
0+
0,
0I
0;
0-
1N
0M
0<
1=
1*
0.
#167000
1!
1?
1A
19
1+
#168000
1$
0#
0"
0!
0?
0B
0G
1K
0H
0L
0A
1E
1I
1M
1<
1;
1:
09
0+
1,
1-
1.
0I
0M
0<
0;
0-
0.
#169000
1!
1?
1A
19
1+
#170000
1"
0!
0?
1B
1H
0A
0E
0:
09
0+
0,
1I
1;
1-
#171000
1!
1?
1A
19
1+
#172000
1#
0"
0!
0?
0B
1G
0H
1L
0A
1E
0I
0;
1:
09
0L
0+
1,
0-
1I
1M
1<
1;
1-
1.
0M
0<
0.
#173000
1!
1?
1A
19
1+
#174000
1"
0!
0?
1B
1H
0A
0E
0:
09
1L
0+
0,
0I
0;
0-
1M
1<
1.
#175000
1!
1?
1A
19
1+
#176000
1%
0$
0#
0"
0!
0?
0B
0G
0K
1>
0H
0L
1E
1I
0M
0<
1;
1:
1,
1-
0.
0I
0N
1M
1<
0=
0;
0-
0*
1.
#177000
1!
1?
1C
0A
09
1H
0+
0E
0:
0,
1I
1;
1-
#178000
1"
0!
0?
1B
0C
1A
1E
1:
19
1+
1,
0E
0:
0,
#179000
1!
1?
1C
0A
09
0+
1E
1:
1,
#180000
1#
0"
0!
0?
0B
1G
0C
1L
1A
0E
0I
0;
0:
19
0H
1+
0,
0-
1E
1N
0M
0<
1=
1:
0L
1,
1*
0.
1I
1;
1-
0N
1M
1<
0=
0*
1.
#181000
1!
1?
1C
0A
09
1H
0+
0E
0:
1L
0,
0I
0;
0-
1N
0M
0<
1=
1*
0.
#182000
1"
0!
0?
1B
0C
1A
1E
1:
19
1+
1,
0E
0:
0,
#183000
1!
1?
1C
0A
09
0+
1E
1:
1,
#184000
1$
0#
0"
0!
0?
0B
0G
1K
0C
0L
1A
0E
1I
1M
1<
1;
0:
19
0H
1+
0,
1-
1.
1E
0M
0<
1:
1,
0.
0I
0;
0-
#185000
1!
1?
1C
0A
09
1H
0+
0E
0:
0,
1I
1;
1-
#186000
1"
0!
0?
1B
0C
1A
1E
1:
19
1+
1,
0E
0:
0,
#187000
1!
1?
1C
0A
09
0+
1E
1:
1,
#188000
1#
0"
0!
0?
0B
1G
0C
1L
1A
0E
0I
0;
0:
19
0H
1+
0,
0-
1E
1M
1<
1:
0L
1,
1.
1I
1;
1-
0M
0<
0.
#189000
1!
1?
1C
0A
09
1H
0+
0E
0:
1L
0,
0I
0;
0-
1M
1<
1.
#190000
1"
0!
0?
1B
0C
1A
1E
1:
19
1+
1,
0E
0:
0,
#191000
1!
1?
1C
0A
09
0+
1E
1:
1,
#192000
1'
0&
0%
0$
0#
0"
0!
0?
0B
0G
0K
0>
0D
1F
0C
0H
0M
0<
0L
0.
0E
1I
1;
0:
0,
1-
0N
1M
1<
0=
0*
1.
#193000
1!
1?
1A
19
1+
#194000
1"
0!
0?
1B
0A
1E
1:
09
0+
1,
#195000
1!
1?
1A
19
1+
#196000
1#
0"
0!
0?
0B
1G
1L
0A
0E
0I
0;
0:
09
0+
0,
0-
1N
0M
0<
1=
1*
0.
#197000
1!
1?
1A
19
1+
#198000
1"
0!
0?
1B
0A
1E
1:
09
0+
1,
#199000
1!
1?
1A
19
1+
#200000
1$
0#
0"
0!
0?
0B
0G
1K
0L
0A
0E
1I
1M
1<
1;
0:
09
0+
0,
1-
1.
0M
0<
0.
#201000
1!
1?
1A
19
1+
#202000
1"
0!
0?
1B
0A
1E
1:
09
0+
1,
#203000
1!
1?
1A
19
1+
#204000
1#
0"
0!
0?
0B
1G
1L
0A
0E
0I
0;
0:
09
0+
0,
0-
1M
1<
1.
#205000
1!
1?
1A
19
1+
#206000
1"
0!
0?
1B
0A
1E
1:
09
0+
1,
#207000
1!
1?
1A
19
1+
#208000
1%
0$
0#
0"
0!
0?
0B
0G
0K
1>
0L
0E
1I
0M
0<
1;
0:
0,
1-
0.
0N
1M
1<
0=
0*
1.
#209000
1!
1?
1C
0A
09
0+
1E
1:
1,
#210000
1"
0!
0?
1B
0C
1H
1A
0E
0:
19
0H
1L
1+
0,
1E
0I
0;
1:
0L
1,
0-
1I
1N
0M
0<
1=
1;
1-
1*
0.
0N
1M
1<
0=
0*
1.
#211000
1!
1?
1C
0A
09
1H
0+
0E
0:
1L
0,
0I
0;
0-
1N
0M
0<
1=
1*
0.
#212000
1#
0"
0!
0?
0B
1G
0C
0H
1A
1E
1I
1;
1:
19
1+
1,
1-
0E
0I
0;
0:
0,
0-
#213000
1!
1?
1C
0A
09
0+
1E
1:
1,
#214000
1"
0!
0?
1B
0C
1H
1A
0E
0:
19
0H
1+
0,
1E
1I
1;
1:
1,
1-
0I
0;
0-
#215000
1!
1?
1C
0A
09
1H
0+
0E
0:
0,
1I
1;
1-
#216000
1$
0#
0"
0!
0?
0B
0G
1K
0C
0H
1A
1E
0I
1M
1<
0;
1:
19
0L
1+
1,
0-
1.
0E
1I
1;
0:
0,
1-
0M
0<
0.
#217000
1!
1?
1C
0A
09
0+
1E
1:
1,
#218000
1"
0!
0?
1B
0C
1H
1A
0E
0:
19
0H
1L
1+
0,
1E
0I
0;
1:
0L
1,
0-
1I
1M
1<
1;
1-
1.
0M
0<
0.
#219000
1!
1?
1C
0A
09
1H
0+
0E
0:
1L
0,
0I
0;
0-
1M
1<
1.
#220000
1#
0"
0!
0?
0B
1G
0C
0H
1A
1E
1I
1;
1:
19
1+
1,
1-
0E
0I
0;
0:
0,
0-
#221000
1!
1?
1C
0A
09
0+
1E
1:
1,
#222000
1"
0!
0?
1B
0C
1H
1A
0E
0:
19
0H
1+
0,
1E
1I
1;
1:
1,
1-
0I
0;
0-
#223000
1!
1?
1C
0A
09
1H
0+
0E
0:
0,
1I
1;
1-
#224000
1&
0%
0$
0#
0"
0!
0?
0B
0G
0K
0>
1D
0C
0I
0M
0<
0;
0H
0-
0.
1E
1:
0L
1,
1I
1;
1-
0N
1M
1<
0=
0*
1.
#225000
1!
1?
1A
19
1+
#226000
1"
0!
0?
1B
1H
0A
0E
0:
09
1L
0+
0,
0I
0;
0-
1N
0M
0<
1=
1*
0.
#227000
1!
1?
1A
19
1+
#228000
1#
0"
0!
0?
0B
1G
0H
0A
1E
1I
1;
1:
09
0+
1,
1-
0I
0;
0-
#229000
1!
1?
1A
19
1+
#230000
1"
0!
0?
1B
1H
0A
0E
0:
09
0+
0,
1I
1;
1-
#231000
1!
1?
1A
19
1+
#232000
1$
0#
0"
0!
0?
0B
0G
1K
0H
0A
1E
0I
1M
1<
0;
1:
09
0L
0+
1,
0-
1.
1I
1;
1-
0M
0<
0.
#233000
1!
1?
1A
19
1+
#234000
1"
0!
0?
1B
1H
0A
0E
0:
09
1L
0+
0,
0I
0;
0-
1M
1<
1.
#235000
1!
1?
1A
19
1+
#236000
1#
0"
0!
0?
0B
1G
0H
0A
1E
1I
1;
1:
09
0+
1,
1-
0I
0;
0-
#237000
1!
1?
1A
19
1+
#238000
1"
0!
0?
1B
1H
0A
0E
0:
09
0+
0,
1I
1;
1-
#239000
1!
1?
1A
19
1+
#240000
1%
0$
0#
0"
0!
0?
0B
0G
0K
1>
0H
1E
0I
0M
0<
0;
1:
0L
1,
0-
0.
1I
1;
1-
0N
1M
1<
0=
0*
1.
#241000
1!
1?
1C
0A
09
1H
0+
0E
0:
1L
0,
0I
0;
0-
1N
0M
0<
1=
1*
0.
#242000
1"
0!
0?
1B
0C
1A
1E
1:
19
1+
1,
0E
0:
0,
#243000
1!
1?
1C
0A
09
0+
1E
1:
1,
#244000
1#
0"
0!
0?
0B
1G
0C
1A
0E
1I
1;
0:
19
0H
1+
0,
1-
1E
1:
1,
0I
0;
0-
#245000
1!
1?
1C
0A
09
1H
0+
0E
0:
0,
1I
1;
1-
#246000
1"
0!
0?
1B
0C
1A
1E
1:
19
1+
1,
0E
0:
0,
#247000
1!
1?
1C
0A
09
0+
1E
1:
1,
#248000
1$
0#
0"
0!
0?
0B
0G
1K
0C
1A
0E
0I
1M
1<
0;
0:
19
0H
1+
0,
0-
1.
1E
1:
0L
1,
1I
1;
1-
0M
0<
0.
#249000
1!
1?
1C
0A
09
1H
0+
0E
0:
1L
0,
0I
0;
0-
1M
1<
1.
#250000
1"
0!
0?
1B
0C
1A
1E
1:
19
1+
1,
0E
0:
0,
#251000
1!
1?
1C
0A
09
0+
1E
1:
1,
#252000
1#
0"
0!
0?
0B
1G
0C
1A
0E
1I
1;
0:
19
0H
1+
0,
1-
1E
1:
1,
0I
0;
0-
#253000
1!
1?
1C
0A
09
1H
0+
0E
0:
0,
1I
1;
1-
#254000
1"
0!
0?
1B
0C
1A
1E
1:
19
1+
1,
0E
0:
0,
#255000
1!
1?
1C
0A
09
0+
1E
1:
1,
#256000
1)
0(
0'
0&
0%
0$
0#
0"
0!
0?
0B
0G
0K
0>
0D
0F
0J
1@
0C
0H
0L
1A
0N
0=
19
1+
0*
0E
0I
0M
0<
0;
0:
0,
0-
0.
#257000
1!
1?
1C
0A
09
0+
1E
1:
1,
#258000
1"
0!
0?
1B
0C
1H
1A
0E
0:
19
0H
1+
0,
1E
1I
1;
1:
1,
1-
0I
0;
0-
#259000
1!
1?
1C
0A
09
1H
0+
0E
0:
0,
1I
1;
1-
#260000
1#
0"
0!
0?
0B
1G
0C
0H
1L
1A
1E
0I
0;
1:
19
0L
1+
1,
0-
0E
1I
1M
1<
1;
0:
0,
1-
1.
0M
0<
0.
#261000
1!
1?
1C
0A
09
0+
1E
1:
1,
#262000
1"
0!
0?
1B
0C
1H
1A
0E
0:
19
0H
1L
1+
0,
1E
0I
0;
1:
0L
1,
0-
1I
1M
1<
1;
1-
1.
0M
0<
0.
#263000
1!
1?
1C
0A
09
1H
0+
0E
0:
1L
0,
0I
0;
0-
1M
1<
1.
#264000
1$
0#
0"
0!
0?
0B
0G
1K
0C
0H
0L
1A
1E
1I
1N
0M
0<
1=
1;
1:
19
1+
1,
1-
1*
0.
0E
0I
0N
1M
1<
0=
0;
0:
0,
0-
0*
1.
#265000
1!
1?
1C
0A
09
0+
1E
1:
1,
#266000
1"
0!
0?
1B
0C
1H
1A
0E
0:
19
0H
1+
0,
1E
1I
1;
1:
1,
1-
0I
0;
0-
#267000
1!
1?
1C
0A
09
1H
0+
0E
0:
0,
1I
1;
1-
#268000
1#
0"
0!
0?
0B
1G
0C
0H
1L
1A
1E
0I
0;
1:
19
0L
1+
1,
0-
0E
1I
1N
0M
0<
1=
1;
0:
0,
1-
1*
0.
0N
1M
1<
0=
0*
1.
#269000
1!
1?
1C
0A
09
0+
1E
1:
1,
#270000
1"
0!
0?
1B
0C
1H
1A
0E
0:
19
0H
1L
1+
0,
1E
0I
0;
1:
0L
1,
0-
1I
1N
0M
0<
1=
1;
1-
1*
0.
0N
1M
1<
0=
0*
1.
#271000
1!
1?
1C
0A
09
1H
0+
0E
0:
1L
0,
0I
0;
0-
1N
0M
0<
1=
1*
0.
