Lab02/simulation/qsim/Lab02.msim.vcd
$comment
	File created using the following command:
		vcd file Lab02.msim.vcd -direction
$end
$date
	Thu Apr 11 14:38:38 2024
$end
$version
	ModelSim Version 10.5b
$end
$timescale
	1ps
$end

$scope module contador_regressivo_vhd_vec_tst $end
$var wire 1 ! CLK $end
$var wire 1 " S0 $end
$var wire 1 # S1 $end
$var wire 1 $ S2 $end
$var wire 1 % S3 $end

$scope module i1 $end
$var wire 1 & gnd $end
$var wire 1 ' vcc $end
$var wire 1 ( unknown $end
$var wire 1 ) devoe $end
$var wire 1 * devclrn $end
$var wire 1 + devpor $end
$var wire 1 , ww_devoe $end
$var wire 1 - ww_devclrn $end
$var wire 1 . ww_devpor $end
$var wire 1 / ww_S3 $end
$var wire 1 0 ww_CLK $end
$var wire 1 1 ww_S2 $end
$var wire 1 2 ww_S1 $end
$var wire 1 3 ww_S0 $end
$var wire 1 4 \~QUARTUS_CREATED_ADC1~_CHSEL_bus\ [4] $end
$var wire 1 5 \~QUARTUS_CREATED_ADC1~_CHSEL_bus\ [3] $end
$var wire 1 6 \~QUARTUS_CREATED_ADC1~_CHSEL_bus\ [2] $end
$var wire 1 7 \~QUARTUS_CREATED_ADC1~_CHSEL_bus\ [1] $end
$var wire 1 8 \~QUARTUS_CREATED_ADC1~_CHSEL_bus\ [0] $end
$var wire 1 9 \~QUARTUS_CREATED_ADC2~_CHSEL_bus\ [4] $end
$var wire 1 : \~QUARTUS_CREATED_ADC2~_CHSEL_bus\ [3] $end
$var wire 1 ; \~QUARTUS_CREATED_ADC2~_CHSEL_bus\ [2] $end
$var wire 1 < \~QUARTUS_CREATED_ADC2~_CHSEL_bus\ [1] $end
$var wire 1 = \~QUARTUS_CREATED_ADC2~_CHSEL_bus\ [0] $end
$var wire 1 > \~QUARTUS_CREATED_GND~I_combout\ $end
$var wire 1 ? \~QUARTUS_CREATED_UNVM~~busy\ $end
$var wire 1 @ \~QUARTUS_CREATED_ADC1~~eoc\ $end
$var wire 1 A \~QUARTUS_CREATED_ADC2~~eoc\ $end
$var wire 1 B \S3~output_o\ $end
$var wire 1 C \S2~output_o\ $end
$var wire 1 D \S1~output_o\ $end
$var wire 1 E \S0~output_o\ $end
$var wire 1 F \CLK~input_o\ $end
$var wire 1 G \inst~0_combout\ $end
$var wire 1 H \inst~feeder_combout\ $end
$var wire 1 I \inst010|inst4~0_combout\ $end
$var wire 1 J \inst~q\ $end
$var wire 1 K \inst4~0_combout\ $end
$var wire 1 L \inst4~feeder_combout\ $end
$var wire 1 M \inst4~q\ $end
$var wire 1 N \inst6~0_combout\ $end
$var wire 1 O \inst6~feeder_combout\ $end
$var wire 1 P \inst6~q\ $end
$var wire 1 Q \inst9~0_combout\ $end
$var wire 1 R \inst9~q\ $end
$var wire 1 S \inst010|ALT_INV_inst4~0_combout\ $end
$var wire 1 T \ALT_INV_inst~q\ $end
$var wire 1 U \ALT_INV_inst9~q\ $end
$upscope $end
$upscope $end
$enddefinitions $end
#0
$dumpvars
0!
1"
0#
0$
1%
0&
1'
x(
1)
1*
1+
1,
1-
1.
1/
00
01
02
13
0>
z?
z@
zA
1B
0C
0D
1E
0F
1G
1H
0I
0J
1K
1L
0M
1N
1O
0P
1Q
0R
1S
1T
1U
04
05
06
07
08
09
0:
0;
0<
0=
$end
#10000
1!
10
1F
1J
0T
0G
0E
0H
03
0"
#20000
0!
00
0F
#30000
1!
10
1F
0J
1T
1G
1E
1M
1H
13
1D
0K
1P
1"
12
1C
1I
0N
1R
0L
1#
0U
0S
11
0I
0Q
0O
1$
0B
0M
0P
0R
1S
1U
0/
0C
0D
1Q
1N
1K
0%
1B
01
02
1L
1O
1/
0$
0#
1%
#40000
0!
00
0F
#50000
1!
10
1F
1J
0T
0G
0E
0H
03
0"
#60000
0!
00
0F
#70000
1!
10
1F
0J
1T
1G
1E
1M
1H
13
1D
0K
1P
1"
12
1C
1I
0N
1R
0L
1#
0U
0S
11
0I
0Q
0O
1$
0B
0M
0P
0R
1S
1U
0/
0C
0D
1Q
1N
1K
0%
1B
01
02
1L
1O
1/
0$
0#
1%
#80000
0!
00
0F
#90000
1!
10
1F
1J
0T
0G
0E
0H
03
0"
#100000
0!
00
0F
#110000
1!
10
1F
0J
1T
1G
1E
1M
1H
13
1D
0K
1P
1"
12
1C
1I
0N
1R
0L
1#
0U
0S
11
0I
0Q
0O
1$
0B
0M
0P
0R
1S
1U
0/
0C
0D
1Q
1N
1K
0%
1B
01
02
1L
1O
1/
0$
0#
1%
#120000
0!
00
0F
#130000
1!
10
1F
1J
0T
0G
0E
0H
03
0"
#140000
0!
00
0F
#150000
1!
10
1F
0J
1T
1G
1E
1M
1H
13
1D
0K
1P
1"
12
1C
1I
0N
1R
0L
1#
0U
0S
11
0I
0Q
0O
1$
0B
0M
0P
0R
1S
1U
0/
0C
0D
1Q
1N
1K
0%
1B
01
02
1L
1O
1/
0$
0#
1%
#160000
0!
00
0F
#170000
1!
10
1F
1J
0T
0G
0E
0H
03
0"
#180000
0!
00
0F
#190000
1!
10
1F
0J
1T
1G
1E
1M
1H
13
1D
0K
1P
1"
12
1C
1I
0N
1R
0L
1#
0U
0S
11
0I
0Q
0O
1$
0B
0M
0P
0R
1S
1U
0/
0C
0D
1Q
1N
1K
0%
1B
01
02
1L
1O
1/
0$
0#
1%
#200000
0!
00
0F
#210000
1!
10
1F
1J
0T
0G
0E
0H
03
0"
#220000
0!
00
0F
#230000
1!
10
1F
0J
1T
1G
1E
1M
1H
13
1D
0K
1P
1"
12
1C
1I
0N
1R
0L
1#
0U
0S
11
0I
0Q
0O
1$
0B
0M
0P
0R
1S
1U
0/
0C
0D
1Q
1N
1K
0%
1B
01
02
1L
1O
1/
0$
0#
1%
#240000
0!
00
0F
#250000
1!
10
1F
1J
0T
0G
0E
0H
03
0"
#260000
0!
00
0F
#270000
1!
10
1F
0J
1T
1G
1E
1M
1H
13
1D
0K
1P
1"
12
1C
1I
0N
1R
0L
1#
0U
0S
11
0I
0Q
0O
1$
0B
0M
0P
0R
1S
1U
0/
0C
0D
1Q
1N
1K
0%
1B
01
02
1L
1O
1/
0$
0#
1%
#280000
0!
00
0F
#290000
1!
10
1F
1J
0T
0G
0E
0H
03
0"
#300000
0!
00
0F
#310000
1!
10
1F
0J
1T
1G
1E
1M
1H
13
1D
0K
1P
1"
12
1C
1I
0N
1R
0L
1#
0U
0S
11
0I
0Q
0O
1$
0B
0M
0P
0R
1S
1U
0/
0C
0D
1Q
1N
1K
0%
1B
01
02
1L
1O
1/
0$
0#
1%
#320000
0!
00
0F
#330000
1!
10
1F
1J
0T
0G
0E
0H
03
0"
#340000
0!
00
0F
#350000
1!
10
1F
0J
1T
1G
1E
1M
1H
13
1D
0K
1P
1"
12
1C
1I
0N
1R
0L
1#
0U
0S
11
0I
0Q
0O
1$
0B
0M
0P
0R
1S
1U
0/
0C
0D
1Q
1N
1K
0%
1B
01
02
1L
1O
1/
0$
0#
1%
#360000
0!
00
0F
#370000
1!
10
1F
1J
0T
0G
0E
0H
03
0"
#380000
0!
00
0F
#390000
1!
10
1F
0J
1T
1G
1E
1M
1H
13
1D
0K
1P
1"
12
1C
1I
0N
1R
0L
1#
0U
0S
11
0I
0Q
0O
1$
0B
0M
0P
0R
1S
1U
0/
0C
0D
1Q
1N
1K
0%
1B
01
02
1L
1O
1/
0$
0#
1%
#400000
0!
00
0F
#410000
1!
10
1F
1J
0T
0G
0E
0H
03
0"
#420000
0!
00
0F
#430000
1!
10
1F
0J
1T
1G
1E
1M
1H
13
1D
0K
1P
1"
12
1C
1I
0N
1R
0L
1#
0U
0S
11
0I
0Q
0O
1$
0B
0M
0P
0R
1S
1U
0/
0C
0D
1Q
1N
1K
0%
1B
01
02
1L
1O
1/
0$
0#
1%
#440000
0!
00
0F
#450000
1!
10
1F
1J
0T
0G
0E
0H
03
0"
#460000
0!
00
0F
#470000
1!
10
1F
0J
1T
1G
1E
1M
1H
13
1D
0K
1P
1"
12
1C
1I
0N
1R
0L
1#
0U
0S
11
0I
0Q
0O
1$
0B
0M
0P
0R
1S
1U
0/
0C
0D
1Q
1N
1K
0%
1B
01
02
1L
1O
1/
0$
0#
1%
#480000
0!
00
0F
#490000
1!
10
1F
1J
0T
0G
0E
0H
03
0"
#500000
0!
00
0F
#510000
1!
10
1F
0J
1T
1G
1E
1M
1H
13
1D
0K
1P
1"
12
1C
1I
0N
1R
0L
1#
0U
0S
11
0I
0Q
0O
1$
0B
0M
0P
0R
1S
1U
0/
0C
0D
1Q
1N
1K
0%
1B
01
02
1L
1O
1/
0$
0#
1%
#520000
0!
00
0F
#530000
1!
10
1F
1J
0T
0G
0E
0H
03
0"
#540000
0!
00
0F
#550000
1!
10
1F
0J
1T
1G
1E
1M
1H
13
1D
0K
1P
1"
12
1C
1I
0N
1R
0L
1#
0U
0S
11
0I
0Q
0O
1$
0B
0M
0P
0R
1S
1U
0/
0C
0D
1Q
1N
1K
0%
1B
01
02
1L
1O
1/
0$
0#
1%
#560000
0!
00
0F
#570000
1!
10
1F
1J
0T
0G
0E
0H
03
0"
#580000
0!
00
0F
#590000
1!
10
1F
0J
1T
1G
1E
1M
1H
13
1D
0K
1P
1"
12
1C
1I
0N
1R
0L
1#
0U
0S
11
0I
0Q
0O
1$
0B
0M
0P
0R
1S
1U
0/
0C
0D
1Q
1N
1K
0%
1B
01
02
1L
1O
1/
0$
0#
1%
#600000
0!
00
0F
#610000
1!
10
1F
1J
0T
0G
0E
0H
03
0"
#620000
0!
00
0F
#630000
1!
10
1F
0J
1T
1G
1E
1M
1H
13
1D
0K
1P
1"
12
1C
1I
0N
1R
0L
1#
0U
0S
11
0I
0Q
0O
1$
0B
0M
0P
0R
1S
1U
0/
0C
0D
1Q
1N
1K
0%
1B
01
02
1L
1O
1/
0$
0#
1%
#640000
0!
00
0F
#650000
1!
10
1F
1J
0T
0G
0E
0H
03
0"
#660000
0!
00
0F
#670000
1!
10
1F
0J
1T
1G
1E
1M
1H
13
1D
0K
1P
1"
12
1C
1I
0N
1R
0L
1#
0U
0S
11
0I
0Q
0O
1$
0B
0M
0P
0R
1S
1U
0/
0C
0D
1Q
1N
1K
0%
1B
01
02
1L
1O
1/
0$
0#
1%
#680000
0!
00
0F
#690000
1!
10
1F
1J
0T
0G
0E
0H
03
0"
#700000
0!
00
0F
#710000
1!
10
1F
0J
1T
1G
1E
1M
1H
13
1D
0K
1P
1"
12
1C
1I
0N
1R
0L
1#
0U
0S
11
0I
0Q
0O
1$
0B
0M
0P
0R
1S
1U
0/
0C
0D
1Q
1N
1K
0%
1B
01
02
1L
1O
1/
0$
0#
1%
#720000
0!
00
0F
#730000
1!
10
1F
1J
0T
0G
0E
0H
03
0"
#740000
0!
00
0F
#750000
1!
10
1F
0J
1T
1G
1E
1M
1H
13
1D
0K
1P
1"
12
1C
1I
0N
1R
0L
1#
0U
0S
11
0I
0Q
0O
1$
0B
0M
0P
0R
1S
1U
0/
0C
0D
1Q
1N
1K
0%
1B
01
02
1L
1O
1/
0$
0#
1%
#760000
0!
00
0F
#770000
1!
10
1F
1J
0T
0G
0E
0H
03
0"
#780000
0!
00
0F
#790000
1!
10
1F
0J
1T
1G
1E
1M
1H
13
1D
0K
1P
1"
12
1C
1I
0N
1R
0L
1#
0U
0S
11
0I
0Q
0O
1$
0B
0M
0P
0R
1S
1U
0/
0C
0D
1Q
1N
1K
0%
1B
01
02
1L
1O
1/
0$
0#
1%
#800000
0!
00
0F
#810000
1!
10
1F
1J
0T
0G
0E
0H
03
0"
#820000
0!
00
0F
#830000
1!
10
1F
0J
1T
1G
1E
1M
1H
13
1D
0K
1P
1"
12
1C
1I
0N
1R
0L
1#
0U
0S
11
0I
0Q
0O
1$
0B
0M
0P
0R
1S
1U
0/
0C
0D
1Q
1N
1K
0%
1B
01
02
1L
1O
1/
0$
0#
1%
#840000
0!
00
0F
#850000
1!
10
1F
1J
0T
0G
0E
0H
03
0"
#860000
0!
00
0F
#870000
1!
10
1F
0J
1T
1G
1E
1M
1H
13
1D
0K
1P
1"
12
1C
1I
0N
1R
0L
1#
0U
0S
11
0I
0Q
0O
1$
0B
0M
0P
0R
1S
1U
0/
0C
0D
1Q
1N
1K
0%
1B
01
02
1L
1O
1/
0$
0#
1%
#880000
0!
00
0F
#890000
1!
10
1F
1J
0T
0G
0E
0H
03
0"
#900000
0!
00
0F
#910000
1!
10
1F
0J
1T
1G
1E
1M
1H
13
1D
0K
1P
1"
12
1C
1I
0N
1R
0L
1#
0U
0S
11
0I
0Q
0O
1$
0B
0M
0P
0R
1S
1U
0/
0C
0D
1Q
1N
1K
0%
1B
01
02
1L
1O
1/
0$
0#
1%
#920000
0!
00
0F
#930000
1!
10
1F
1J
0T
0G
0E
0H
03
0"
#940000
0!
00
0F
#950000
1!
10
1F
0J
1T
1G
1E
1M
1H
13
1D
0K
1P
1"
12
1C
1I
0N
1R
0L
1#
0U
0S
11
0I
0Q
0O
1$
0B
0M
0P
0R
1S
1U
0/
0C
0D
1Q
1N
1K
0%
1B
01
02
1L
1O
1/
0$
0#
1%
#960000
0!
00
0F
#970000
1!
10
1F
1J
0T
0G
0E
0H
03
0"
#980000
0!
00
0F
#990000
1!
10
1F
0J
1T
1G
1E
1M
1H
13
1D
0K
1P
1"
12
1C
1I
0N
1R
0L
1#
0U
0S
11
0I
0Q
0O
1$
0B
0M
0P
0R
1S
1U
0/
0C
0D
1Q
1N
1K
0%
1B
01
02
1L
1O
1/
0$
0#
1%
