Lab03/simulation/qsim/Main.msim.vcd
$comment
	File created using the following command:
		vcd file Main.msim.vcd -direction
$end
$date
	Mon Apr 22 19:30:02 2024
$end
$version
	ModelSim Version 10.5b
$end
$timescale
	1ps
$end

$scope module main_vhd_vec_tst $end
$var wire 1 ! CLK $end
$var wire 1 " D0 $end
$var wire 1 # D1 $end
$var wire 1 $ D2 $end
$var wire 1 % D3 $end
$var wire 1 & D4 $end
$var wire 1 ' D5 $end
$var wire 1 ( D6 $end
$var wire 1 ) D7 $end
$var wire 1 * L0 $end
$var wire 1 + L1 $end
$var wire 1 , L2 $end
$var wire 1 - L3 $end
$var wire 1 . L4 $end
$var wire 1 / L5 $end
$var wire 1 0 L6 $end
$var wire 1 1 L7 $end
$var wire 1 2 PB0 $end
$var wire 1 3 PB1 $end
$var wire 1 4 S $end
$var wire 1 5 S1A $end
$var wire 1 6 S1B $end
$var wire 1 7 S1C $end
$var wire 1 8 S1D $end
$var wire 1 9 S1E $end
$var wire 1 : S1F $end
$var wire 1 ; S1G $end
$var wire 1 < S2A $end
$var wire 1 = S2B $end
$var wire 1 > S2C $end
$var wire 1 ? S2D $end
$var wire 1 @ S2E $end
$var wire 1 A S2F $end
$var wire 1 B S2G $end
$var wire 1 C S4A $end
$var wire 1 D S4B $end
$var wire 1 E S4C $end
$var wire 1 F S4D $end
$var wire 1 G S4E $end
$var wire 1 H S4F $end
$var wire 1 I S4G $end
$var wire 1 J S5A $end
$var wire 1 K S5B $end
$var wire 1 L S5C $end
$var wire 1 M S5D $end
$var wire 1 N S5E $end
$var wire 1 O S5F $end
$var wire 1 P S5G $end

$scope module i1 $end
$var wire 1 Q gnd $end
$var wire 1 R vcc $end
$var wire 1 S unknown $end
$var wire 1 T devoe $end
$var wire 1 U devclrn $end
$var wire 1 V devpor $end
$var wire 1 W ww_devoe $end
$var wire 1 X ww_devclrn $end
$var wire 1 Y ww_devpor $end
$var wire 1 Z ww_S1A $end
$var wire 1 [ ww_D7 $end
$var wire 1 \ ww_D6 $end
$var wire 1 ] ww_D5 $end
$var wire 1 ^ ww_D4 $end
$var wire 1 _ ww_S1B $end
$var wire 1 ` ww_S1C $end
$var wire 1 a ww_S1D $end
$var wire 1 b ww_S1E $end
$var wire 1 c ww_S1F $end
$var wire 1 d ww_S1G $end
$var wire 1 e ww_S2A $end
$var wire 1 f ww_D3 $end
$var wire 1 g ww_D2 $end
$var wire 1 h ww_D1 $end
$var wire 1 i ww_D0 $end
$var wire 1 j ww_S2B $end
$var wire 1 k ww_S2C $end
$var wire 1 l ww_S2D $end
$var wire 1 m ww_S2E $end
$var wire 1 n ww_S2F $end
$var wire 1 o ww_S2G $end
$var wire 1 p ww_S4A $end
$var wire 1 q ww_CLK $end
$var wire 1 r ww_PB1 $end
$var wire 1 s ww_PB0 $end
$var wire 1 t ww_S4B $end
$var wire 1 u ww_S4C $end
$var wire 1 v ww_S4D $end
$var wire 1 w ww_S4E $end
$var wire 1 x ww_S4F $end
$var wire 1 y ww_S4G $end
$var wire 1 z ww_S5A $end
$var wire 1 { ww_S5B $end
$var wire 1 | ww_S5C $end
$var wire 1 } ww_S5D $end
$var wire 1 ~ ww_S5E $end
$var wire 1 !! ww_S5F $end
$var wire 1 "! ww_S5G $end
$var wire 1 #! ww_S $end
$var wire 1 $! ww_L0 $end
$var wire 1 %! ww_L1 $end
$var wire 1 &! ww_L2 $end
$var wire 1 '! ww_L3 $end
$var wire 1 (! ww_L4 $end
$var wire 1 )! ww_L5 $end
$var wire 1 *! ww_L7 $end
$var wire 1 +! ww_L6 $end
$var wire 1 ,! \~QUARTUS_CREATED_ADC1~_CHSEL_bus\ [4] $end
$var wire 1 -! \~QUARTUS_CREATED_ADC1~_CHSEL_bus\ [3] $end
$var wire 1 .! \~QUARTUS_CREATED_ADC1~_CHSEL_bus\ [2] $end
$var wire 1 /! \~QUARTUS_CREATED_ADC1~_CHSEL_bus\ [1] $end
$var wire 1 0! \~QUARTUS_CREATED_ADC1~_CHSEL_bus\ [0] $end
$var wire 1 1! \~QUARTUS_CREATED_ADC2~_CHSEL_bus\ [4] $end
$var wire 1 2! \~QUARTUS_CREATED_ADC2~_CHSEL_bus\ [3] $end
$var wire 1 3! \~QUARTUS_CREATED_ADC2~_CHSEL_bus\ [2] $end
$var wire 1 4! \~QUARTUS_CREATED_ADC2~_CHSEL_bus\ [1] $end
$var wire 1 5! \~QUARTUS_CREATED_ADC2~_CHSEL_bus\ [0] $end
$var wire 1 6! \inst7~clkctrl_INCLK_bus\ [3] $end
$var wire 1 7! \inst7~clkctrl_INCLK_bus\ [2] $end
$var wire 1 8! \inst7~clkctrl_INCLK_bus\ [1] $end
$var wire 1 9! \inst7~clkctrl_INCLK_bus\ [0] $end
$var wire 1 :! \~QUARTUS_CREATED_GND~I_combout\ $end
$var wire 1 ;! \~QUARTUS_CREATED_UNVM~~busy\ $end
$var wire 1 <! \~QUARTUS_CREATED_ADC1~~eoc\ $end
$var wire 1 =! \~QUARTUS_CREATED_ADC2~~eoc\ $end
$var wire 1 >! \S1A~output_o\ $end
$var wire 1 ?! \S1B~output_o\ $end
$var wire 1 @! \S1C~output_o\ $end
$var wire 1 A! \S1D~output_o\ $end
$var wire 1 B! \S1E~output_o\ $end
$var wire 1 C! \S1F~output_o\ $end
$var wire 1 D! \S1G~output_o\ $end
$var wire 1 E! \S2A~output_o\ $end
$var wire 1 F! \S2B~output_o\ $end
$var wire 1 G! \S2C~output_o\ $end
$var wire 1 H! \S2D~output_o\ $end
$var wire 1 I! \S2E~output_o\ $end
$var wire 1 J! \S2F~output_o\ $end
$var wire 1 K! \S2G~output_o\ $end
$var wire 1 L! \S4A~output_o\ $end
$var wire 1 M! \S4B~output_o\ $end
$var wire 1 N! \S4C~output_o\ $end
$var wire 1 O! \S4D~output_o\ $end
$var wire 1 P! \S4E~output_o\ $end
$var wire 1 Q! \S4F~output_o\ $end
$var wire 1 R! \S4G~output_o\ $end
$var wire 1 S! \S5A~output_o\ $end
$var wire 1 T! \S5B~output_o\ $end
$var wire 1 U! \S5C~output_o\ $end
$var wire 1 V! \S5D~output_o\ $end
$var wire 1 W! \S5E~output_o\ $end
$var wire 1 X! \S5F~output_o\ $end
$var wire 1 Y! \S5G~output_o\ $end
$var wire 1 Z! \S~output_o\ $end
$var wire 1 [! \L0~output_o\ $end
$var wire 1 \! \L1~output_o\ $end
$var wire 1 ]! \L2~output_o\ $end
$var wire 1 ^! \L3~output_o\ $end
$var wire 1 _! \L4~output_o\ $end
$var wire 1 `! \L5~output_o\ $end
$var wire 1 a! \L7~output_o\ $end
$var wire 1 b! \L6~output_o\ $end
$var wire 1 c! \D4~input_o\ $end
$var wire 1 d! \D7~input_o\ $end
$var wire 1 e! \D5~input_o\ $end
$var wire 1 f! \D6~input_o\ $end
$var wire 1 g! \inst2|SSa~0_combout\ $end
$var wire 1 h! \inst2|SSb~0_combout\ $end
$var wire 1 i! \inst2|SSc~0_combout\ $end
$var wire 1 j! \inst2|SSd~0_combout\ $end
$var wire 1 k! \inst2|SSe~0_combout\ $end
$var wire 1 l! \inst2|SSf~0_combout\ $end
$var wire 1 m! \inst2|SSg~0_combout\ $end
$var wire 1 n! \D1~input_o\ $end
$var wire 1 o! \D2~input_o\ $end
$var wire 1 p! \D0~input_o\ $end
$var wire 1 q! \D3~input_o\ $end
$var wire 1 r! \inst3|SSa~0_combout\ $end
$var wire 1 s! \inst3|SSb~0_combout\ $end
$var wire 1 t! \inst3|SSc~0_combout\ $end
$var wire 1 u! \inst3|SSd~0_combout\ $end
$var wire 1 v! \inst3|SSe~0_combout\ $end
$var wire 1 w! \inst3|SSf~0_combout\ $end
$var wire 1 x! \inst3|SSg~0_combout\ $end
$var wire 1 y! \PB1~input_o\ $end
$var wire 1 z! \CLK~input_o\ $end
$var wire 1 {! \inst7~combout\ $end
$var wire 1 |! \inst7~clkctrl_outclk\ $end
$var wire 1 }! \PB0~input_o\ $end
$var wire 1 ~! \inst|ld0|Dout~0_combout\ $end
$var wire 1 !" \inst|dff0~q\ $end
$var wire 1 "" \inst|ld1|Dout~0_combout\ $end
$var wire 1 #" \inst|dff1~q\ $end
$var wire 1 $" \inst|ld2|Dout~0_combout\ $end
$var wire 1 %" \inst|dff2~q\ $end
$var wire 1 &" \inst|ld3|Dout~0_combout\ $end
$var wire 1 '" \inst|dff3~q\ $end
$var wire 1 (" \inst|ld4|Dout~0_combout\ $end
$var wire 1 )" \inst|dff4~q\ $end
$var wire 1 *" \inst|ld5|Dout~0_combout\ $end
$var wire 1 +" \inst|dff5~q\ $end
$var wire 1 ," \inst|ld6|Dout~0_combout\ $end
$var wire 1 -" \inst|dff6~q\ $end
$var wire 1 ." \inst|ld7|Dout~0_combout\ $end
$var wire 1 /" \inst|dff7~q\ $end
$var wire 1 0" \inst|S~feeder_combout\ $end
$var wire 1 1" \inst|S~q\ $end
$var wire 1 2" \inst6|data[0]~feeder_combout\ $end
$var wire 1 3" \inst6|data[3]~feeder_combout\ $end
$var wire 1 4" \inst4|SSa~0_combout\ $end
$var wire 1 5" \inst4|SSb~0_combout\ $end
$var wire 1 6" \inst4|SSc~0_combout\ $end
$var wire 1 7" \inst4|SSd~0_combout\ $end
$var wire 1 8" \inst4|SSe~0_combout\ $end
$var wire 1 9" \inst4|SSf~0_combout\ $end
$var wire 1 :" \inst4|SSg~0_combout\ $end
$var wire 1 ;" \inst5|SSa~0_combout\ $end
$var wire 1 <" \inst5|SSb~0_combout\ $end
$var wire 1 =" \inst5|SSc~0_combout\ $end
$var wire 1 >" \inst5|SSd~0_combout\ $end
$var wire 1 ?" \inst5|SSe~0_combout\ $end
$var wire 1 @" \inst5|SSf~0_combout\ $end
$var wire 1 A" \inst5|SSg~0_combout\ $end
$var wire 1 B" \inst6|data\ [7] $end
$var wire 1 C" \inst6|data\ [6] $end
$var wire 1 D" \inst6|data\ [5] $end
$var wire 1 E" \inst6|data\ [4] $end
$var wire 1 F" \inst6|data\ [3] $end
$var wire 1 G" \inst6|data\ [2] $end
$var wire 1 H" \inst6|data\ [1] $end
$var wire 1 I" \inst6|data\ [0] $end
$upscope $end
$upscope $end
$enddefinitions $end
#0
$dumpvars
0!
1"
0#
1$
0%
0&
1'
1(
0)
0*
0+
0,
0-
0.
0/
00
01
12
13
04
05
16
07
08
09
0:
0;
0<
1=
0>
0?
1@
0A
0B
0C
0D
0E
0F
0G
0H
1I
0J
0K
0L
0M
0N
0O
1P
0Q
1R
xS
1T
1U
1V
1W
1X
1Y
0Z
0[
1\
1]
0^
1_
0`
0a
0b
0c
0d
0e
0f
1g
0h
1i
1j
0k
0l
1m
0n
0o
0p
0q
1r
1s
0t
0u
0v
0w
0x
1y
0z
0{
0|
0}
0~
0!!
1"!
0#!
0$!
0%!
0&!
0'!
0(!
0)!
0*!
0+!
0:!
z;!
z<!
z=!
0>!
1?!
0@!
0A!
0B!
0C!
0D!
0E!
1F!
0G!
0H!
1I!
0J!
0K!
0L!
0M!
0N!
0O!
0P!
0Q!
1R!
0S!
0T!
0U!
0V!
0W!
0X!
1Y!
0Z!
0[!
0\!
0]!
0^!
0_!
0`!
0a!
0b!
0c!
0d!
1e!
1f!
0g!
1h!
0i!
0j!
0k!
0l!
0m!
0n!
1o!
1p!
0q!
0r!
1s!
0t!
0u!
1v!
0w!
0x!
1y!
0z!
0{!
0|!
1}!
1~!
0!"
0""
0#"
1$"
0%"
0&"
0'"
0("
0)"
1*"
0+"
1,"
0-"
0."
0/"
00"
01"
02"
03"
04"
05"
06"
07"
08"
09"
1:"
0;"
0<"
0="
0>"
0?"
0@"
1A"
0B"
0C"
0D"
0E"
0F"
0G"
0H"
0I"
16!
17!
18!
09!
0,!
0-!
0.!
0/!
00!
01!
02!
03!
04!
05!
$end
#10000
1!
1q
1z!
1{!
19!
1|!
1!"
1%"
1+"
1-"
#20000
0!
0q
0z!
0{!
09!
0|!
#30000
1!
1q
1z!
1{!
19!
1|!
#40000
0!
0q
0z!
0{!
09!
0|!
#50000
1!
1q
1z!
1{!
19!
1|!
#60000
0!
0q
0z!
0{!
09!
0|!
#70000
1!
1q
1z!
1{!
19!
1|!
#80000
0!
02
0"
0$
0'
0(
0q
0s
0i
0g
0]
0\
0f!
0e!
0o!
0p!
0}!
0z!
0{!
1""
1&"
1."
0~!
0s!
0v!
1x!
0$"
0*"
0h!
1m!
09!
1D!
0?!
1K!
0I!
0F!
1d
0_
1o
0m
0j
1;
06
1B
0@
0=
0|!
#90000
1!
1q
1z!
1{!
19!
1|!
0!"
1#"
0%"
1'"
0+"
1/"
10"
0,"
1("
0&"
1$"
0""
#100000
0!
0q
0z!
0{!
09!
0|!
#110000
1!
1q
1z!
1{!
19!
1|!
0#"
1%"
0'"
1)"
0-"
11"
1Z!
12"
0."
1*"
0("
1&"
0$"
1#!
14
#120000
0!
0q
0z!
0{!
09!
0|!
#130000
1!
1q
1z!
1{!
19!
1|!
0%"
1'"
0)"
1+"
0/"
1I"
1[!
14"
17"
18"
19"
00"
1,"
0*"
1("
0&"
1$!
1Q!
1P!
1O!
1L!
1*
1x
1w
1v
1p
1H
1G
1F
1C
#140000
0!
0q
0z!
0{!
09!
0|!
#150000
1!
1q
1z!
1{!
19!
1|!
0'"
1)"
0+"
1-"
01"
1H"
1\!
0Z!
04"
07"
0:"
02"
1."
0,"
1*"
0("
1%!
0#!
0R!
0O!
0L!
1+
04
0y
0v
0p
0I
0F
0C
#160000
0!
0q
0z!
0{!
09!
0|!
#170000
1!
1q
1z!
1{!
19!
1|!
0)"
1+"
0-"
1/"
0I"
1G"
1]!
0[!
13"
15"
08"
09"
10"
0."
1,"
0*"
1&!
0$!
0Q!
0P!
1M!
1,
0*
0x
0w
1t
0H
0G
1D
#180000
0!
0q
0z!
0{!
09!
0|!
#190000
1!
1q
1z!
1{!
19!
1|!
0+"
1-"
0/"
11"
0H"
1F"
1^!
0\!
1Z!
16"
1:"
12"
00"
1."
0,"
1'!
0%!
1#!
1R!
1N!
1-
0+
14
1y
1u
1I
1E
#200000
0!
0q
0z!
0{!
09!
0|!
#210000
1!
1q
1z!
1{!
19!
1|!
0-"
1/"
01"
1I"
0G"
1E"
1_!
0]!
1[!
0Z!
1;"
1>"
1?"
1@"
03"
05"
06"
18"
0:"
02"
10"
0."
1(!
0&!
1$!
0#!
0R!
1P!
0N!
0M!
1X!
1W!
1V!
1S!
1.
0,
1*
04
0y
1w
0u
0t
1!!
1~
1}
1z
0I
1G
0E
0D
1O
1N
1M
1J
#220000
0!
0q
0z!
0{!
09!
0|!
#230000
1!
1q
1z!
1{!
19!
1|!
0/"
11"
0I"
1H"
0F"
1D"
1`!
0^!
1\!
0[!
1Z!
0;"
0>"
0A"
16"
08"
19"
12"
00"
1)!
0'!
1%!
0$!
1#!
1Q!
0P!
1N!
0Y!
0V!
0S!
1/
0-
1+
0*
14
1x
0w
1u
0"!
0}
0z
1H
0G
1E
0P
0M
0J
#240000
0!
0q
0z!
0{!
09!
0|!
#250000
1!
1q
1z!
1{!
19!
1|!
01"
1I"
0H"
1G"
0E"
1C"
1b!
0_!
1]!
0\!
1[!
0Z!
1<"
0?"
0@"
13"
15"
06"
18"
09"
02"
1+!
0(!
1&!
0%!
1$!
0#!
0Q!
1P!
0N!
1M!
0X!
0W!
1T!
10
0.
1,
0+
1*
04
0x
1w
0u
1t
0!!
0~
1{
0H
1G
0E
1D
0O
0N
1K
#260000
0!
0q
0z!
0{!
09!
0|!
#270000
1!
1q
1z!
1{!
19!
1|!
0I"
1H"
0G"
1F"
0D"
1B"
1a!
0`!
1^!
0]!
1\!
0[!
1="
1A"
03"
05"
17"
08"
1*!
0)!
1'!
0&!
1%!
0$!
0P!
1O!
0M!
1Y!
1U!
11
0/
1-
0,
1+
0*
0w
1v
0t
1"!
1|
0G
1F
0D
1P
1L
#280000
0!
0q
0z!
0{!
09!
0|!
#290000
1!
1q
1z!
1{!
19!
1|!
0H"
1G"
0F"
1E"
0C"
0b!
1_!
0^!
1]!
0\!
0<"
0="
1?"
0A"
13"
14"
18"
0+!
1(!
0'!
1&!
0%!
1P!
1L!
0Y!
1W!
0U!
0T!
00
1.
0-
1,
0+
1w
1p
0"!
1~
0|
0{
1G
1C
0P
1N
0L
0K
#300000
0!
0q
0z!
0{!
09!
0|!
#310000
1!
1q
1z!
1{!
19!
1|!
0G"
1F"
0E"
1D"
0B"
0a!
1`!
0_!
1^!
0]!
1="
0?"
1@"
03"
04"
07"
08"
0*!
1)!
0(!
1'!
0&!
0P!
0O!
0L!
1X!
0W!
1U!
01
1/
0.
1-
0,
0w
0v
0p
1!!
0~
1|
0G
0F
0C
1O
0N
1L
#320000
0!
0q
0z!
0{!
09!
0|!
#330000
1!
1q
1z!
1{!
19!
1|!
0F"
1E"
0D"
1C"
1b!
0`!
1_!
0^!
1<"
0="
1?"
0@"
1:"
1+!
0)!
1(!
0'!
1R!
0X!
1W!
0U!
1T!
10
0/
1.
0-
1y
0!!
1~
0|
1{
1I
0O
1N
0L
1K
#340000
0!
0q
0z!
0{!
09!
0|!
#350000
1!
1q
1z!
1{!
19!
1|!
0E"
1D"
0C"
1B"
1a!
0b!
1`!
0_!
0<"
1>"
0?"
1*!
0+!
1)!
0(!
0W!
1V!
0T!
11
00
1/
0.
0~
1}
0{
0N
1M
0K
#360000
0!
0q
0z!
0{!
09!
0|!
#370000
1!
1q
1z!
1{!
19!
1|!
0D"
1C"
0B"
0a!
1b!
0`!
1;"
1?"
0*!
1+!
0)!
1W!
1S!
01
10
0/
1~
1z
1N
1J
#380000
0!
0q
0z!
0{!
09!
0|!
#390000
1!
1q
1z!
1{!
19!
1|!
0C"
1B"
1a!
0b!
0;"
0>"
0?"
1*!
0+!
0W!
0V!
0S!
11
00
0~
0}
0z
0N
0M
0J
#400000
0!
0q
0z!
0{!
09!
0|!
#410000
1!
1q
1z!
1{!
19!
1|!
0B"
0a!
1A"
0*!
1Y!
01
1"!
1P
#420000
0!
0q
0z!
0{!
09!
0|!
#430000
1!
1q
1z!
1{!
19!
1|!
#440000
0!
0q
0z!
0{!
09!
0|!
#450000
1!
1q
1z!
1{!
19!
1|!
#460000
0!
0q
0z!
0{!
09!
0|!
#470000
1!
1q
1z!
1{!
19!
1|!
#480000
0!
0q
0z!
0{!
09!
0|!
#490000
1!
1q
1z!
1{!
19!
1|!
#500000
0!
0q
0z!
0{!
09!
0|!
#510000
1!
1q
1z!
1{!
19!
1|!
#520000
0!
0q
0z!
0{!
09!
0|!
#530000
1!
1q
1z!
1{!
19!
1|!
#540000
0!
0q
0z!
0{!
09!
0|!
#550000
1!
1q
1z!
1{!
19!
1|!
#560000
0!
0q
0z!
0{!
09!
0|!
#570000
1!
1q
1z!
1{!
19!
1|!
#580000
0!
0q
0z!
0{!
09!
0|!
#590000
1!
1q
1z!
1{!
19!
1|!
#600000
0!
0q
0z!
0{!
09!
0|!
#610000
1!
1q
1z!
1{!
19!
1|!
#620000
0!
0q
0z!
0{!
09!
0|!
#630000
1!
1q
1z!
1{!
19!
1|!
#640000
0!
0q
0z!
0{!
09!
0|!
#650000
1!
1q
1z!
1{!
19!
1|!
#660000
0!
0q
0z!
0{!
09!
0|!
#670000
1!
1q
1z!
1{!
19!
1|!
#680000
0!
0q
0z!
0{!
09!
0|!
#690000
1!
1q
1z!
1{!
19!
1|!
#700000
0!
0q
0z!
0{!
09!
0|!
#710000
1!
1q
1z!
1{!
19!
1|!
#720000
0!
0q
0z!
0{!
09!
0|!
#730000
1!
1q
1z!
1{!
19!
1|!
#740000
0!
0q
0z!
0{!
09!
0|!
#750000
1!
1q
1z!
1{!
19!
1|!
#760000
0!
0q
0z!
0{!
09!
0|!
#770000
1!
1q
1z!
1{!
19!
1|!
#780000
0!
0q
0z!
0{!
09!
0|!
#790000
1!
1q
1z!
1{!
19!
1|!
#800000
0!
0q
0z!
0{!
09!
0|!
#810000
1!
1q
1z!
1{!
19!
1|!
#820000
0!
0q
0z!
0{!
09!
0|!
#830000
1!
1q
1z!
1{!
19!
1|!
#840000
0!
0q
0z!
0{!
09!
0|!
#850000
1!
1q
1z!
1{!
19!
1|!
#860000
0!
0q
0z!
0{!
09!
0|!
#870000
1!
1q
1z!
1{!
19!
1|!
#880000
0!
0q
0z!
0{!
09!
0|!
#890000
1!
1q
1z!
1{!
19!
1|!
#900000
0!
0q
0z!
0{!
09!
0|!
#910000
1!
1q
1z!
1{!
19!
1|!
#920000
0!
0q
0z!
0{!
09!
0|!
#930000
1!
1q
1z!
1{!
19!
1|!
#940000
0!
0q
0z!
0{!
09!
0|!
#950000
1!
1q
1z!
1{!
19!
1|!
#960000
0!
0q
0z!
0{!
09!
0|!
#970000
1!
1q
1z!
1{!
19!
1|!
#980000
0!
0q
0z!
0{!
09!
0|!
#990000
1!
1q
1z!
1{!
19!
1|!
