Lab03/simulation/qsim/Main.msim.vcd
$comment
	File created using the following command:
		vcd file Main.msim.vcd -direction
$end
$date
	Sun Apr 21 17:38:24 2024
$end
$version
	ModelSim Version 10.5b
$end
$timescale
	1ps
$end

$scope module main_vhd_vec_tst $end
$var wire 1 ! CLK $end
$var wire 1 " D0 $end
$var wire 1 # D1 $end
$var wire 1 $ D2 $end
$var wire 1 % D3 $end
$var wire 1 & D4 $end
$var wire 1 ' D5 $end
$var wire 1 ( D6 $end
$var wire 1 ) D7 $end
$var wire 1 * LOAD $end
$var wire 1 + S $end

$scope module i1 $end
$var wire 1 , gnd $end
$var wire 1 - vcc $end
$var wire 1 . unknown $end
$var wire 1 / devoe $end
$var wire 1 0 devclrn $end
$var wire 1 1 devpor $end
$var wire 1 2 ww_devoe $end
$var wire 1 3 ww_devclrn $end
$var wire 1 4 ww_devpor $end
$var wire 1 5 ww_S $end
$var wire 1 6 ww_CLK $end
$var wire 1 7 ww_LOAD $end
$var wire 1 8 ww_D7 $end
$var wire 1 9 ww_D6 $end
$var wire 1 : ww_D5 $end
$var wire 1 ; ww_D4 $end
$var wire 1 < ww_D3 $end
$var wire 1 = ww_D2 $end
$var wire 1 > ww_D1 $end
$var wire 1 ? ww_D0 $end
$var wire 1 @ \~QUARTUS_CREATED_ADC1~_CHSEL_bus\ [4] $end
$var wire 1 A \~QUARTUS_CREATED_ADC1~_CHSEL_bus\ [3] $end
$var wire 1 B \~QUARTUS_CREATED_ADC1~_CHSEL_bus\ [2] $end
$var wire 1 C \~QUARTUS_CREATED_ADC1~_CHSEL_bus\ [1] $end
$var wire 1 D \~QUARTUS_CREATED_ADC1~_CHSEL_bus\ [0] $end
$var wire 1 E \~QUARTUS_CREATED_ADC2~_CHSEL_bus\ [4] $end
$var wire 1 F \~QUARTUS_CREATED_ADC2~_CHSEL_bus\ [3] $end
$var wire 1 G \~QUARTUS_CREATED_ADC2~_CHSEL_bus\ [2] $end
$var wire 1 H \~QUARTUS_CREATED_ADC2~_CHSEL_bus\ [1] $end
$var wire 1 I \~QUARTUS_CREATED_ADC2~_CHSEL_bus\ [0] $end
$var wire 1 J \CLK~inputclkctrl_INCLK_bus\ [3] $end
$var wire 1 K \CLK~inputclkctrl_INCLK_bus\ [2] $end
$var wire 1 L \CLK~inputclkctrl_INCLK_bus\ [1] $end
$var wire 1 M \CLK~inputclkctrl_INCLK_bus\ [0] $end
$var wire 1 N \~QUARTUS_CREATED_GND~I_combout\ $end
$var wire 1 O \~QUARTUS_CREATED_UNVM~~busy\ $end
$var wire 1 P \~QUARTUS_CREATED_ADC1~~eoc\ $end
$var wire 1 Q \~QUARTUS_CREATED_ADC2~~eoc\ $end
$var wire 1 R \S~output_o\ $end
$var wire 1 S \CLK~input_o\ $end
$var wire 1 T \CLK~inputclkctrl_outclk\ $end
$var wire 1 U \LOAD~input_o\ $end
$var wire 1 V \D7~input_o\ $end
$var wire 1 W \D6~input_o\ $end
$var wire 1 X \D5~input_o\ $end
$var wire 1 Y \D4~input_o\ $end
$var wire 1 Z \D3~input_o\ $end
$var wire 1 [ \D2~input_o\ $end
$var wire 1 \ \D1~input_o\ $end
$var wire 1 ] \D0~input_o\ $end
$var wire 1 ^ \inst|dff0~feeder_combout\ $end
$var wire 1 _ \inst|dff0~q\ $end
$var wire 1 ` \inst|ld1|Dout~0_combout\ $end
$var wire 1 a \inst|dff1~q\ $end
$var wire 1 b \inst|ld2|Dout~0_combout\ $end
$var wire 1 c \inst|dff2~q\ $end
$var wire 1 d \inst|ld3|Dout~0_combout\ $end
$var wire 1 e \inst|dff3~q\ $end
$var wire 1 f \inst|ld4|Dout~0_combout\ $end
$var wire 1 g \inst|dff4~q\ $end
$var wire 1 h \inst|ld5|Dout~0_combout\ $end
$var wire 1 i \inst|dff5~q\ $end
$var wire 1 j \inst|ld6|Dout~0_combout\ $end
$var wire 1 k \inst|dff6~q\ $end
$var wire 1 l \inst|ld7|Dout~0_combout\ $end
$var wire 1 m \inst|dff7~q\ $end
$var wire 1 n \inst|S~feeder_combout\ $end
$var wire 1 o \inst|S~q\ $end
$upscope $end
$upscope $end
$enddefinitions $end
#0
$dumpvars
0!
1"
0#
1$
0%
0&
1'
1(
1)
1*
0+
0,
1-
x.
1/
10
11
12
13
14
05
06
17
18
19
1:
0;
0<
1=
0>
1?
0N
zO
zP
zQ
0R
0S
0T
1U
1V
1W
1X
0Y
0Z
1[
0\
1]
1^
0_
0`
0a
1b
0c
0d
0e
0f
0g
1h
0i
1j
0k
1l
0m
0n
0o
1J
1K
1L
0M
0@
0A
0B
0C
0D
0E
0F
0G
0H
0I
$end
#10000
1!
16
1S
1M
1T
1_
1c
1i
1k
1m
1n
#20000
0!
06
0S
0M
0T
#30000
1!
16
1S
1M
1T
1o
1R
15
1+
#40000
0!
06
0S
0M
0T
#50000
1!
16
1S
1M
1T
#60000
0!
06
0S
0M
0T
#70000
1!
16
1S
1M
1T
#80000
0!
06
0S
0M
0T
#90000
1!
16
1S
1M
1T
#100000
0!
06
0S
0M
0T
#110000
1!
16
1S
1M
1T
#120000
0!
06
0S
0M
0T
#130000
1!
16
1S
1M
1T
#140000
0!
06
0S
0M
0T
#150000
1!
0*
0"
0$
0'
0(
0)
16
07
0?
0=
0:
09
08
0V
0W
0X
0[
0]
0U
1S
1M
1`
1d
0^
0b
0h
1T
0_
1a
0c
1e
0i
0j
1f
0d
1b
0`
#160000
0!
06
0S
0M
0T
#170000
1!
16
1S
1M
1T
0a
1c
0e
1g
0k
0l
1h
0f
1d
0b
#180000
0!
06
0S
0M
0T
#190000
1!
16
1S
1M
1T
0c
1e
0g
1i
0m
0n
1j
0h
1f
0d
#200000
0!
06
0S
0M
0T
#210000
1!
16
1S
1M
1T
0e
1g
0i
1k
0o
0R
1l
0j
1h
0f
05
0+
#220000
0!
06
0S
0M
0T
#230000
1!
16
1S
1M
1T
0g
1i
0k
1m
1n
0l
1j
0h
#240000
0!
06
0S
0M
0T
#250000
1!
16
1S
1M
1T
0i
1k
0m
1o
1R
0n
1l
0j
15
1+
#260000
0!
06
0S
0M
0T
#270000
1!
1&
16
1;
1Y
1S
1M
1T
0k
1m
0o
0R
1n
0l
05
0+
#280000
0!
06
0S
0M
0T
#290000
1!
16
1S
1M
1T
0m
1o
1R
0n
15
1+
#300000
0!
1#
06
1>
1\
0S
0M
0T
#310000
1!
1)
16
18
1V
1S
1M
1T
0o
0R
05
0+
#320000
0!
06
0S
0M
0T
#330000
1!
16
1S
1M
1T
#340000
0!
0#
06
0>
0\
0S
0M
0T
#350000
1!
16
1S
1M
1T
#360000
0!
06
0S
0M
0T
#370000
1!
16
1S
1M
1T
#380000
0!
06
0S
0M
0T
#390000
1!
16
1S
1M
1T
#400000
0!
1"
06
1?
1]
0S
0M
1^
0T
#410000
1!
0)
16
08
0V
1S
1M
1T
1_
1`
#420000
0!
06
0S
0M
0T
#430000
1!
16
1S
1M
1T
1a
1b
#440000
0!
06
0S
0M
0T
#450000
1!
16
1S
1M
1T
1c
1d
#460000
0!
06
0S
0M
0T
#470000
1!
16
1S
1M
1T
1e
1f
#480000
0!
06
0S
0M
0T
#490000
1!
16
1S
1M
1T
1g
1h
#500000
0!
0"
0&
06
0?
0;
0Y
0]
0S
0M
0^
0T
#510000
1!
16
1S
1M
1T
0_
1i
1j
0`
#520000
0!
06
0S
0M
0T
#530000
1!
16
1S
1M
1T
0a
1k
1l
0b
#540000
0!
06
0S
0M
0T
#550000
1!
16
1S
1M
1T
0c
1m
1n
0d
#560000
0!
06
0S
0M
0T
#570000
1!
16
1S
1M
1T
0e
1o
1R
0f
15
1+
#580000
0!
06
0S
0M
0T
#590000
1!
16
1S
1M
1T
0g
0h
#600000
0!
06
0S
0M
0T
#610000
1!
16
1S
1M
1T
0i
0j
#620000
0!
06
0S
0M
0T
#630000
1!
16
1S
1M
1T
0k
0l
#640000
0!
06
0S
0M
0T
#650000
1!
16
1S
1M
1T
0m
0n
#660000
0!
06
0S
0M
0T
#670000
1!
16
1S
1M
1T
0o
0R
05
0+
#680000
0!
06
0S
0M
0T
#690000
1!
16
1S
1M
1T
#700000
0!
06
0S
0M
0T
#710000
1!
16
1S
1M
1T
#720000
0!
06
0S
0M
0T
#730000
1!
16
1S
1M
1T
#740000
0!
06
0S
0M
0T
#750000
1!
16
1S
1M
1T
#760000
0!
06
0S
0M
0T
#770000
1!
16
1S
1M
1T
#780000
0!
06
0S
0M
0T
#790000
1!
16
1S
1M
1T
#800000
0!
06
0S
0M
0T
#810000
1!
16
1S
1M
1T
#820000
0!
06
0S
0M
0T
#830000
1!
16
1S
1M
1T
#840000
0!
06
0S
0M
0T
#850000
1!
16
1S
1M
1T
#860000
0!
06
0S
0M
0T
#870000
1!
16
1S
1M
1T
#880000
0!
06
0S
0M
0T
#890000
1!
16
1S
1M
1T
#900000
0!
06
0S
0M
0T
#910000
1!
16
1S
1M
1T
#920000
0!
06
0S
0M
0T
#930000
1!
16
1S
1M
1T
#940000
0!
06
0S
0M
0T
#950000
1!
16
1S
1M
1T
#960000
0!
06
0S
0M
0T
#970000
1!
16
1S
1M
1T
#980000
0!
06
0S
0M
0T
#990000
1!
16
1S
1M
1T
