Lab03/simulation/qsim/Main.msim.vcd
$comment
	File created using the following command:
		vcd file Main.msim.vcd -direction
$end
$date
	Sun Apr 21 22:52:04 2024
$end
$version
	ModelSim Version 10.5b
$end
$timescale
	1ps
$end

$scope module main_vhd_vec_tst $end
$var wire 1 ! CLK $end
$var wire 1 " EN $end
$var wire 1 # Q0 $end
$var wire 1 $ Q1 $end
$var wire 1 % Q2 $end
$var wire 1 & Q3 $end
$var wire 1 ' Q4 $end
$var wire 1 ( Q5 $end
$var wire 1 ) Q6 $end
$var wire 1 * Q7 $end
$var wire 1 + RST $end
$var wire 1 , SERIAL $end

$scope module i1 $end
$var wire 1 - gnd $end
$var wire 1 . vcc $end
$var wire 1 / unknown $end
$var wire 1 0 devoe $end
$var wire 1 1 devclrn $end
$var wire 1 2 devpor $end
$var wire 1 3 ww_devoe $end
$var wire 1 4 ww_devclrn $end
$var wire 1 5 ww_devpor $end
$var wire 1 6 ww_Q0 $end
$var wire 1 7 ww_SERIAL $end
$var wire 1 8 ww_CLK $end
$var wire 1 9 ww_EN $end
$var wire 1 : ww_RST $end
$var wire 1 ; ww_Q1 $end
$var wire 1 < ww_Q2 $end
$var wire 1 = ww_Q3 $end
$var wire 1 > ww_Q4 $end
$var wire 1 ? ww_Q5 $end
$var wire 1 @ ww_Q6 $end
$var wire 1 A ww_Q7 $end
$var wire 1 B \~QUARTUS_CREATED_ADC1~_CHSEL_bus\ [4] $end
$var wire 1 C \~QUARTUS_CREATED_ADC1~_CHSEL_bus\ [3] $end
$var wire 1 D \~QUARTUS_CREATED_ADC1~_CHSEL_bus\ [2] $end
$var wire 1 E \~QUARTUS_CREATED_ADC1~_CHSEL_bus\ [1] $end
$var wire 1 F \~QUARTUS_CREATED_ADC1~_CHSEL_bus\ [0] $end
$var wire 1 G \~QUARTUS_CREATED_ADC2~_CHSEL_bus\ [4] $end
$var wire 1 H \~QUARTUS_CREATED_ADC2~_CHSEL_bus\ [3] $end
$var wire 1 I \~QUARTUS_CREATED_ADC2~_CHSEL_bus\ [2] $end
$var wire 1 J \~QUARTUS_CREATED_ADC2~_CHSEL_bus\ [1] $end
$var wire 1 K \~QUARTUS_CREATED_ADC2~_CHSEL_bus\ [0] $end
$var wire 1 L \RST~inputclkctrl_INCLK_bus\ [3] $end
$var wire 1 M \RST~inputclkctrl_INCLK_bus\ [2] $end
$var wire 1 N \RST~inputclkctrl_INCLK_bus\ [1] $end
$var wire 1 O \RST~inputclkctrl_INCLK_bus\ [0] $end
$var wire 1 P \EN~inputclkctrl_INCLK_bus\ [3] $end
$var wire 1 Q \EN~inputclkctrl_INCLK_bus\ [2] $end
$var wire 1 R \EN~inputclkctrl_INCLK_bus\ [1] $end
$var wire 1 S \EN~inputclkctrl_INCLK_bus\ [0] $end
$var wire 1 T \CLK~inputclkctrl_INCLK_bus\ [3] $end
$var wire 1 U \CLK~inputclkctrl_INCLK_bus\ [2] $end
$var wire 1 V \CLK~inputclkctrl_INCLK_bus\ [1] $end
$var wire 1 W \CLK~inputclkctrl_INCLK_bus\ [0] $end
$var wire 1 X \~QUARTUS_CREATED_GND~I_combout\ $end
$var wire 1 Y \~QUARTUS_CREATED_UNVM~~busy\ $end
$var wire 1 Z \~QUARTUS_CREATED_ADC1~~eoc\ $end
$var wire 1 [ \~QUARTUS_CREATED_ADC2~~eoc\ $end
$var wire 1 \ \Q0~output_o\ $end
$var wire 1 ] \Q1~output_o\ $end
$var wire 1 ^ \Q2~output_o\ $end
$var wire 1 _ \Q3~output_o\ $end
$var wire 1 ` \Q4~output_o\ $end
$var wire 1 a \Q5~output_o\ $end
$var wire 1 b \Q6~output_o\ $end
$var wire 1 c \Q7~output_o\ $end
$var wire 1 d \CLK~input_o\ $end
$var wire 1 e \CLK~inputclkctrl_outclk\ $end
$var wire 1 f \SERIAL~input_o\ $end
$var wire 1 g \inst|data[0]~feeder_combout\ $end
$var wire 1 h \RST~input_o\ $end
$var wire 1 i \RST~inputclkctrl_outclk\ $end
$var wire 1 j \EN~input_o\ $end
$var wire 1 k \EN~inputclkctrl_outclk\ $end
$var wire 1 l \inst|QO~combout\ $end
$var wire 1 m \inst|data[1]~feeder_combout\ $end
$var wire 1 n \inst|Q1~combout\ $end
$var wire 1 o \inst|data[2]~feeder_combout\ $end
$var wire 1 p \inst|Q2~combout\ $end
$var wire 1 q \inst|data[3]~feeder_combout\ $end
$var wire 1 r \inst|Q3~combout\ $end
$var wire 1 s \inst|data[4]~feeder_combout\ $end
$var wire 1 t \inst|Q4~combout\ $end
$var wire 1 u \inst|data[5]~feeder_combout\ $end
$var wire 1 v \inst|Q5~combout\ $end
$var wire 1 w \inst|data[6]~feeder_combout\ $end
$var wire 1 x \inst|Q6~combout\ $end
$var wire 1 y \inst|Q7~combout\ $end
$var wire 1 z \inst|data\ [7] $end
$var wire 1 { \inst|data\ [6] $end
$var wire 1 | \inst|data\ [5] $end
$var wire 1 } \inst|data\ [4] $end
$var wire 1 ~ \inst|data\ [3] $end
$var wire 1 !! \inst|data\ [2] $end
$var wire 1 "! \inst|data\ [1] $end
$var wire 1 #! \inst|data\ [0] $end
$var wire 1 $! \ALT_INV_RST~inputclkctrl_outclk\ $end
$upscope $end
$upscope $end
$enddefinitions $end
#0
$dumpvars
0!
0"
x#
x$
x%
x&
x'
x(
x)
x*
0+
0,
0-
1.
x/
10
11
12
13
14
15
x6
07
08
09
0:
x;
x<
x=
x>
x?
x@
xA
0X
zY
zZ
z[
x\
x]
x^
x_
x`
xa
xb
xc
0d
0e
0f
0g
0h
0i
0j
0k
xl
0m
xn
0o
xp
0q
xr
0s
xt
0u
xv
0w
xx
xy
1$!
0z
0{
0|
0}
0~
0!!
0"!
0#!
1T
1U
1V
0W
1L
1M
1N
0O
1P
1Q
1R
0S
0B
0C
0D
0E
0F
0G
0H
0I
0J
0K
$end
#10000
1!
1,
18
17
1f
1d
1W
1g
1e
1#!
1m
#20000
0!
08
0d
0W
0e
#30000
1!
0,
18
07
0f
1d
1W
0g
1e
0#!
1"!
1o
0m
#40000
0!
08
0d
0W
0e
#50000
1!
18
1d
1W
1e
0"!
1!!
1q
0o
#60000
0!
08
0d
0W
0e
#70000
1!
18
1d
1W
1e
0!!
1~
1s
0q
#80000
0!
1,
08
17
1f
0d
0W
1g
0e
#90000
1!
18
1d
1W
1e
1#!
0~
1}
1u
0s
1m
#100000
0!
08
0d
0W
0e
#110000
1!
0,
18
07
0f
1d
1W
0g
1e
0#!
1"!
0}
1|
1w
0u
1o
0m
#120000
0!
08
0d
0W
0e
#130000
1!
18
1d
1W
1e
0"!
1!!
0|
1{
0w
1q
0o
#140000
0!
1,
08
17
1f
0d
0W
1g
0e
#150000
1!
18
1d
1W
1e
1#!
0!!
1~
0{
1z
1s
0q
1m
#160000
0!
0,
1"
08
07
19
1j
0f
0d
1S
0W
0g
0e
1k
1l
0n
0p
1r
0t
0v
0x
1y
1c
0b
0a
0`
1_
0^
0]
1\
1A
0@
0?
0>
1=
0<
0;
16
1*
0)
0(
0'
1&
0%
0$
1#
#170000
1!
18
1d
1W
1e
0#!
1"!
0~
1}
0z
0y
1t
1u
0r
0s
1n
1o
0l
0m
0\
1]
0_
1`
0c
06
1;
0=
1>
0A
0#
1$
0&
1'
0*
#180000
0!
08
0d
0W
0e
#190000
1!
18
1d
1W
1e
0"!
1!!
0}
1|
1v
1w
0t
0u
1p
1q
0n
0o
0]
1^
0`
1a
0;
1<
0>
1?
0$
1%
0'
1(
#200000
0!
08
0d
0W
0e
#210000
1!
18
1d
1W
1e
0!!
1~
0|
1{
1x
0v
0w
1r
1s
0p
0q
0^
1_
0a
1b
0<
1=
0?
1@
0%
1&
0(
1)
#220000
0!
08
0d
0W
0e
#230000
1!
18
1d
1W
1e
0~
1}
0{
1z
1y
0x
1t
1u
0r
0s
0_
1`
0b
1c
0=
1>
0@
1A
0&
1'
0)
1*
#240000
0!
08
0d
0W
0e
#250000
1!
18
1d
1W
1e
0}
1|
0z
0y
1v
1w
0t
0u
0`
1a
0c
0>
1?
0A
0'
1(
0*
#260000
0!
1+
08
1:
1h
0d
1O
0W
0e
1i
0$!
0|
0v
0w
0a
0?
0(
#270000
1!
18
1d
1W
1e
#280000
0!
08
0d
0W
0e
#290000
1!
18
1d
1W
1e
#300000
0!
08
0d
0W
0e
#310000
1!
18
1d
1W
1e
#320000
0!
08
0d
0W
0e
#330000
1!
0+
18
0:
0h
1d
0O
1W
1e
0i
1$!
#340000
0!
08
0d
0W
0e
#350000
1!
18
1d
1W
1e
#360000
0!
08
0d
0W
0e
#370000
1!
18
1d
1W
1e
#380000
0!
08
0d
0W
0e
#390000
1!
18
1d
1W
1e
#400000
0!
08
0d
0W
0e
#410000
1!
18
1d
1W
1e
#420000
0!
08
0d
0W
0e
#430000
1!
18
1d
1W
1e
#440000
0!
08
0d
0W
0e
#450000
1!
18
1d
1W
1e
#460000
0!
08
0d
0W
0e
#470000
1!
18
1d
1W
1e
#480000
0!
08
0d
0W
0e
#490000
1!
18
1d
1W
1e
#500000
0!
08
0d
0W
0e
#510000
1!
18
1d
1W
1e
#520000
0!
08
0d
0W
0e
#530000
1!
18
1d
1W
1e
#540000
0!
08
0d
0W
0e
#550000
1!
18
1d
1W
1e
#560000
0!
08
0d
0W
0e
#570000
1!
18
1d
1W
1e
#580000
0!
08
0d
0W
0e
#590000
1!
18
1d
1W
1e
#600000
0!
08
0d
0W
0e
#610000
1!
18
1d
1W
1e
#620000
0!
08
0d
0W
0e
#630000
1!
18
1d
1W
1e
#640000
0!
08
0d
0W
0e
#650000
1!
18
1d
1W
1e
#660000
0!
08
0d
0W
0e
#670000
1!
18
1d
1W
1e
#680000
0!
08
0d
0W
0e
#690000
1!
18
1d
1W
1e
#700000
0!
08
0d
0W
0e
#710000
1!
18
1d
1W
1e
#720000
0!
08
0d
0W
0e
#730000
1!
18
1d
1W
1e
#740000
0!
08
0d
0W
0e
#750000
1!
18
1d
1W
1e
#760000
0!
08
0d
0W
0e
#770000
1!
18
1d
1W
1e
#780000
0!
08
0d
0W
0e
#790000
1!
18
1d
1W
1e
#800000
0!
08
0d
0W
0e
#810000
1!
18
1d
1W
1e
#820000
0!
08
0d
0W
0e
#830000
1!
18
1d
1W
1e
#840000
0!
08
0d
0W
0e
#850000
1!
0"
18
09
0j
1d
0S
1W
1e
0k
#860000
0!
08
0d
0W
0e
#870000
1!
18
1d
1W
1e
#880000
0!
08
0d
0W
0e
#890000
1!
18
1d
1W
1e
#900000
0!
08
0d
0W
0e
#910000
1!
18
1d
1W
1e
#920000
0!
08
0d
0W
0e
#930000
1!
18
1d
1W
1e
#940000
0!
08
0d
0W
0e
#950000
1!
18
1d
1W
1e
#960000
0!
08
0d
0W
0e
#970000
1!
18
1d
1W
1e
#980000
0!
08
0d
0W
0e
#990000
1!
18
1d
1W
1e
