Lab07/simulation/qsim/main.msim.vcd
$comment
	File created using the following command:
		vcd file main.msim.vcd -direction
$end
$date
	Thu Jun 13 11:32:25 2024
$end
$version
	ModelSim Version 10.5b
$end
$timescale
	1ps
$end

$scope module tmp_vhd_vec_tst $end
$var wire 1 ! A [7] $end
$var wire 1 " A [6] $end
$var wire 1 # A [5] $end
$var wire 1 $ A [4] $end
$var wire 1 % A [3] $end
$var wire 1 & A [2] $end
$var wire 1 ' A [1] $end
$var wire 1 ( A [0] $end
$var wire 1 ) B [7] $end
$var wire 1 * B [6] $end
$var wire 1 + B [5] $end
$var wire 1 , B [4] $end
$var wire 1 - B [3] $end
$var wire 1 . B [2] $end
$var wire 1 / B [1] $end
$var wire 1 0 B [0] $end
$var wire 1 1 Cin $end
$var wire 1 2 CLK $end
$var wire 1 3 Cout $end
$var wire 1 4 S [7] $end
$var wire 1 5 S [6] $end
$var wire 1 6 S [5] $end
$var wire 1 7 S [4] $end
$var wire 1 8 S [3] $end
$var wire 1 9 S [2] $end
$var wire 1 : S [1] $end
$var wire 1 ; S [0] $end

$scope module i1 $end
$var wire 1 < gnd $end
$var wire 1 = vcc $end
$var wire 1 > unknown $end
$var wire 1 ? devoe $end
$var wire 1 @ devclrn $end
$var wire 1 A devpor $end
$var wire 1 B ww_devoe $end
$var wire 1 C ww_devclrn $end
$var wire 1 D ww_devpor $end
$var wire 1 E ww_Cout $end
$var wire 1 F ww_Cin $end
$var wire 1 G ww_CLK $end
$var wire 1 H ww_A [7] $end
$var wire 1 I ww_A [6] $end
$var wire 1 J ww_A [5] $end
$var wire 1 K ww_A [4] $end
$var wire 1 L ww_A [3] $end
$var wire 1 M ww_A [2] $end
$var wire 1 N ww_A [1] $end
$var wire 1 O ww_A [0] $end
$var wire 1 P ww_B [7] $end
$var wire 1 Q ww_B [6] $end
$var wire 1 R ww_B [5] $end
$var wire 1 S ww_B [4] $end
$var wire 1 T ww_B [3] $end
$var wire 1 U ww_B [2] $end
$var wire 1 V ww_B [1] $end
$var wire 1 W ww_B [0] $end
$var wire 1 X ww_S [7] $end
$var wire 1 Y ww_S [6] $end
$var wire 1 Z ww_S [5] $end
$var wire 1 [ ww_S [4] $end
$var wire 1 \ ww_S [3] $end
$var wire 1 ] ww_S [2] $end
$var wire 1 ^ ww_S [1] $end
$var wire 1 _ ww_S [0] $end
$var wire 1 ` \~QUARTUS_CREATED_ADC1~_CHSEL_bus\ [4] $end
$var wire 1 a \~QUARTUS_CREATED_ADC1~_CHSEL_bus\ [3] $end
$var wire 1 b \~QUARTUS_CREATED_ADC1~_CHSEL_bus\ [2] $end
$var wire 1 c \~QUARTUS_CREATED_ADC1~_CHSEL_bus\ [1] $end
$var wire 1 d \~QUARTUS_CREATED_ADC1~_CHSEL_bus\ [0] $end
$var wire 1 e \~QUARTUS_CREATED_ADC2~_CHSEL_bus\ [4] $end
$var wire 1 f \~QUARTUS_CREATED_ADC2~_CHSEL_bus\ [3] $end
$var wire 1 g \~QUARTUS_CREATED_ADC2~_CHSEL_bus\ [2] $end
$var wire 1 h \~QUARTUS_CREATED_ADC2~_CHSEL_bus\ [1] $end
$var wire 1 i \~QUARTUS_CREATED_ADC2~_CHSEL_bus\ [0] $end
$var wire 1 j \CLK~input_o\ $end
$var wire 1 k \B[7]~input_o\ $end
$var wire 1 l \B[6]~input_o\ $end
$var wire 1 m \B[5]~input_o\ $end
$var wire 1 n \B[4]~input_o\ $end
$var wire 1 o \~QUARTUS_CREATED_GND~I_combout\ $end
$var wire 1 p \~QUARTUS_CREATED_UNVM~~busy\ $end
$var wire 1 q \~QUARTUS_CREATED_ADC1~~eoc\ $end
$var wire 1 r \~QUARTUS_CREATED_ADC2~~eoc\ $end
$var wire 1 s \Cout~output_o\ $end
$var wire 1 t \S[7]~output_o\ $end
$var wire 1 u \S[6]~output_o\ $end
$var wire 1 v \S[5]~output_o\ $end
$var wire 1 w \S[4]~output_o\ $end
$var wire 1 x \S[3]~output_o\ $end
$var wire 1 y \S[2]~output_o\ $end
$var wire 1 z \S[1]~output_o\ $end
$var wire 1 { \S[0]~output_o\ $end
$var wire 1 | \A[6]~input_o\ $end
$var wire 1 } \A[5]~input_o\ $end
$var wire 1 ~ \B[0]~input_o\ $end
$var wire 1 !! \A[1]~input_o\ $end
$var wire 1 "! \Cin~input_o\ $end
$var wire 1 #! \A[0]~input_o\ $end
$var wire 1 $! \inst|add1|add1|Cout~0_combout\ $end
$var wire 1 %! \B[1]~input_o\ $end
$var wire 1 &! \inst|add1|add2|Cout~0_combout\ $end
$var wire 1 '! \B[2]~input_o\ $end
$var wire 1 (! \A[2]~input_o\ $end
$var wire 1 )! \inst|add1|add3|Cout~0_combout\ $end
$var wire 1 *! \A[3]~input_o\ $end
$var wire 1 +! \B[3]~input_o\ $end
$var wire 1 ,! \inst|add1|add4|Cout~0_combout\ $end
$var wire 1 -! \A[4]~input_o\ $end
$var wire 1 .! \inst|add2|add1|Cout~0_combout\ $end
$var wire 1 /! \inst|add2|add2|Cout~0_combout\ $end
$var wire 1 0! \inst|add2|add3|Cout~0_combout\ $end
$var wire 1 1! \A[7]~input_o\ $end
$var wire 1 2! \inst|add2|add4|Cout~0_combout\ $end
$var wire 1 3! \inst|add2|add4|S~combout\ $end
$var wire 1 4! \inst|add2|add3|S~combout\ $end
$var wire 1 5! \inst|add2|add2|S~combout\ $end
$var wire 1 6! \inst|add2|add1|S~combout\ $end
$var wire 1 7! \inst|add1|add4|S~combout\ $end
$var wire 1 8! \inst|add1|add3|S~combout\ $end
$var wire 1 9! \inst|add1|add2|S~combout\ $end
$var wire 1 :! \inst|add1|add1|S~0_combout\ $end
$upscope $end
$upscope $end
$enddefinitions $end
#0
$dumpvars
11
02
03
0<
1=
x>
1?
1@
1A
1B
1C
1D
0E
1F
0G
0j
0k
0l
0m
0n
0o
zp
zq
zr
0s
1t
1u
1v
1w
1x
1y
1z
1{
1|
1}
0~
1!!
1"!
0#!
0$!
0%!
0&!
0'!
1(!
0)!
1*!
0+!
0,!
1-!
0.!
0/!
00!
11!
02!
13!
14!
15!
16!
17!
18!
19!
1:!
1!
1"
1#
1$
1%
1&
1'
0(
0)
0*
0+
0,
0-
0.
0/
00
1H
1I
1J
1K
1L
1M
1N
0O
0P
0Q
0R
0S
0T
0U
0V
0W
1X
1Y
1Z
1[
1\
1]
1^
1_
0`
0a
0b
0c
0d
0e
0f
0g
0h
0i
14
15
16
17
18
19
1:
1;
$end
#10000
12
1G
1j
#20000
02
0G
0j
#30000
12
1G
1j
#40000
02
0G
0j
#50000
12
1G
1j
#60000
02
0G
0j
#70000
12
1G
1j
#80000
02
0G
0j
#90000
12
1G
1j
#100000
02
0G
0j
#110000
12
1G
1j
#120000
02
0G
0j
#130000
12
1G
1j
#140000
02
0G
0j
#150000
12
1G
1j
#160000
02
0G
0j
#170000
12
1G
1j
#180000
02
0G
0j
#190000
12
1G
1j
#200000
02
0G
0j
#210000
12
1G
1j
#220000
02
0G
0j
#230000
12
1G
1j
#240000
02
0G
0j
#250000
12
1G
1j
#260000
02
0G
0j
#270000
12
1G
1j
#280000
02
0G
0j
#290000
12
1G
1j
#300000
02
0G
0j
#310000
12
1G
1j
#320000
02
0G
0j
#330000
12
1G
1j
#340000
02
0G
0j
#350000
12
1G
1j
#360000
02
0G
0j
#370000
12
1G
1j
#380000
02
0G
0j
#390000
12
1G
1j
#400000
02
0G
0j
#410000
12
1G
1j
#420000
02
0G
0j
#430000
12
1G
1j
#440000
02
0G
0j
#450000
12
1G
1j
#460000
02
0G
0j
#470000
12
1G
1j
#480000
02
0G
0j
#490000
12
1G
1j
#500000
02
0G
0j
#510000
12
1G
1j
#520000
02
0G
0j
#530000
12
1G
1j
#540000
02
0G
0j
#550000
12
1G
1j
#560000
02
0G
0j
#570000
12
1G
1j
#580000
02
0G
0j
#590000
12
1G
1j
#600000
02
0G
0j
#610000
12
1G
1j
#620000
02
0G
0j
#630000
12
1G
1j
#640000
02
0G
0j
#650000
12
1G
1j
#660000
02
0G
0j
#670000
12
1G
1j
#680000
02
0G
0j
#690000
12
1G
1j
#700000
02
0G
0j
#710000
12
1G
1j
#720000
02
0G
0j
#729600
1(
1O
1#!
1$!
0:!
0{
1&!
09!
0_
0z
1)!
08!
0;
0^
0y
1,!
07!
0:
0]
0x
1.!
06!
09
0\
0w
1/!
05!
08
0[
0v
10!
04!
07
0Z
0u
12!
03!
06
0Y
0t
1s
05
0X
1E
04
13
#730000
12
1G
1j
#740000
02
0G
0j
#750000
12
1G
1j
#760000
02
0G
0j
#770000
12
1G
1j
#780000
02
0G
0j
#790000
12
1G
1j
#800000
02
0G
0j
#810000
12
1G
1j
#820000
02
0G
0j
#830000
12
1G
1j
#840000
02
0G
0j
#850000
12
1G
1j
#860000
02
0G
0j
#870000
12
1G
1j
#880000
02
0G
0j
#890000
12
1G
1j
#900000
02
0G
0j
#910000
12
1G
1j
#920000
02
0G
0j
#930000
12
1G
1j
#940000
02
0G
0j
#950000
12
1G
1j
#960000
02
0G
0j
#970000
12
1G
1j
#980000
02
0G
0j
#990000
12
1G
1j
#1000000
02
0G
0j
#1010000
12
1G
1j
#1020000
02
0G
0j
#1030000
12
1G
1j
#1040000
02
0G
0j
#1050000
12
1G
1j
#1060000
02
0G
0j
#1070000
12
1G
1j
#1080000
02
0G
0j
#1090000
12
1G
1j
#1100000
02
0G
0j
#1110000
12
1G
1j
#1120000
02
0G
0j
#1130000
12
1G
1j
#1140000
02
0G
0j
#1150000
12
1G
1j
#1160000
02
0G
0j
#1170000
12
1G
1j
#1180000
02
0G
0j
#1190000
12
1G
1j
#1200000
02
0G
0j
#1210000
12
1G
1j
#1220000
02
0G
0j
#1230000
12
1G
1j
#1240000
02
0G
0j
#1250000
12
1G
1j
#1260000
02
0G
0j
#1270000
12
1G
1j
#1280000
02
0G
0j
#1290000
12
1G
1j
#1300000
02
0G
0j
#1310000
12
1G
1j
#1320000
02
0G
0j
#1330000
12
1G
1j
#1340000
02
0G
0j
#1350000
12
1G
1j
#1360000
02
0G
0j
#1370000
12
1G
1j
#1380000
02
0G
0j
#1390000
12
1G
1j
#1400000
02
0G
0j
#1410000
12
1G
1j
#1420000
02
0G
0j
#1430000
12
1G
1j
#1440000
02
0G
0j
#1450000
12
1G
1j
#1460000
02
0G
0j
#1470000
12
1G
1j
#1480000
02
0G
0j
#1490000
12
1G
1j
#1500000
02
0G
0j
#1510000
12
1G
1j
#1520000
02
0G
0j
#1530000
12
1G
1j
#1540000
02
0G
0j
#1550000
12
1G
1j
#1560000
02
0G
0j
#1570000
12
1G
1j
#1580000
02
0G
0j
#1590000
12
1G
1j
#1600000
02
0G
0j
#1610000
12
1G
1j
#1620000
02
0G
0j
#1630000
12
1G
1j
#1640000
02
0G
0j
#1650000
12
1G
1j
#1660000
02
0G
0j
#1670000
12
1G
1j
#1680000
02
0G
0j
#1690000
12
1G
1j
#1700000
02
0G
0j
#1710000
12
1G
1j
#1720000
02
0G
0j
#1730000
12
1G
1j
#1740000
02
0G
0j
#1750000
12
1G
1j
#1760000
02
0G
0j
#1770000
12
1G
1j
#1780000
02
0G
0j
#1790000
12
1G
1j
#1800000
02
0G
0j
#1810000
12
1G
1j
#1820000
02
0G
0j
#1830000
12
1G
1j
#1840000
02
0G
0j
#1850000
12
1G
1j
#1860000
02
0G
0j
#1870000
12
1G
1j
#1880000
02
0G
0j
#1890000
12
1G
1j
#1900000
02
0G
0j
#1910000
12
1G
1j
#1920000
02
0G
0j
#1930000
12
1G
1j
#1940000
02
0G
0j
#1950000
12
1G
1j
#1960000
02
0G
0j
#1970000
12
1G
1j
#1980000
02
0G
0j
#1990000
12
1G
1j
