Lab07/simulation/qsim/main.msim.vcd
$comment
	File created using the following command:
		vcd file main.msim.vcd -direction
$end
$date
	Tue Jun 04 14:56:20 2024
$end
$version
	ModelSim Version 10.5b
$end
$timescale
	1ps
$end

$scope module main_vhd_vec_tst $end
$var wire 1 ! A [7] $end
$var wire 1 " A [6] $end
$var wire 1 # A [5] $end
$var wire 1 $ A [4] $end
$var wire 1 % A [3] $end
$var wire 1 & A [2] $end
$var wire 1 ' A [1] $end
$var wire 1 ( A [0] $end
$var wire 1 ) B [7] $end
$var wire 1 * B [6] $end
$var wire 1 + B [5] $end
$var wire 1 , B [4] $end
$var wire 1 - B [3] $end
$var wire 1 . B [2] $end
$var wire 1 / B [1] $end
$var wire 1 0 B [0] $end
$var wire 1 1 CLK $end
$var wire 1 2 MEM_CTRL $end
$var wire 1 3 O [7] $end
$var wire 1 4 O [6] $end
$var wire 1 5 O [5] $end
$var wire 1 6 O [4] $end
$var wire 1 7 O [3] $end
$var wire 1 8 O [2] $end
$var wire 1 9 O [1] $end
$var wire 1 : O [0] $end
$var wire 1 ; S [7] $end
$var wire 1 < S [6] $end
$var wire 1 = S [5] $end
$var wire 1 > S [4] $end
$var wire 1 ? S [3] $end
$var wire 1 @ S [2] $end
$var wire 1 A S [1] $end
$var wire 1 B S [0] $end

$scope module i1 $end
$var wire 1 C gnd $end
$var wire 1 D vcc $end
$var wire 1 E unknown $end
$var wire 1 F devoe $end
$var wire 1 G devclrn $end
$var wire 1 H devpor $end
$var wire 1 I ww_devoe $end
$var wire 1 J ww_devclrn $end
$var wire 1 K ww_devpor $end
$var wire 1 L ww_MEM_CTRL $end
$var wire 1 M ww_O [7] $end
$var wire 1 N ww_O [6] $end
$var wire 1 O ww_O [5] $end
$var wire 1 P ww_O [4] $end
$var wire 1 Q ww_O [3] $end
$var wire 1 R ww_O [2] $end
$var wire 1 S ww_O [1] $end
$var wire 1 T ww_O [0] $end
$var wire 1 U ww_CLK $end
$var wire 1 V ww_A [7] $end
$var wire 1 W ww_A [6] $end
$var wire 1 X ww_A [5] $end
$var wire 1 Y ww_A [4] $end
$var wire 1 Z ww_A [3] $end
$var wire 1 [ ww_A [2] $end
$var wire 1 \ ww_A [1] $end
$var wire 1 ] ww_A [0] $end
$var wire 1 ^ ww_B [7] $end
$var wire 1 _ ww_B [6] $end
$var wire 1 ` ww_B [5] $end
$var wire 1 a ww_B [4] $end
$var wire 1 b ww_B [3] $end
$var wire 1 c ww_B [2] $end
$var wire 1 d ww_B [1] $end
$var wire 1 e ww_B [0] $end
$var wire 1 f ww_S [7] $end
$var wire 1 g ww_S [6] $end
$var wire 1 h ww_S [5] $end
$var wire 1 i ww_S [4] $end
$var wire 1 j ww_S [3] $end
$var wire 1 k ww_S [2] $end
$var wire 1 l ww_S [1] $end
$var wire 1 m ww_S [0] $end
$var wire 1 n \inst3|altsyncram_component|auto_generated|ram_block1a0_PORTAADDR_bus\ [7] $end
$var wire 1 o \inst3|altsyncram_component|auto_generated|ram_block1a0_PORTAADDR_bus\ [6] $end
$var wire 1 p \inst3|altsyncram_component|auto_generated|ram_block1a0_PORTAADDR_bus\ [5] $end
$var wire 1 q \inst3|altsyncram_component|auto_generated|ram_block1a0_PORTAADDR_bus\ [4] $end
$var wire 1 r \inst3|altsyncram_component|auto_generated|ram_block1a0_PORTAADDR_bus\ [3] $end
$var wire 1 s \inst3|altsyncram_component|auto_generated|ram_block1a0_PORTAADDR_bus\ [2] $end
$var wire 1 t \inst3|altsyncram_component|auto_generated|ram_block1a0_PORTAADDR_bus\ [1] $end
$var wire 1 u \inst3|altsyncram_component|auto_generated|ram_block1a0_PORTAADDR_bus\ [0] $end
$var wire 1 v \inst3|altsyncram_component|auto_generated|ram_block1a0_PORTADATAOUT_bus\ [17] $end
$var wire 1 w \inst3|altsyncram_component|auto_generated|ram_block1a0_PORTADATAOUT_bus\ [16] $end
$var wire 1 x \inst3|altsyncram_component|auto_generated|ram_block1a0_PORTADATAOUT_bus\ [15] $end
$var wire 1 y \inst3|altsyncram_component|auto_generated|ram_block1a0_PORTADATAOUT_bus\ [14] $end
$var wire 1 z \inst3|altsyncram_component|auto_generated|ram_block1a0_PORTADATAOUT_bus\ [13] $end
$var wire 1 { \inst3|altsyncram_component|auto_generated|ram_block1a0_PORTADATAOUT_bus\ [12] $end
$var wire 1 | \inst3|altsyncram_component|auto_generated|ram_block1a0_PORTADATAOUT_bus\ [11] $end
$var wire 1 } \inst3|altsyncram_component|auto_generated|ram_block1a0_PORTADATAOUT_bus\ [10] $end
$var wire 1 ~ \inst3|altsyncram_component|auto_generated|ram_block1a0_PORTADATAOUT_bus\ [9] $end
$var wire 1 !! \inst3|altsyncram_component|auto_generated|ram_block1a0_PORTADATAOUT_bus\ [8] $end
$var wire 1 "! \inst3|altsyncram_component|auto_generated|ram_block1a0_PORTADATAOUT_bus\ [7] $end
$var wire 1 #! \inst3|altsyncram_component|auto_generated|ram_block1a0_PORTADATAOUT_bus\ [6] $end
$var wire 1 $! \inst3|altsyncram_component|auto_generated|ram_block1a0_PORTADATAOUT_bus\ [5] $end
$var wire 1 %! \inst3|altsyncram_component|auto_generated|ram_block1a0_PORTADATAOUT_bus\ [4] $end
$var wire 1 &! \inst3|altsyncram_component|auto_generated|ram_block1a0_PORTADATAOUT_bus\ [3] $end
$var wire 1 '! \inst3|altsyncram_component|auto_generated|ram_block1a0_PORTADATAOUT_bus\ [2] $end
$var wire 1 (! \inst3|altsyncram_component|auto_generated|ram_block1a0_PORTADATAOUT_bus\ [1] $end
$var wire 1 )! \inst3|altsyncram_component|auto_generated|ram_block1a0_PORTADATAOUT_bus\ [0] $end
$var wire 1 *! \~QUARTUS_CREATED_ADC1~_CHSEL_bus\ [4] $end
$var wire 1 +! \~QUARTUS_CREATED_ADC1~_CHSEL_bus\ [3] $end
$var wire 1 ,! \~QUARTUS_CREATED_ADC1~_CHSEL_bus\ [2] $end
$var wire 1 -! \~QUARTUS_CREATED_ADC1~_CHSEL_bus\ [1] $end
$var wire 1 .! \~QUARTUS_CREATED_ADC1~_CHSEL_bus\ [0] $end
$var wire 1 /! \~QUARTUS_CREATED_ADC2~_CHSEL_bus\ [4] $end
$var wire 1 0! \~QUARTUS_CREATED_ADC2~_CHSEL_bus\ [3] $end
$var wire 1 1! \~QUARTUS_CREATED_ADC2~_CHSEL_bus\ [2] $end
$var wire 1 2! \~QUARTUS_CREATED_ADC2~_CHSEL_bus\ [1] $end
$var wire 1 3! \~QUARTUS_CREATED_ADC2~_CHSEL_bus\ [0] $end
$var wire 1 4! \CLK~inputclkctrl_INCLK_bus\ [3] $end
$var wire 1 5! \CLK~inputclkctrl_INCLK_bus\ [2] $end
$var wire 1 6! \CLK~inputclkctrl_INCLK_bus\ [1] $end
$var wire 1 7! \CLK~inputclkctrl_INCLK_bus\ [0] $end
$var wire 1 8! \~QUARTUS_CREATED_GND~I_combout\ $end
$var wire 1 9! \~QUARTUS_CREATED_UNVM~~busy\ $end
$var wire 1 :! \~QUARTUS_CREATED_ADC1~~eoc\ $end
$var wire 1 ;! \~QUARTUS_CREATED_ADC2~~eoc\ $end
$var wire 1 <! \MEM_CTRL~output_o\ $end
$var wire 1 =! \O[7]~output_o\ $end
$var wire 1 >! \O[6]~output_o\ $end
$var wire 1 ?! \O[5]~output_o\ $end
$var wire 1 @! \O[4]~output_o\ $end
$var wire 1 A! \O[3]~output_o\ $end
$var wire 1 B! \O[2]~output_o\ $end
$var wire 1 C! \O[1]~output_o\ $end
$var wire 1 D! \O[0]~output_o\ $end
$var wire 1 E! \A[7]~output_o\ $end
$var wire 1 F! \A[6]~output_o\ $end
$var wire 1 G! \A[5]~output_o\ $end
$var wire 1 H! \A[4]~output_o\ $end
$var wire 1 I! \A[3]~output_o\ $end
$var wire 1 J! \A[2]~output_o\ $end
$var wire 1 K! \A[1]~output_o\ $end
$var wire 1 L! \A[0]~output_o\ $end
$var wire 1 M! \B[7]~output_o\ $end
$var wire 1 N! \B[6]~output_o\ $end
$var wire 1 O! \B[5]~output_o\ $end
$var wire 1 P! \B[4]~output_o\ $end
$var wire 1 Q! \B[3]~output_o\ $end
$var wire 1 R! \B[2]~output_o\ $end
$var wire 1 S! \B[1]~output_o\ $end
$var wire 1 T! \B[0]~output_o\ $end
$var wire 1 U! \S[7]~output_o\ $end
$var wire 1 V! \S[6]~output_o\ $end
$var wire 1 W! \S[5]~output_o\ $end
$var wire 1 X! \S[4]~output_o\ $end
$var wire 1 Y! \S[3]~output_o\ $end
$var wire 1 Z! \S[2]~output_o\ $end
$var wire 1 [! \S[1]~output_o\ $end
$var wire 1 \! \S[0]~output_o\ $end
$var wire 1 ]! \CLK~input_o\ $end
$var wire 1 ^! \CLK~inputclkctrl_outclk\ $end
$var wire 1 _! \inst8|count[0]~8_combout\ $end
$var wire 1 `! \inst8|count[1]~7_combout\ $end
$var wire 1 a! \inst8|count[2]~6_combout\ $end
$var wire 1 b! \inst8|count[3]~5_combout\ $end
$var wire 1 c! \inst8|Equal0~0_combout\ $end
$var wire 1 d! \inst8|count[4]~4_combout\ $end
$var wire 1 e! \inst8|count[5]~3_combout\ $end
$var wire 1 f! \inst8|count~2_combout\ $end
$var wire 1 g! \inst8|count~0_combout\ $end
$var wire 1 h! \inst8|count~1_combout\ $end
$var wire 1 i! \inst8|count[7]~feeder_combout\ $end
$var wire 1 j! \inst9~0_combout\ $end
$var wire 1 k! \inst9~q\ $end
$var wire 1 l! \inst|S[7]~0_combout\ $end
$var wire 1 m! \inst|S[6]~1_combout\ $end
$var wire 1 n! \inst|S[5]~2_combout\ $end
$var wire 1 o! \inst|S[4]~3_combout\ $end
$var wire 1 p! \inst|S[3]~4_combout\ $end
$var wire 1 q! \inst|S[2]~5_combout\ $end
$var wire 1 r! \inst|S[1]~6_combout\ $end
$var wire 1 s! \inst|S[0]~7_combout\ $end
$var wire 1 t! \inst3|altsyncram_component|auto_generated|q_a\ [7] $end
$var wire 1 u! \inst3|altsyncram_component|auto_generated|q_a\ [6] $end
$var wire 1 v! \inst3|altsyncram_component|auto_generated|q_a\ [5] $end
$var wire 1 w! \inst3|altsyncram_component|auto_generated|q_a\ [4] $end
$var wire 1 x! \inst3|altsyncram_component|auto_generated|q_a\ [3] $end
$var wire 1 y! \inst3|altsyncram_component|auto_generated|q_a\ [2] $end
$var wire 1 z! \inst3|altsyncram_component|auto_generated|q_a\ [1] $end
$var wire 1 {! \inst3|altsyncram_component|auto_generated|q_a\ [0] $end
$var wire 1 |! \inst4|altsyncram_component|auto_generated|q_a\ [7] $end
$var wire 1 }! \inst4|altsyncram_component|auto_generated|q_a\ [6] $end
$var wire 1 ~! \inst4|altsyncram_component|auto_generated|q_a\ [5] $end
$var wire 1 !" \inst4|altsyncram_component|auto_generated|q_a\ [4] $end
$var wire 1 "" \inst4|altsyncram_component|auto_generated|q_a\ [3] $end
$var wire 1 #" \inst4|altsyncram_component|auto_generated|q_a\ [2] $end
$var wire 1 $" \inst4|altsyncram_component|auto_generated|q_a\ [1] $end
$var wire 1 %" \inst4|altsyncram_component|auto_generated|q_a\ [0] $end
$var wire 1 &" \inst8|count\ [7] $end
$var wire 1 '" \inst8|count\ [6] $end
$var wire 1 (" \inst8|count\ [5] $end
$var wire 1 )" \inst8|count\ [4] $end
$var wire 1 *" \inst8|count\ [3] $end
$var wire 1 +" \inst8|count\ [2] $end
$var wire 1 ," \inst8|count\ [1] $end
$var wire 1 -" \inst8|count\ [0] $end
$var wire 1 ." \inst8|ALT_INV_count\ [7] $end
$upscope $end
$upscope $end
$enddefinitions $end
#0
$dumpvars
01
02
0C
1D
xE
1F
1G
1H
1I
1J
1K
0L
0U
08!
z9!
z:!
z;!
0<!
0=!
0>!
0?!
0@!
0A!
0B!
0C!
0D!
0E!
0F!
0G!
0H!
0I!
0J!
0K!
0L!
0M!
0N!
0O!
0P!
0Q!
0R!
0S!
0T!
0U!
0V!
0W!
0X!
0Y!
0Z!
0[!
0\!
0]!
0^!
1_!
0`!
0a!
0b!
0c!
0d!
0e!
0f!
1g!
0h!
0i!
1j!
0k!
0l!
0m!
0n!
0o!
0p!
0q!
0r!
0s!
0M
0N
0O
0P
0Q
0R
0S
0T
0V
0W
0X
0Y
0Z
0[
0\
0]
0^
0_
0`
0a
0b
0c
0d
0e
0f
0g
0h
0i
0j
0k
0l
0m
0v
0w
0x
0y
0z
0{
0|
0}
0~
0!!
0"!
0#!
0$!
0%!
0&!
0'!
0(!
0)!
0t!
0u!
0v!
0w!
0x!
0y!
0z!
0{!
0|!
0}!
0~!
0!"
0""
0#"
0$"
0%"
0&"
0'"
0("
0)"
0*"
0+"
0,"
0-"
1."
14!
15!
16!
07!
0*!
0+!
0,!
0-!
0.!
0/!
00!
01!
02!
03!
0!
0"
0#
0$
0%
0&
0'
0(
0)
0*
0+
0,
0-
0.
0/
00
03
04
05
06
07
08
09
0:
0;
0<
0=
0>
0?
0@
0A
0B
0n
0o
0p
0q
0r
0s
0t
0u
$end
#1000
11
1U
1]!
17!
1^!
1-"
1u
1D!
0_!
1`!
1T
1:
#1500
1!!
1~
1}
1|
1{
1z
1y
1x
1%"
1$"
1#"
1""
1!"
1~!
1}!
1|!
1M!
1N!
1O!
1P!
1Q!
1R!
1S!
1T!
1^
1_
1`
1a
1b
1c
1d
1e
10
1/
1.
1-
1,
1+
1*
1)
#2000
01
0U
0]!
07!
0^!
#3000
11
1U
1]!
17!
1^!
0-"
1,"
0u
1t
1C!
0D!
1_!
1S
0T
0:
19
#3500
1)!
1(!
1'!
1&!
1%!
0!!
1{!
1z!
1y!
1x!
1w!
0%"
0T!
1H!
1I!
1J!
1K!
1L!
1o!
1p!
1q!
1r!
1s!
0e
1Y
1Z
1[
1\
1]
1\!
1[!
1Z!
1Y!
1X!
00
1(
1'
1&
1%
1$
1m
1l
1k
1j
1i
1B
1A
1@
1?
1>
#4000
01
0U
0]!
07!
0^!
#5000
11
1U
1]!
17!
1^!
1-"
1u
1D!
0_!
0`!
1a!
1T
1:
#5500
0)!
0(!
0'!
0&!
0%!
1$!
1!!
0~
0{!
0z!
0y!
0x!
0w!
1v!
1%"
0$"
0S!
1T!
1G!
0H!
0I!
0J!
0K!
0L!
1n!
0o!
0p!
0q!
0r!
0s!
0d
1e
1X
0Y
0Z
0[
0\
0]
0\!
0[!
0Z!
0Y!
0X!
1W!
10
0/
0(
0'
0&
0%
0$
1#
0m
0l
0k
0j
0i
1h
0B
0A
0@
0?
0>
1=
#6000
01
0U
0]!
07!
0^!
#7000
11
1U
1]!
17!
1^!
0-"
0,"
1+"
0u
0t
1s
1B!
0C!
0D!
1_!
1R
0S
0T
0:
09
18
#7500
1)!
1(!
1'!
1&!
0$!
1"!
0!!
1{!
1z!
1y!
1x!
0v!
1t!
0%"
0T!
1E!
0G!
1I!
1J!
1K!
1L!
1l!
0n!
1p!
1q!
1r!
1s!
0e
1V
0X
1Z
1[
1\
1]
1\!
1[!
1Z!
1Y!
0W!
1U!
00
1(
1'
1&
1%
0#
1!
1m
1l
1k
1j
0h
1f
1B
1A
1@
1?
0=
1;
#8000
01
0U
0]!
07!
0^!
#9000
11
1U
1]!
17!
1^!
1-"
1u
1D!
0_!
1`!
1T
1:
#9500
0)!
0(!
0'!
0&!
1#!
0"!
1!!
1~
0}
0{!
0z!
0y!
0x!
1u!
0t!
1%"
1$"
0#"
0R!
1S!
1T!
0E!
1F!
0I!
0J!
0K!
0L!
0l!
1m!
0p!
0q!
0r!
0s!
0c
1d
1e
0V
1W
0Z
0[
0\
0]
0\!
0[!
0Z!
0Y!
1V!
0U!
10
1/
0.
0(
0'
0&
0%
1"
0!
0m
0l
0k
0j
1g
0f
0B
0A
0@
0?
1<
0;
#10000
01
0U
0]!
07!
0^!
#11000
11
1U
1]!
17!
1^!
0-"
1,"
0u
1t
1C!
0D!
1_!
1S
0T
0:
19
#11500
1)!
1(!
1'!
1&!
1%!
1$!
0#!
0!!
1{!
1z!
1y!
1x!
1w!
1v!
0u!
0%"
0T!
0F!
1G!
1H!
1I!
1J!
1K!
1L!
0m!
1n!
1o!
1p!
1q!
1r!
1s!
0e
0W
1X
1Y
1Z
1[
1\
1]
1\!
1[!
1Z!
1Y!
1X!
1W!
0V!
00
1(
1'
1&
1%
1$
1#
0"
1m
1l
1k
1j
1i
1h
0g
1B
1A
1@
1?
1>
1=
0<
#12000
01
0U
0]!
07!
0^!
#13000
11
1U
1]!
17!
1^!
1-"
1u
1D!
0_!
0`!
0a!
1b!
1T
1:
#13500
0$!
1"!
1!!
0~
0v!
1t!
1%"
0$"
0S!
1T!
1E!
0G!
1l!
0n!
0d
1e
1V
0X
0W!
1U!
10
0/
0#
1!
0h
1f
0=
1;
#14000
01
0U
0]!
07!
0^!
#15000
11
1U
1]!
17!
1^!
0-"
0,"
0+"
1*"
0u
0t
0s
1r
1A!
0B!
0C!
0D!
1_!
1Q
0R
0S
0T
0:
09
08
17
#15500
1#!
0"!
0!!
1u!
0t!
0%"
0T!
0E!
1F!
0l!
1m!
0e
0V
1W
1V!
0U!
00
1"
0!
1g
0f
1<
0;
#16000
01
0U
0]!
07!
0^!
#17000
11
1U
1]!
17!
1^!
1-"
1u
1D!
0_!
1`!
1T
1:
#17500
1$!
1"!
1!!
1~
1}
0|
1v!
1t!
1%"
1$"
1#"
0""
0Q!
1R!
1S!
1T!
1E!
1G!
1l!
1n!
0b
1c
1d
1e
1V
1X
1W!
1U!
10
1/
1.
0-
1#
1!
1h
1f
1=
1;
#18000
01
0U
0]!
07!
0^!
#19000
11
1U
1]!
17!
1^!
0-"
1,"
0u
1t
1C!
0D!
1_!
1S
0T
0:
19
#19500
0%!
0"!
0!!
0w!
0t!
0%"
0T!
0E!
0H!
0l!
0o!
0e
0V
0Y
0X!
0U!
00
0$
0!
0i
0f
0>
0;
#20000
01
0U
0]!
07!
0^!
#21000
11
1U
1]!
17!
1^!
1-"
1u
1D!
0_!
0`!
1a!
1T
1:
#21500
0)!
0(!
0'!
0&!
1"!
1!!
0~
0{!
0z!
0y!
0x!
1t!
1%"
0$"
0S!
1T!
1E!
0I!
0J!
0K!
0L!
1l!
0p!
0q!
0r!
0s!
0d
1e
1V
0Z
0[
0\
0]
0\!
0[!
0Z!
0Y!
1U!
10
0/
0(
0'
0&
0%
1!
0m
0l
0k
0j
1f
0B
0A
0@
0?
1;
#22000
01
0U
0]!
07!
0^!
#23000
11
1U
1]!
17!
1^!
0-"
0,"
1+"
0u
0t
1s
1B!
0C!
0D!
1_!
1R
0S
0T
0:
09
18
#23500
1)!
1(!
1'!
1&!
1%!
0#!
0!!
1{!
1z!
1y!
1x!
1w!
0u!
0%"
0T!
0F!
1H!
1I!
1J!
1K!
1L!
0m!
1o!
1p!
1q!
1r!
1s!
0e
0W
1Y
1Z
1[
1\
1]
1\!
1[!
1Z!
1Y!
1X!
0V!
00
1(
1'
1&
1%
1$
0"
1m
1l
1k
1j
1i
0g
1B
1A
1@
1?
1>
0<
#24000
01
0U
0]!
07!
0^!
#25000
11
1U
1]!
17!
1^!
1-"
1u
1D!
0_!
1`!
1T
1:
#25500
0)!
0(!
0'!
0&!
1#!
0"!
1!!
1~
0}
0{!
0z!
0y!
0x!
1u!
0t!
1%"
1$"
0#"
0R!
1S!
1T!
0E!
1F!
0I!
0J!
0K!
0L!
0l!
1m!
0p!
0q!
0r!
0s!
0c
1d
1e
0V
1W
0Z
0[
0\
0]
0\!
0[!
0Z!
0Y!
1V!
0U!
10
1/
0.
0(
0'
0&
0%
1"
0!
0m
0l
0k
0j
1g
0f
0B
0A
0@
0?
1<
0;
#26000
01
0U
0]!
07!
0^!
#27000
11
1U
1]!
17!
1^!
0-"
1,"
0u
1t
1C!
0D!
1_!
1S
0T
0:
19
#27500
1)!
1(!
1'!
1&!
0%!
0#!
1"!
0!!
1{!
1z!
1y!
1x!
0w!
0u!
1t!
0%"
0T!
1E!
0F!
0H!
1I!
1J!
1K!
1L!
1l!
0m!
0o!
1p!
1q!
1r!
1s!
0e
1V
0W
0Y
1Z
1[
1\
1]
1\!
1[!
1Z!
1Y!
0X!
0V!
1U!
00
1(
1'
1&
1%
0$
0"
1!
1m
1l
1k
1j
0i
0g
1f
1B
1A
1@
1?
0>
0<
1;
#28000
01
0U
0]!
07!
0^!
#29000
11
1U
1]!
17!
1^!
1-"
1u
1D!
0_!
0`!
0a!
0b!
1c!
1T
1d!
1:
#29500
0)!
0(!
0'!
0&!
0$!
1#!
1!!
0~
0{!
0z!
0y!
0x!
0v!
1u!
1%"
0$"
0S!
1T!
1F!
0G!
0I!
0J!
0K!
0L!
1m!
0n!
0p!
0q!
0r!
0s!
0d
1e
1W
0X
0Z
0[
0\
0]
0\!
0[!
0Z!
0Y!
0W!
1V!
10
0/
0(
0'
0&
0%
0#
1"
0m
0l
0k
0j
0h
1g
0B
0A
0@
0?
0=
1<
#30000
01
0U
0]!
07!
0^!
#31000
11
1U
1]!
17!
1^!
0-"
0,"
0+"
0*"
1)"
0u
0t
0s
0r
1q
1@!
0A!
0B!
0C!
0D!
0d!
1e!
1_!
0c!
1P
0Q
0R
0S
0T
1d!
0e!
0:
09
08
07
16
#31500
1)!
1(!
1'!
1&!
1%!
0!!
1{!
1z!
1y!
1x!
1w!
0%"
0T!
1H!
1I!
1J!
1K!
1L!
1o!
1p!
1q!
1r!
1s!
0e
1Y
1Z
1[
1\
1]
1\!
1[!
1Z!
1Y!
1X!
00
1(
1'
1&
1%
1$
1m
1l
1k
1j
1i
1B
1A
1@
1?
1>
#32000
01
0U
0]!
07!
0^!
#33000
11
1U
1]!
17!
1^!
1-"
1u
1D!
0_!
1`!
1T
1:
#33500
0(!
0'!
0&!
0%!
0#!
0"!
1!!
1~
1}
1|
0{
0z!
0y!
0x!
0w!
0u!
0t!
1%"
1$"
1#"
1""
0!"
0P!
1Q!
1R!
1S!
1T!
0E!
0F!
0H!
0I!
0J!
0K!
0l!
0m!
0o!
0p!
0q!
0r!
0a
1b
1c
1d
1e
0V
0W
0Y
0Z
0[
0\
0[!
0Z!
0Y!
0X!
0V!
0U!
10
1/
1.
1-
0,
0'
0&
0%
0$
0"
0!
0l
0k
0j
0i
0g
0f
0A
0@
0?
0>
0<
0;
#34000
01
0U
0]!
07!
0^!
#35000
11
1U
1]!
17!
1^!
0-"
1,"
0u
1t
1C!
0D!
1_!
1S
0T
0:
19
#35500
0)!
1(!
1'!
1&!
1%!
0!!
0{!
1z!
1y!
1x!
1w!
0%"
0T!
1H!
1I!
1J!
1K!
0L!
1o!
1p!
1q!
1r!
0s!
0e
1Y
1Z
1[
1\
0]
0\!
1[!
1Z!
1Y!
1X!
00
0(
1'
1&
1%
1$
0m
1l
1k
1j
1i
0B
1A
1@
1?
1>
#36000
01
0U
0]!
07!
0^!
#37000
11
1U
1]!
17!
1^!
1-"
1u
1D!
0_!
0`!
1a!
1T
1:
#37500
1)!
0(!
0'!
0&!
0%!
1$!
1!!
0~
1{!
0z!
0y!
0x!
0w!
1v!
1%"
0$"
0S!
1T!
1G!
0H!
0I!
0J!
0K!
1L!
1n!
0o!
0p!
0q!
0r!
1s!
0d
1e
1X
0Y
0Z
0[
0\
1]
1\!
0[!
0Z!
0Y!
0X!
1W!
10
0/
1(
0'
0&
0%
0$
1#
1m
0l
0k
0j
0i
1h
1B
0A
0@
0?
0>
1=
#38000
01
0U
0]!
07!
0^!
#39000
11
1U
1]!
17!
1^!
0-"
0,"
1+"
0u
0t
1s
1B!
0C!
0D!
1_!
1R
0S
0T
0:
09
18
#39500
0)!
1(!
1'!
1&!
0$!
1"!
0!!
0{!
1z!
1y!
1x!
0v!
1t!
0%"
0T!
1E!
0G!
1I!
1J!
1K!
0L!
1l!
0n!
1p!
1q!
1r!
0s!
0e
1V
0X
1Z
1[
1\
0]
0\!
1[!
1Z!
1Y!
0W!
1U!
00
0(
1'
1&
1%
0#
1!
0m
1l
1k
1j
0h
1f
0B
1A
1@
1?
0=
1;
#40000
01
0U
0]!
07!
0^!
#41000
11
1U
1]!
17!
1^!
1-"
1u
1D!
0_!
1`!
1T
1:
#41500
1)!
0(!
0'!
0&!
1#!
0"!
1!!
1~
0}
1{!
0z!
0y!
0x!
1u!
0t!
1%"
1$"
0#"
0R!
1S!
1T!
0E!
1F!
0I!
0J!
0K!
1L!
0l!
1m!
0p!
0q!
0r!
1s!
0c
1d
1e
0V
1W
0Z
0[
0\
1]
1\!
0[!
0Z!
0Y!
1V!
0U!
10
1/
0.
1(
0'
0&
0%
1"
0!
1m
0l
0k
0j
1g
0f
1B
0A
0@
0?
1<
0;
#42000
01
0U
0]!
07!
0^!
#43000
11
1U
1]!
17!
1^!
0-"
1,"
0u
1t
1C!
0D!
1_!
1S
0T
0:
19
#43500
0)!
1(!
1'!
1&!
1%!
1$!
0#!
0!!
0{!
1z!
1y!
1x!
1w!
1v!
0u!
0%"
0T!
0F!
1G!
1H!
1I!
1J!
1K!
0L!
0m!
1n!
1o!
1p!
1q!
1r!
0s!
0e
0W
1X
1Y
1Z
1[
1\
0]
0\!
1[!
1Z!
1Y!
1X!
1W!
0V!
00
0(
1'
1&
1%
1$
1#
0"
0m
1l
1k
1j
1i
1h
0g
0B
1A
1@
1?
1>
1=
0<
#44000
01
0U
0]!
07!
0^!
#45000
11
1U
1]!
17!
1^!
1-"
1u
1D!
0_!
0`!
0a!
1b!
1T
1:
#45500
0$!
1"!
1!!
0~
0v!
1t!
1%"
0$"
0S!
1T!
1E!
0G!
1l!
0n!
0d
1e
1V
0X
0W!
1U!
10
0/
0#
1!
0h
1f
0=
1;
#46000
01
0U
0]!
07!
0^!
#47000
11
1U
1]!
17!
1^!
0-"
0,"
0+"
1*"
0u
0t
0s
1r
1A!
0B!
0C!
0D!
1_!
1Q
0R
0S
0T
0:
09
08
17
#47500
1#!
0"!
0!!
1u!
0t!
0%"
0T!
0E!
1F!
0l!
1m!
0e
0V
1W
1V!
0U!
00
1"
0!
1g
0f
1<
0;
#48000
01
0U
0]!
07!
0^!
#49000
11
1U
1]!
17!
1^!
1-"
1u
1D!
0_!
1`!
1T
1:
#49500
1$!
1"!
1!!
1~
1}
0|
1v!
1t!
1%"
1$"
1#"
0""
0Q!
1R!
1S!
1T!
1E!
1G!
1l!
1n!
0b
1c
1d
1e
1V
1X
1W!
1U!
10
1/
1.
0-
1#
1!
1h
1f
1=
1;
#50000
01
0U
0]!
07!
0^!
#51000
11
1U
1]!
17!
1^!
0-"
1,"
0u
1t
1C!
0D!
1_!
1S
0T
0:
19
#51500
0%!
0"!
0!!
0w!
0t!
0%"
0T!
0E!
0H!
0l!
0o!
0e
0V
0Y
0X!
0U!
00
0$
0!
0i
0f
0>
0;
#52000
01
0U
0]!
07!
0^!
#53000
11
1U
1]!
17!
1^!
1-"
1u
1D!
0_!
0`!
1a!
1T
1:
#53500
1)!
0(!
0'!
0&!
1"!
1!!
0~
1{!
0z!
0y!
0x!
1t!
1%"
0$"
0S!
1T!
1E!
0I!
0J!
0K!
1L!
1l!
0p!
0q!
0r!
1s!
0d
1e
1V
0Z
0[
0\
1]
1\!
0[!
0Z!
0Y!
1U!
10
0/
1(
0'
0&
0%
1!
1m
0l
0k
0j
1f
1B
0A
0@
0?
1;
#54000
01
0U
0]!
07!
0^!
#55000
11
1U
1]!
17!
1^!
0-"
0,"
1+"
0u
0t
1s
1B!
0C!
0D!
1_!
1R
0S
0T
0:
09
18
#55500
0)!
1(!
1'!
1&!
1%!
0#!
0!!
0{!
1z!
1y!
1x!
1w!
0u!
0%"
0T!
0F!
1H!
1I!
1J!
1K!
0L!
0m!
1o!
1p!
1q!
1r!
0s!
0e
0W
1Y
1Z
1[
1\
0]
0\!
1[!
1Z!
1Y!
1X!
0V!
00
0(
1'
1&
1%
1$
0"
0m
1l
1k
1j
1i
0g
0B
1A
1@
1?
1>
0<
#56000
01
0U
0]!
07!
0^!
#57000
11
1U
1]!
17!
1^!
1-"
1u
1D!
0_!
1`!
1T
1:
#57500
1)!
0(!
0'!
0&!
1#!
0"!
1!!
1~
0}
1{!
0z!
0y!
0x!
1u!
0t!
1%"
1$"
0#"
0R!
1S!
1T!
0E!
1F!
0I!
0J!
0K!
1L!
0l!
1m!
0p!
0q!
0r!
1s!
0c
1d
1e
0V
1W
0Z
0[
0\
1]
1\!
0[!
0Z!
0Y!
1V!
0U!
10
1/
0.
1(
0'
0&
0%
1"
0!
1m
0l
0k
0j
1g
0f
1B
0A
0@
0?
1<
0;
#58000
01
0U
0]!
07!
0^!
#59000
11
1U
1]!
17!
1^!
0-"
1,"
0u
1t
1C!
0D!
1_!
1S
0T
0:
19
#59500
0)!
1(!
1'!
1&!
0%!
0#!
1"!
0!!
0{!
1z!
1y!
1x!
0w!
0u!
1t!
0%"
0T!
1E!
0F!
0H!
1I!
1J!
1K!
0L!
1l!
0m!
0o!
1p!
1q!
1r!
0s!
0e
1V
0W
0Y
1Z
1[
1\
0]
0\!
1[!
1Z!
1Y!
0X!
0V!
1U!
00
0(
1'
1&
1%
0$
0"
1!
0m
1l
1k
1j
0i
0g
1f
0B
1A
1@
1?
0>
0<
1;
#60000
01
0U
0]!
07!
0^!
#61000
11
1U
1]!
17!
1^!
1-"
1u
1D!
0_!
0`!
0a!
0b!
1c!
1T
0d!
1e!
1:
#61500
1)!
0(!
0'!
0&!
0$!
1#!
1!!
0~
1{!
0z!
0y!
0x!
0v!
1u!
1%"
0$"
0S!
1T!
1F!
0G!
0I!
0J!
0K!
1L!
1m!
0n!
0p!
0q!
0r!
1s!
0d
1e
1W
0X
0Z
0[
0\
1]
1\!
0[!
0Z!
0Y!
0W!
1V!
10
0/
1(
0'
0&
0%
0#
1"
1m
0l
0k
0j
0h
1g
1B
0A
0@
0?
0=
1<
