Lab07/simulation/qsim/main.msim.vcd
$comment
	File created using the following command:
		vcd file main.msim.vcd -direction
$end
$date
	Wed Jun 05 12:33:55 2024
$end
$version
	ModelSim Version 10.5b
$end
$timescale
	1ps
$end

$scope module main_vhd_vec_tst $end
$var wire 1 ! A [7] $end
$var wire 1 " A [6] $end
$var wire 1 # A [5] $end
$var wire 1 $ A [4] $end
$var wire 1 % A [3] $end
$var wire 1 & A [2] $end
$var wire 1 ' A [1] $end
$var wire 1 ( A [0] $end
$var wire 1 ) B [7] $end
$var wire 1 * B [6] $end
$var wire 1 + B [5] $end
$var wire 1 , B [4] $end
$var wire 1 - B [3] $end
$var wire 1 . B [2] $end
$var wire 1 / B [1] $end
$var wire 1 0 B [0] $end
$var wire 1 1 CLK_BASE_FAST $end
$var wire 1 2 CLK_BASE_SLOW $end
$var wire 1 3 CONTINUE $end
$var wire 1 4 FAST_CLK $end
$var wire 1 5 MEM_CTRL $end
$var wire 1 6 O [7] $end
$var wire 1 7 O [6] $end
$var wire 1 8 O [5] $end
$var wire 1 9 O [4] $end
$var wire 1 : O [3] $end
$var wire 1 ; O [2] $end
$var wire 1 < O [1] $end
$var wire 1 = O [0] $end
$var wire 1 > S [7] $end
$var wire 1 ? S [6] $end
$var wire 1 @ S [5] $end
$var wire 1 A S [4] $end
$var wire 1 B S [3] $end
$var wire 1 C S [2] $end
$var wire 1 D S [1] $end
$var wire 1 E S [0] $end
$var wire 1 F SERIAL_OUT $end
$var wire 1 G SLOW_CLK $end
$var wire 1 H state [3] $end
$var wire 1 I state [2] $end
$var wire 1 J state [1] $end
$var wire 1 K state [0] $end
$var wire 1 L STOPPED $end

$scope module i1 $end
$var wire 1 M gnd $end
$var wire 1 N vcc $end
$var wire 1 O unknown $end
$var wire 1 P devoe $end
$var wire 1 Q devclrn $end
$var wire 1 R devpor $end
$var wire 1 S ww_devoe $end
$var wire 1 T ww_devclrn $end
$var wire 1 U ww_devpor $end
$var wire 1 V ww_MEM_CTRL $end
$var wire 1 W ww_CLK_BASE_SLOW $end
$var wire 1 X ww_CLK_BASE_FAST $end
$var wire 1 Y ww_CONTINUE $end
$var wire 1 Z ww_state [3] $end
$var wire 1 [ ww_state [2] $end
$var wire 1 \ ww_state [1] $end
$var wire 1 ] ww_state [0] $end
$var wire 1 ^ ww_S [7] $end
$var wire 1 _ ww_S [6] $end
$var wire 1 ` ww_S [5] $end
$var wire 1 a ww_S [4] $end
$var wire 1 b ww_S [3] $end
$var wire 1 c ww_S [2] $end
$var wire 1 d ww_S [1] $end
$var wire 1 e ww_S [0] $end
$var wire 1 f ww_A [7] $end
$var wire 1 g ww_A [6] $end
$var wire 1 h ww_A [5] $end
$var wire 1 i ww_A [4] $end
$var wire 1 j ww_A [3] $end
$var wire 1 k ww_A [2] $end
$var wire 1 l ww_A [1] $end
$var wire 1 m ww_A [0] $end
$var wire 1 n ww_O [7] $end
$var wire 1 o ww_O [6] $end
$var wire 1 p ww_O [5] $end
$var wire 1 q ww_O [4] $end
$var wire 1 r ww_O [3] $end
$var wire 1 s ww_O [2] $end
$var wire 1 t ww_O [1] $end
$var wire 1 u ww_O [0] $end
$var wire 1 v ww_B [7] $end
$var wire 1 w ww_B [6] $end
$var wire 1 x ww_B [5] $end
$var wire 1 y ww_B [4] $end
$var wire 1 z ww_B [3] $end
$var wire 1 { ww_B [2] $end
$var wire 1 | ww_B [1] $end
$var wire 1 } ww_B [0] $end
$var wire 1 ~ ww_SERIAL_OUT $end
$var wire 1 !! ww_FAST_CLK $end
$var wire 1 "! ww_SLOW_CLK $end
$var wire 1 #! ww_STOPPED $end
$var wire 1 $! \inst3|altsyncram_component|auto_generated|ram_block1a0_PORTAADDR_bus\ [7] $end
$var wire 1 %! \inst3|altsyncram_component|auto_generated|ram_block1a0_PORTAADDR_bus\ [6] $end
$var wire 1 &! \inst3|altsyncram_component|auto_generated|ram_block1a0_PORTAADDR_bus\ [5] $end
$var wire 1 '! \inst3|altsyncram_component|auto_generated|ram_block1a0_PORTAADDR_bus\ [4] $end
$var wire 1 (! \inst3|altsyncram_component|auto_generated|ram_block1a0_PORTAADDR_bus\ [3] $end
$var wire 1 )! \inst3|altsyncram_component|auto_generated|ram_block1a0_PORTAADDR_bus\ [2] $end
$var wire 1 *! \inst3|altsyncram_component|auto_generated|ram_block1a0_PORTAADDR_bus\ [1] $end
$var wire 1 +! \inst3|altsyncram_component|auto_generated|ram_block1a0_PORTAADDR_bus\ [0] $end
$var wire 1 ,! \inst3|altsyncram_component|auto_generated|ram_block1a0_PORTADATAOUT_bus\ [17] $end
$var wire 1 -! \inst3|altsyncram_component|auto_generated|ram_block1a0_PORTADATAOUT_bus\ [16] $end
$var wire 1 .! \inst3|altsyncram_component|auto_generated|ram_block1a0_PORTADATAOUT_bus\ [15] $end
$var wire 1 /! \inst3|altsyncram_component|auto_generated|ram_block1a0_PORTADATAOUT_bus\ [14] $end
$var wire 1 0! \inst3|altsyncram_component|auto_generated|ram_block1a0_PORTADATAOUT_bus\ [13] $end
$var wire 1 1! \inst3|altsyncram_component|auto_generated|ram_block1a0_PORTADATAOUT_bus\ [12] $end
$var wire 1 2! \inst3|altsyncram_component|auto_generated|ram_block1a0_PORTADATAOUT_bus\ [11] $end
$var wire 1 3! \inst3|altsyncram_component|auto_generated|ram_block1a0_PORTADATAOUT_bus\ [10] $end
$var wire 1 4! \inst3|altsyncram_component|auto_generated|ram_block1a0_PORTADATAOUT_bus\ [9] $end
$var wire 1 5! \inst3|altsyncram_component|auto_generated|ram_block1a0_PORTADATAOUT_bus\ [8] $end
$var wire 1 6! \inst3|altsyncram_component|auto_generated|ram_block1a0_PORTADATAOUT_bus\ [7] $end
$var wire 1 7! \inst3|altsyncram_component|auto_generated|ram_block1a0_PORTADATAOUT_bus\ [6] $end
$var wire 1 8! \inst3|altsyncram_component|auto_generated|ram_block1a0_PORTADATAOUT_bus\ [5] $end
$var wire 1 9! \inst3|altsyncram_component|auto_generated|ram_block1a0_PORTADATAOUT_bus\ [4] $end
$var wire 1 :! \inst3|altsyncram_component|auto_generated|ram_block1a0_PORTADATAOUT_bus\ [3] $end
$var wire 1 ;! \inst3|altsyncram_component|auto_generated|ram_block1a0_PORTADATAOUT_bus\ [2] $end
$var wire 1 <! \inst3|altsyncram_component|auto_generated|ram_block1a0_PORTADATAOUT_bus\ [1] $end
$var wire 1 =! \inst3|altsyncram_component|auto_generated|ram_block1a0_PORTADATAOUT_bus\ [0] $end
$var wire 1 >! \~QUARTUS_CREATED_ADC1~_CHSEL_bus\ [4] $end
$var wire 1 ?! \~QUARTUS_CREATED_ADC1~_CHSEL_bus\ [3] $end
$var wire 1 @! \~QUARTUS_CREATED_ADC1~_CHSEL_bus\ [2] $end
$var wire 1 A! \~QUARTUS_CREATED_ADC1~_CHSEL_bus\ [1] $end
$var wire 1 B! \~QUARTUS_CREATED_ADC1~_CHSEL_bus\ [0] $end
$var wire 1 C! \~QUARTUS_CREATED_ADC2~_CHSEL_bus\ [4] $end
$var wire 1 D! \~QUARTUS_CREATED_ADC2~_CHSEL_bus\ [3] $end
$var wire 1 E! \~QUARTUS_CREATED_ADC2~_CHSEL_bus\ [2] $end
$var wire 1 F! \~QUARTUS_CREATED_ADC2~_CHSEL_bus\ [1] $end
$var wire 1 G! \~QUARTUS_CREATED_ADC2~_CHSEL_bus\ [0] $end
$var wire 1 H! \inst12|FAST_CLK~clkctrl_INCLK_bus\ [3] $end
$var wire 1 I! \inst12|FAST_CLK~clkctrl_INCLK_bus\ [2] $end
$var wire 1 J! \inst12|FAST_CLK~clkctrl_INCLK_bus\ [1] $end
$var wire 1 K! \inst12|FAST_CLK~clkctrl_INCLK_bus\ [0] $end
$var wire 1 L! \inst12|SLOW_CLK~clkctrl_INCLK_bus\ [3] $end
$var wire 1 M! \inst12|SLOW_CLK~clkctrl_INCLK_bus\ [2] $end
$var wire 1 N! \inst12|SLOW_CLK~clkctrl_INCLK_bus\ [1] $end
$var wire 1 O! \inst12|SLOW_CLK~clkctrl_INCLK_bus\ [0] $end
$var wire 1 P! \~QUARTUS_CREATED_GND~I_combout\ $end
$var wire 1 Q! \~QUARTUS_CREATED_UNVM~~busy\ $end
$var wire 1 R! \~QUARTUS_CREATED_ADC1~~eoc\ $end
$var wire 1 S! \~QUARTUS_CREATED_ADC2~~eoc\ $end
$var wire 1 T! \MEM_CTRL~output_o\ $end
$var wire 1 U! \state[3]~output_o\ $end
$var wire 1 V! \state[2]~output_o\ $end
$var wire 1 W! \state[1]~output_o\ $end
$var wire 1 X! \state[0]~output_o\ $end
$var wire 1 Y! \S[7]~output_o\ $end
$var wire 1 Z! \S[6]~output_o\ $end
$var wire 1 [! \S[5]~output_o\ $end
$var wire 1 \! \S[4]~output_o\ $end
$var wire 1 ]! \S[3]~output_o\ $end
$var wire 1 ^! \S[2]~output_o\ $end
$var wire 1 _! \S[1]~output_o\ $end
$var wire 1 `! \S[0]~output_o\ $end
$var wire 1 a! \A[7]~output_o\ $end
$var wire 1 b! \A[6]~output_o\ $end
$var wire 1 c! \A[5]~output_o\ $end
$var wire 1 d! \A[4]~output_o\ $end
$var wire 1 e! \A[3]~output_o\ $end
$var wire 1 f! \A[2]~output_o\ $end
$var wire 1 g! \A[1]~output_o\ $end
$var wire 1 h! \A[0]~output_o\ $end
$var wire 1 i! \O[7]~output_o\ $end
$var wire 1 j! \O[6]~output_o\ $end
$var wire 1 k! \O[5]~output_o\ $end
$var wire 1 l! \O[4]~output_o\ $end
$var wire 1 m! \O[3]~output_o\ $end
$var wire 1 n! \O[2]~output_o\ $end
$var wire 1 o! \O[1]~output_o\ $end
$var wire 1 p! \O[0]~output_o\ $end
$var wire 1 q! \B[7]~output_o\ $end
$var wire 1 r! \B[6]~output_o\ $end
$var wire 1 s! \B[5]~output_o\ $end
$var wire 1 t! \B[4]~output_o\ $end
$var wire 1 u! \B[3]~output_o\ $end
$var wire 1 v! \B[2]~output_o\ $end
$var wire 1 w! \B[1]~output_o\ $end
$var wire 1 x! \B[0]~output_o\ $end
$var wire 1 y! \SERIAL_OUT~output_o\ $end
$var wire 1 z! \FAST_CLK~output_o\ $end
$var wire 1 {! \SLOW_CLK~output_o\ $end
$var wire 1 |! \STOPPED~output_o\ $end
$var wire 1 }! \CLK_BASE_SLOW~input_o\ $end
$var wire 1 ~! \CLK_BASE_FAST~input_o\ $end
$var wire 1 !" \inst12|FAST_CLK~combout\ $end
$var wire 1 "" \inst12|FAST_CLK~clkctrl_outclk\ $end
$var wire 1 #" \inst8|count[0]~8_combout\ $end
$var wire 1 $" \inst8|count[1]~7_combout\ $end
$var wire 1 %" \inst8|count[2]~6_combout\ $end
$var wire 1 &" \inst8|count[3]~5_combout\ $end
$var wire 1 '" \inst8|Equal0~0_combout\ $end
$var wire 1 (" \inst8|count[4]~4_combout\ $end
$var wire 1 )" \inst8|count[5]~3_combout\ $end
$var wire 1 *" \inst8|count~2_combout\ $end
$var wire 1 +" \inst8|count~0_combout\ $end
$var wire 1 ," \inst8|count~1_combout\ $end
$var wire 1 -" \inst8|count[7]~feeder_combout\ $end
$var wire 1 ." \inst6|dff7~0_combout\ $end
$var wire 1 /" \inst6|dff7~feeder_combout\ $end
$var wire 1 0" \inst6|dff6~0_combout\ $end
$var wire 1 1" \inst6|dff6~feeder_combout\ $end
$var wire 1 2" \inst6|dff5~0_combout\ $end
$var wire 1 3" \inst6|dff5~feeder_combout\ $end
$var wire 1 4" \inst6|dff4~0_combout\ $end
$var wire 1 5" \inst6|dff4~feeder_combout\ $end
$var wire 1 6" \inst6|dff3~0_combout\ $end
$var wire 1 7" \inst6|dff3~feeder_combout\ $end
$var wire 1 8" \inst6|dff2~0_combout\ $end
$var wire 1 9" \inst6|dff2~feeder_combout\ $end
$var wire 1 :" \inst6|dff1~0_combout\ $end
$var wire 1 ;" \inst6|dff1~feeder_combout\ $end
$var wire 1 <" \inst6|ld0|Dout~0_combout\ $end
$var wire 1 =" \inst6|dff0~q\ $end
$var wire 1 >" \inst6|dff1~q\ $end
$var wire 1 ?" \inst6|dff2~q\ $end
$var wire 1 @" \inst6|dff3~q\ $end
$var wire 1 A" \inst6|dff4~q\ $end
$var wire 1 B" \inst6|dff5~q\ $end
$var wire 1 C" \inst6|dff6~q\ $end
$var wire 1 D" \inst6|dff7~q\ $end
$var wire 1 E" \inst6|S~feeder_combout\ $end
$var wire 1 F" \inst6|S~q\ $end
$var wire 1 G" \inst7|Mux0~0_combout\ $end
$var wire 1 H" \inst7|Mux2~0_combout\ $end
$var wire 1 I" \inst7|Mux1~0_combout\ $end
$var wire 1 J" \CONTINUE~input_o\ $end
$var wire 1 K" \inst12|STOPPED~0_combout\ $end
$var wire 1 L" \inst12|SLOW_CLK~combout\ $end
$var wire 1 M" \inst12|SLOW_CLK~clkctrl_outclk\ $end
$var wire 1 N" \inst9~0_combout\ $end
$var wire 1 O" \inst9~feeder_combout\ $end
$var wire 1 P" \inst9~q\ $end
$var wire 1 Q" \inst1~feeder_combout\ $end
$var wire 1 R" \inst1~q\ $end
$var wire 1 S" \inst2~feeder_combout\ $end
$var wire 1 T" \inst2~q\ $end
$var wire 1 U" \inst|S[0]~0_combout\ $end
$var wire 1 V" \inst3|altsyncram_component|auto_generated|q_a\ [7] $end
$var wire 1 W" \inst3|altsyncram_component|auto_generated|q_a\ [6] $end
$var wire 1 X" \inst3|altsyncram_component|auto_generated|q_a\ [5] $end
$var wire 1 Y" \inst3|altsyncram_component|auto_generated|q_a\ [4] $end
$var wire 1 Z" \inst3|altsyncram_component|auto_generated|q_a\ [3] $end
$var wire 1 [" \inst3|altsyncram_component|auto_generated|q_a\ [2] $end
$var wire 1 \" \inst3|altsyncram_component|auto_generated|q_a\ [1] $end
$var wire 1 ]" \inst3|altsyncram_component|auto_generated|q_a\ [0] $end
$var wire 1 ^" \inst4|altsyncram_component|auto_generated|q_a\ [7] $end
$var wire 1 _" \inst4|altsyncram_component|auto_generated|q_a\ [6] $end
$var wire 1 `" \inst4|altsyncram_component|auto_generated|q_a\ [5] $end
$var wire 1 a" \inst4|altsyncram_component|auto_generated|q_a\ [4] $end
$var wire 1 b" \inst4|altsyncram_component|auto_generated|q_a\ [3] $end
$var wire 1 c" \inst4|altsyncram_component|auto_generated|q_a\ [2] $end
$var wire 1 d" \inst4|altsyncram_component|auto_generated|q_a\ [1] $end
$var wire 1 e" \inst4|altsyncram_component|auto_generated|q_a\ [0] $end
$var wire 1 f" \inst8|count\ [7] $end
$var wire 1 g" \inst8|count\ [6] $end
$var wire 1 h" \inst8|count\ [5] $end
$var wire 1 i" \inst8|count\ [4] $end
$var wire 1 j" \inst8|count\ [3] $end
$var wire 1 k" \inst8|count\ [2] $end
$var wire 1 l" \inst8|count\ [1] $end
$var wire 1 m" \inst8|count\ [0] $end
$var wire 1 n" \inst7|estado\ [3] $end
$var wire 1 o" \inst7|estado\ [2] $end
$var wire 1 p" \inst7|estado\ [1] $end
$var wire 1 q" \inst7|estado\ [0] $end
$var wire 1 r" \inst12|ALT_INV_SLOW_CLK~clkctrl_outclk\ $end
$var wire 1 s" \inst12|ALT_INV_SLOW_CLK~combout\ $end
$var wire 1 t" \inst8|ALT_INV_count\ [7] $end
$upscope $end
$upscope $end
$enddefinitions $end
#0
$dumpvars
01
02
03
04
05
0F
0G
0L
0M
1N
xO
1P
1Q
1R
1S
1T
1U
0V
0W
0X
0Y
0~
0!!
0"!
0#!
0P!
zQ!
zR!
zS!
0T!
0U!
0V!
0W!
0X!
0Y!
0Z!
0[!
0\!
0]!
0^!
0_!
0`!
0a!
0b!
0c!
0d!
0e!
0f!
0g!
0h!
0i!
0j!
0k!
0l!
0m!
0n!
0o!
0p!
0q!
0r!
0s!
0t!
0u!
0v!
0w!
0x!
0y!
0z!
0{!
0|!
0}!
0~!
0!"
0""
1#"
0$"
0%"
0&"
0'"
0("
0)"
0*"
1+"
0,"
0-"
0."
0/"
00"
01"
02"
03"
04"
05"
06"
07"
08"
09"
0:"
0;"
0<"
0="
0>"
0?"
0@"
0A"
0B"
0C"
0D"
0E"
0F"
0G"
0H"
0I"
0J"
0K"
0L"
0M"
1N"
1O"
0P"
0Q"
0R"
0S"
0T"
0U"
1r"
1s"
0$!
0%!
0&!
0'!
0(!
0)!
0*!
0+!
0Z
0[
0\
0]
0^
0_
0`
0a
0b
0c
0d
0e
0f
0g
0h
0i
0j
0k
0l
0m
0n
0o
0p
0q
0r
0s
0t
0u
0v
0w
0x
0y
0z
0{
0|
0}
0,!
0-!
0.!
0/!
00!
01!
02!
03!
04!
05!
06!
07!
08!
09!
0:!
0;!
0<!
0=!
0V"
0W"
0X"
0Y"
0Z"
0["
0\"
0]"
0^"
0_"
0`"
0a"
0b"
0c"
0d"
0e"
0f"
0g"
0h"
0i"
0j"
0k"
0l"
0m"
xn"
0o"
0p"
0q"
1t"
1H!
1I!
1J!
0K!
1L!
1M!
1N!
0O!
0>!
0?!
0@!
0A!
0B!
0C!
0D!
0E!
0F!
0G!
0!
0"
0#
0$
0%
0&
0'
0(
0)
0*
0+
0,
0-
0.
0/
00
06
07
08
09
0:
0;
0<
0=
0>
0?
0@
0A
0B
0C
0D
0E
0H
0I
0J
0K
$end
#50
11
1X
1~!
1!"
1K!
1z!
1!!
14
1""
#100
01
0X
0~!
0!"
0K!
0z!
0!!
04
0""
#150
11
1X
1~!
1!"
1K!
1z!
1!!
14
1""
#200
01
0X
0~!
0!"
0K!
0z!
0!!
04
0""
#250
11
1X
1~!
1!"
1K!
1z!
1!!
14
1""
#300
01
0X
0~!
0!"
0K!
0z!
0!!
04
0""
#350
11
1X
1~!
1!"
1K!
1z!
1!!
14
1""
#400
01
0X
0~!
0!"
0K!
0z!
0!!
04
0""
#450
11
1X
1~!
1!"
1K!
1z!
1!!
14
1""
#500
01
0X
0~!
0!"
0K!
0z!
0!!
04
0""
#550
11
1X
1~!
1!"
1K!
1z!
1!!
14
1""
#600
01
0X
0~!
0!"
0K!
0z!
0!!
04
0""
#650
11
1X
1~!
1!"
1K!
1z!
1!!
14
1""
#700
01
0X
0~!
0!"
0K!
0z!
0!!
04
0""
#750
11
1X
1~!
1!"
1K!
1z!
1!!
14
1""
#800
01
12
0X
1W
1}!
0~!
0!"
1L"
0s"
0K!
1O!
1{!
0z!
1"!
0!!
1G
04
1M"
0""
0r"
1m"
1+!
1p!
0#"
1$"
1u
1=
#850
11
1X
1~!
1!"
1K!
1z!
1!!
14
1""
#900
01
0X
0~!
0!"
0K!
0z!
0!!
04
0""
#950
11
1X
1~!
1!"
1K!
1z!
1!!
14
1""
#1000
01
0X
0~!
0!"
0K!
0z!
0!!
04
0""
#1050
11
1X
1~!
1!"
1K!
1z!
1!!
14
1""
#1100
01
0X
0~!
0!"
0K!
0z!
0!!
04
0""
#1150
11
1X
1~!
1!"
1K!
1z!
1!!
14
1""
#1200
01
0X
0~!
0!"
0K!
0z!
0!!
04
0""
#1250
11
1X
1~!
1!"
1K!
1z!
1!!
14
1""
#1300
01
0X
0~!
0!"
0K!
0z!
0!!
04
0""
#1350
11
1X
1~!
1!"
1K!
1z!
1!!
14
1""
#1400
01
0X
0~!
0!"
0K!
0z!
0!!
04
0""
#1450
11
1X
1~!
1!"
1K!
1z!
1!!
14
1""
#1500
01
0X
0~!
0!"
0K!
0z!
0!!
04
0""
#1550
11
1X
1~!
1!"
1K!
1z!
1!!
14
1""
#1600
01
02
0X
0W
0}!
0~!
0!"
0L"
1s"
0K!
0O!
0{!
0z!
0"!
0!!
0G
04
0M"
0""
1r"
#1650
11
1X
1~!
1!"
1K!
1z!
1!!
14
1""
#1700
01
0X
0~!
0!"
0K!
0z!
0!!
04
0""
#1750
11
1X
1~!
1!"
1K!
1z!
1!!
14
1""
#1800
01
0X
0~!
0!"
0K!
0z!
0!!
04
0""
#1850
11
1X
1~!
1!"
1K!
1z!
1!!
14
1""
#1900
01
0X
0~!
0!"
0K!
0z!
0!!
04
0""
#1950
11
1X
1~!
1!"
1K!
1z!
1!!
14
1""
#2000
01
0X
0~!
0!"
0K!
0z!
0!!
04
0""
#2050
11
1X
1~!
1!"
1K!
1z!
1!!
14
1""
#2100
01
0X
0~!
0!"
0K!
0z!
0!!
04
0""
#2150
11
1X
1~!
1!"
1K!
1z!
1!!
14
1""
#2200
01
0X
0~!
0!"
0K!
0z!
0!!
04
0""
#2250
11
1X
1~!
1!"
1K!
1z!
1!!
14
1""
#2300
01
0X
0~!
0!"
0K!
0z!
0!!
04
0""
#2350
11
1X
1~!
1!"
1K!
1z!
1!!
14
1""
#2400
01
12
0X
1W
1}!
0~!
0!"
1L"
0s"
0K!
1O!
1{!
0z!
1"!
0!!
1G
04
1M"
0""
0r"
0m"
1l"
0+!
1*!
1o!
0p!
1#"
15!
14!
13!
12!
11!
10!
1/!
1.!
1t
0u
1e"
1d"
1c"
1b"
1a"
1`"
1_"
1^"
0=
1<
1q!
1r!
1s!
1t!
1u!
1v!
1w!
1x!
1v
1w
1x
1y
1z
1{
1|
1}
10
1/
1.
1-
1,
1+
1*
1)
#2450
11
1X
1~!
1!"
1K!
1z!
1!!
14
1""
#2500
01
0X
0~!
0!"
0K!
0z!
0!!
04
0""
#2550
11
1X
1~!
1!"
1K!
1z!
1!!
14
1""
#2600
01
0X
0~!
0!"
0K!
0z!
0!!
04
0""
#2650
11
1X
1~!
1!"
1K!
1z!
1!!
14
1""
#2700
01
0X
0~!
0!"
0K!
0z!
0!!
04
0""
#2750
11
1X
1~!
1!"
1K!
1z!
1!!
14
1""
#2800
01
0X
0~!
0!"
0K!
0z!
0!!
04
0""
#2850
11
1X
1~!
1!"
1K!
1z!
1!!
14
1""
#2900
01
0X
0~!
0!"
0K!
0z!
0!!
04
0""
#2950
11
1X
1~!
1!"
1K!
1z!
1!!
14
1""
#3000
01
0X
0~!
0!"
0K!
0z!
0!!
04
0""
#3050
11
1X
1~!
1!"
1K!
1z!
1!!
14
1""
#3100
01
0X
0~!
0!"
0K!
0z!
0!!
04
0""
#3150
11
1X
1~!
1!"
1K!
1z!
1!!
14
1""
#3200
01
02
0X
0W
0}!
0~!
0!"
0L"
1s"
0K!
0O!
0{!
0z!
0"!
0!!
0G
04
0M"
0""
1r"
#3250
11
1X
1~!
1!"
1K!
1z!
1!!
14
1""
#3300
01
0X
0~!
0!"
0K!
0z!
0!!
04
0""
#3350
11
1X
1~!
1!"
1K!
1z!
1!!
14
1""
#3400
01
0X
0~!
0!"
0K!
0z!
0!!
04
0""
#3450
11
1X
1~!
1!"
1K!
1z!
1!!
14
1""
#3500
01
0X
0~!
0!"
0K!
0z!
0!!
04
0""
#3550
11
1X
1~!
1!"
1K!
1z!
1!!
14
1""
#3600
01
0X
0~!
0!"
0K!
0z!
0!!
04
0""
#3650
11
1X
1~!
1!"
1K!
1z!
1!!
14
1""
#3700
01
0X
0~!
0!"
0K!
0z!
0!!
04
0""
#3750
11
1X
1~!
1!"
1K!
1z!
1!!
14
1""
#3800
01
0X
0~!
0!"
0K!
0z!
0!!
04
0""
#3850
11
1X
1~!
1!"
1K!
1z!
1!!
14
1""
#3900
01
0X
0~!
0!"
0K!
0z!
0!!
04
0""
#3950
11
1X
1~!
1!"
1K!
1z!
1!!
14
1""
#4000
01
12
0X
1W
1}!
0~!
0!"
1L"
0s"
0K!
1O!
1{!
0z!
1"!
0!!
1G
04
1M"
0""
0r"
1m"
1+!
1p!
0#"
0$"
1%"
1=!
1<!
1;!
1:!
19!
05!
1u
1]"
1\"
1["
1Z"
1Y"
0e"
1=
0x!
1d!
1e!
1f!
1g!
1h!
14"
16"
18"
1:"
1<"
1U"
0}
1i
1j
1k
1l
1m
1`!
1_!
1^!
1]!
1\!
1;"
19"
17"
15"
00
1(
1'
1&
1%
1$
1e
1d
1c
1b
1a
1E
1D
1C
1B
1A
#4050
11
1X
1~!
1!"
1K!
1z!
1!!
14
1""
1="
1>"
1?"
1@"
1A"
#4100
01
0X
0~!
0!"
0K!
0z!
0!!
04
0""
#4150
11
1X
1~!
1!"
1K!
1z!
1!!
14
1""
#4200
01
0X
0~!
0!"
0K!
0z!
0!!
04
0""
#4250
11
1X
1~!
1!"
1K!
1z!
1!!
14
1""
#4300
01
0X
0~!
0!"
0K!
0z!
0!!
04
0""
#4350
11
1X
1~!
1!"
1K!
1z!
1!!
14
1""
#4400
01
0X
0~!
0!"
0K!
0z!
0!!
04
0""
#4450
11
1X
1~!
1!"
1K!
1z!
1!!
14
1""
#4500
01
0X
0~!
0!"
0K!
0z!
0!!
04
0""
#4550
11
1X
1~!
1!"
1K!
1z!
1!!
14
1""
#4600
01
0X
0~!
0!"
0K!
0z!
0!!
04
0""
#4650
11
1X
1~!
1!"
1K!
1z!
1!!
14
1""
#4700
01
0X
0~!
0!"
0K!
0z!
0!!
04
0""
#4750
11
1X
1~!
1!"
1K!
1z!
1!!
14
1""
#4800
01
02
0X
0W
0}!
0~!
0!"
0L"
1s"
0K!
0O!
0{!
0z!
0<"
0"!
0!!
0G
04
0M"
0""
1r"
#4850
11
1X
1~!
1!"
1K!
1z!
1!!
14
1""
0="
1B"
#4900
01
0X
0~!
0!"
0K!
0z!
0!!
04
0""
#4950
11
1X
1~!
1!"
1K!
1z!
1!!
14
1""
0>"
1C"
#5000
01
0X
0~!
0!"
0K!
0z!
0!!
04
0""
#5050
11
1X
1~!
1!"
1K!
1z!
1!!
14
1""
0?"
1D"
1E"
#5100
01
0X
0~!
0!"
0K!
0z!
0!!
04
0""
#5150
11
1X
1~!
1!"
1K!
1z!
1!!
14
1""
0@"
1F"
1y!
1H"
1~
1F
#5200
01
0X
0~!
0!"
0K!
0z!
0!!
04
0""
#5250
11
1X
1~!
1!"
1K!
1z!
1q"
1!!
1X!
14
1""
1]
1K
0A"
#5300
01
0X
0~!
0!"
0K!
0z!
0!!
04
0""
#5350
11
1X
1~!
1!"
1K!
1z!
1!!
14
1""
0B"
#5400
01
0X
0~!
0!"
0K!
0z!
0!!
04
0""
#5450
11
1X
1~!
1!"
1K!
1z!
1!!
14
1""
0C"
#5500
01
0X
0~!
0!"
0K!
0z!
0!!
04
0""
#5550
11
1X
1~!
1!"
1K!
1z!
1!!
14
1""
0D"
0E"
#5600
01
12
0X
1W
1}!
0~!
0!"
1L"
0s"
0K!
1O!
1{!
0z!
1<"
1"!
0!!
1G
04
1M"
0""
0r"
0m"
0l"
1k"
0F"
0+!
0*!
1)!
1n!
0o!
0p!
1#"
0=!
0<!
0;!
0:!
09!
18!
15!
04!
0y!
0H"
1I"
1s
0t
0u
0]"
0\"
0["
0Z"
0Y"
1X"
1e"
0d"
0~
0=
0<
1;
0w!
1x!
1c!
0d!
0e!
0f!
0g!
0h!
12"
04"
06"
08"
0:"
0<"
0U"
0F
0|
1}
1h
0i
0j
0k
0l
0m
0`!
0_!
0^!
0]!
0\!
1[!
0;"
09"
07"
05"
13"
10
0/
0(
0'
0&
0%
0$
1#
0e
0d
0c
0b
0a
1`
0E
0D
0C
0B
0A
1@
#5650
11
1X
1~!
1!"
1K!
1z!
0q"
1p"
1!!
1W!
0X!
0I"
14
1""
1\
0]
0K
1J
1B"
#5700
01
0X
0~!
0!"
0K!
0z!
0!!
04
0""
#5750
11
1X
1~!
1!"
1K!
1z!
0p"
1!!
0W!
14
1""
0\
0J
#5800
01
0X
0~!
0!"
0K!
0z!
0!!
04
0""
#5850
11
1X
1~!
1!"
1K!
1z!
1!!
14
1""
#5900
01
0X
0~!
0!"
0K!
0z!
0!!
04
0""
#5950
11
1X
1~!
1!"
1K!
1z!
1!!
14
1""
#6000
01
0X
0~!
0!"
0K!
0z!
0!!
04
0""
#6050
11
1X
1~!
1!"
1K!
1z!
1!!
14
1""
#6100
01
0X
0~!
0!"
0K!
0z!
0!!
04
0""
#6150
11
1X
1~!
1!"
1K!
1z!
1!!
14
1""
#6200
01
0X
0~!
0!"
0K!
0z!
0!!
04
0""
#6250
11
1X
1~!
1!"
1K!
1z!
1!!
14
1""
#6300
01
0X
0~!
0!"
0K!
0z!
0!!
04
0""
#6350
11
1X
1~!
1!"
1K!
1z!
1!!
14
1""
#6400
01
02
0X
0W
0}!
0~!
0!"
0L"
1s"
0K!
0O!
0{!
0z!
0"!
0!!
0G
04
0M"
0""
1r"
#6450
11
1X
1~!
1!"
1K!
1z!
1!!
14
1""
0B"
1C"
#6500
01
0X
0~!
0!"
0K!
0z!
0!!
04
0""
#6550
11
1X
1~!
1!"
1K!
1z!
1!!
14
1""
0C"
1D"
1E"
#6600
01
0X
0~!
0!"
0K!
0z!
0!!
04
0""
#6650
11
1X
1~!
1!"
1K!
1z!
1!!
14
1""
0D"
1F"
1y!
1H"
0E"
1~
1F
#6700
01
0X
0~!
0!"
0K!
0z!
0!!
04
0""
#6750
11
1X
1~!
1!"
1K!
1z!
1q"
1!!
1X!
14
1""
1]
1K
0F"
0y!
0H"
1I"
0~
0F
#6800
01
0X
0~!
0!"
0K!
0z!
0!!
04
0""
#6850
11
1X
1~!
1!"
1K!
1z!
0q"
1p"
1!!
1W!
0X!
0I"
14
1""
1\
0]
0K
1J
#6900
01
0X
0~!
0!"
0K!
0z!
0!!
04
0""
#6950
11
1X
1~!
1!"
1K!
1z!
0p"
1!!
0W!
14
1""
0\
0J
#7000
01
0X
0~!
0!"
0K!
0z!
0!!
04
0""
#7050
11
1X
1~!
1!"
1K!
1z!
1!!
14
1""
#7100
01
0X
0~!
0!"
0K!
0z!
0!!
04
0""
#7150
11
1X
1~!
1!"
1K!
1z!
1!!
14
1""
