Lab04/simulation/qsim/main.msim.vcd
$comment
	File created using the following command:
		vcd file main.msim.vcd -direction
$end
$date
	Tue Apr 23 22:10:42 2024
$end
$version
	ModelSim Version 10.5b
$end
$timescale
	1ps
$end

$scope module tmp_vhd_vec_tst $end
$var wire 1 ! A0 $end
$var wire 1 " A1 $end
$var wire 1 # A2 $end
$var wire 1 $ A3 $end
$var wire 1 % B0 $end
$var wire 1 & B1 $end
$var wire 1 ' B2 $end
$var wire 1 ( B3 $end
$var wire 1 ) clk $end
$var wire 1 * RSST $end

$scope module i1 $end
$var wire 1 + gnd $end
$var wire 1 , vcc $end
$var wire 1 - unknown $end
$var wire 1 . devoe $end
$var wire 1 / devclrn $end
$var wire 1 0 devpor $end
$var wire 1 1 ww_devoe $end
$var wire 1 2 ww_devclrn $end
$var wire 1 3 ww_devpor $end
$var wire 1 4 ww_A3 $end
$var wire 1 5 ww_clk $end
$var wire 1 6 ww_RSST $end
$var wire 1 7 ww_A2 $end
$var wire 1 8 ww_A1 $end
$var wire 1 9 ww_A0 $end
$var wire 1 : ww_B3 $end
$var wire 1 ; ww_B2 $end
$var wire 1 < ww_B1 $end
$var wire 1 = ww_B0 $end
$var wire 1 > \~QUARTUS_CREATED_ADC1~_CHSEL_bus\ [4] $end
$var wire 1 ? \~QUARTUS_CREATED_ADC1~_CHSEL_bus\ [3] $end
$var wire 1 @ \~QUARTUS_CREATED_ADC1~_CHSEL_bus\ [2] $end
$var wire 1 A \~QUARTUS_CREATED_ADC1~_CHSEL_bus\ [1] $end
$var wire 1 B \~QUARTUS_CREATED_ADC1~_CHSEL_bus\ [0] $end
$var wire 1 C \~QUARTUS_CREATED_ADC2~_CHSEL_bus\ [4] $end
$var wire 1 D \~QUARTUS_CREATED_ADC2~_CHSEL_bus\ [3] $end
$var wire 1 E \~QUARTUS_CREATED_ADC2~_CHSEL_bus\ [2] $end
$var wire 1 F \~QUARTUS_CREATED_ADC2~_CHSEL_bus\ [1] $end
$var wire 1 G \~QUARTUS_CREATED_ADC2~_CHSEL_bus\ [0] $end
$var wire 1 H \inst|OUT_CLK~clkctrl_INCLK_bus\ [3] $end
$var wire 1 I \inst|OUT_CLK~clkctrl_INCLK_bus\ [2] $end
$var wire 1 J \inst|OUT_CLK~clkctrl_INCLK_bus\ [1] $end
$var wire 1 K \inst|OUT_CLK~clkctrl_INCLK_bus\ [0] $end
$var wire 1 L \RSST~inputclkctrl_INCLK_bus\ [3] $end
$var wire 1 M \RSST~inputclkctrl_INCLK_bus\ [2] $end
$var wire 1 N \RSST~inputclkctrl_INCLK_bus\ [1] $end
$var wire 1 O \RSST~inputclkctrl_INCLK_bus\ [0] $end
$var wire 1 P \clk~inputclkctrl_INCLK_bus\ [3] $end
$var wire 1 Q \clk~inputclkctrl_INCLK_bus\ [2] $end
$var wire 1 R \clk~inputclkctrl_INCLK_bus\ [1] $end
$var wire 1 S \clk~inputclkctrl_INCLK_bus\ [0] $end
$var wire 1 T \~QUARTUS_CREATED_GND~I_combout\ $end
$var wire 1 U \~QUARTUS_CREATED_UNVM~~busy\ $end
$var wire 1 V \~QUARTUS_CREATED_ADC1~~eoc\ $end
$var wire 1 W \~QUARTUS_CREATED_ADC2~~eoc\ $end
$var wire 1 X \A3~output_o\ $end
$var wire 1 Y \A2~output_o\ $end
$var wire 1 Z \A1~output_o\ $end
$var wire 1 [ \A0~output_o\ $end
$var wire 1 \ \B3~output_o\ $end
$var wire 1 ] \B2~output_o\ $end
$var wire 1 ^ \B1~output_o\ $end
$var wire 1 _ \B0~output_o\ $end
$var wire 1 ` \clk~input_o\ $end
$var wire 1 a \clk~inputclkctrl_outclk\ $end
$var wire 1 b \inst|count[0]~3_combout\ $end
$var wire 1 c \RSST~input_o\ $end
$var wire 1 d \RSST~inputclkctrl_outclk\ $end
$var wire 1 e \inst|count~1_combout\ $end
$var wire 1 f \inst|count~2_combout\ $end
$var wire 1 g \inst|count[3]~0_combout\ $end
$var wire 1 h \inst|Equal0~0_combout\ $end
$var wire 1 i \inst|OUT_CLK~0_combout\ $end
$var wire 1 j \inst|OUT_CLK~feeder_combout\ $end
$var wire 1 k \inst|OUT_CLK~q\ $end
$var wire 1 l \inst|OUT_CLK~clkctrl_outclk\ $end
$var wire 1 m \inst1|count[0]~3_combout\ $end
$var wire 1 n \inst1|count~2_combout\ $end
$var wire 1 o \inst1|count[2]~1_combout\ $end
$var wire 1 p \inst1|count~0_combout\ $end
$var wire 1 q \inst|count\ [3] $end
$var wire 1 r \inst|count\ [2] $end
$var wire 1 s \inst|count\ [1] $end
$var wire 1 t \inst|count\ [0] $end
$var wire 1 u \inst1|count\ [3] $end
$var wire 1 v \inst1|count\ [2] $end
$var wire 1 w \inst1|count\ [1] $end
$var wire 1 x \inst1|count\ [0] $end
$var wire 1 y \ALT_INV_RSST~inputclkctrl_outclk\ $end
$var wire 1 z \inst|ALT_INV_OUT_CLK~clkctrl_outclk\ $end
$upscope $end
$upscope $end
$enddefinitions $end
#0
$dumpvars
0!
0"
0#
0$
0%
0&
0'
0(
0)
0*
0+
1,
x-
1.
1/
10
11
12
13
04
05
06
07
08
09
0:
0;
0<
0=
0T
zU
zV
zW
0X
0Y
0Z
0[
0\
0]
0^
0_
0`
0a
1b
0c
0d
0e
0f
0g
0h
1i
1j
0k
0l
1m
0n
0o
0p
1y
1z
0q
0r
0s
0t
0u
0v
0w
0x
1P
1Q
1R
0S
1L
1M
1N
0O
1H
1I
1J
0K
0>
0?
0@
0A
0B
0C
0D
0E
0F
0G
$end
#10000
1)
15
1`
1S
1a
1t
1k
1K
1[
0b
1f
19
1!
1l
0z
#20000
0)
05
0`
0S
0a
#30000
1)
15
1`
1S
1a
0t
1s
1Z
0[
1b
18
09
1"
0!
#40000
0)
05
0`
0S
0a
#50000
1)
15
1`
1S
1a
1t
1[
0b
1e
0f
19
1!
#60000
0)
05
0`
0S
0a
#70000
1)
15
1`
1S
1a
0t
1r
0s
0Z
1Y
0[
1b
08
17
09
0"
1#
0!
#80000
0)
05
0`
0S
0a
#90000
1)
15
1`
1S
1a
1t
1[
0b
0e
1h
19
0i
1!
0j
#100000
0)
05
0`
0S
0a
#110000
1)
15
1`
1S
1a
0t
0r
0k
0K
0Y
0[
1b
0h
07
09
1i
0#
0!
0l
1j
1z
1x
1_
0m
1n
1=
1%
#120000
0)
05
0`
0S
0a
#130000
1)
15
1`
1S
1a
1t
1k
1K
1[
0b
1f
19
1!
1l
0z
#140000
0)
05
0`
0S
0a
#150000
1)
15
1`
1S
1a
0t
1s
1Z
0[
1b
18
09
1"
0!
#160000
0)
05
0`
0S
0a
#170000
1)
15
1`
1S
1a
1t
1[
0b
1e
0f
19
1!
#180000
0)
05
0`
0S
0a
#190000
1)
15
1`
1S
1a
0t
1r
0s
0Z
1Y
0[
1b
08
17
09
0"
1#
0!
#200000
0)
05
0`
0S
0a
#210000
1)
15
1`
1S
1a
1t
1[
0b
0e
1h
19
0i
1!
0j
#220000
0)
05
0`
0S
0a
#230000
1)
15
1`
1S
1a
0t
0r
0k
0K
0Y
0[
1b
0h
07
09
1i
0#
0!
0l
1j
1z
0x
1w
1^
0_
1m
1<
0=
1&
0%
#240000
0)
05
0`
0S
0a
#250000
1)
15
1`
1S
1a
1t
1k
1K
1[
0b
1f
19
1!
1l
0z
#260000
0)
05
0`
0S
0a
#270000
1)
15
1`
1S
1a
0t
1s
1Z
0[
1b
18
09
1"
0!
#280000
0)
05
0`
0S
0a
#290000
1)
15
1`
1S
1a
1t
1[
0b
1e
0f
19
1!
#300000
0)
05
0`
0S
0a
#310000
1)
15
1`
1S
1a
0t
1r
0s
0Z
1Y
0[
1b
08
17
09
0"
1#
0!
#320000
0)
05
0`
0S
0a
#330000
1)
15
1`
1S
1a
1t
1[
0b
0e
1h
19
0i
1!
0j
#340000
0)
05
0`
0S
0a
#350000
1)
15
1`
1S
1a
0t
0r
0k
0K
0Y
0[
1b
0h
07
09
1i
0#
0!
0l
1j
1z
1x
1_
0m
0n
1o
1=
1%
#360000
0)
05
0`
0S
0a
#370000
1)
15
1`
1S
1a
1t
1k
1K
1[
0b
1f
19
1!
1l
0z
#380000
0)
05
0`
0S
0a
#390000
1)
15
1`
1S
1a
0t
1s
1Z
0[
1b
18
09
1"
0!
#400000
0)
05
0`
0S
0a
#410000
1)
15
1`
1S
1a
1t
1[
0b
1e
0f
19
1!
#420000
0)
05
0`
0S
0a
#430000
1)
15
1`
1S
1a
0t
1r
0s
0Z
1Y
0[
1b
08
17
09
0"
1#
0!
#440000
0)
05
0`
0S
0a
#450000
1)
15
1`
1S
1a
1t
1[
0b
0e
1h
19
0i
1!
0j
#460000
0)
05
0`
0S
0a
#470000
1)
15
1`
1S
1a
0t
0r
0k
0K
0Y
0[
1b
0h
07
09
1i
0#
0!
0l
1j
1z
0x
0w
1v
1]
0^
0_
1m
1;
0<
0=
1'
0&
0%
#480000
0)
05
0`
0S
0a
#490000
1)
15
1`
1S
1a
1t
1k
1K
1[
0b
1f
19
1!
1l
0z
#500000
0)
05
0`
0S
0a
#510000
1)
15
1`
1S
1a
0t
1s
1Z
0[
1b
18
09
1"
0!
#520000
0)
05
0`
0S
0a
#530000
1)
15
1`
1S
1a
1t
1[
0b
1e
0f
19
1!
#540000
0)
05
0`
0S
0a
#550000
1)
15
1`
1S
1a
0t
1r
0s
0Z
1Y
0[
1b
08
17
09
0"
1#
0!
#560000
0)
05
0`
0S
0a
#570000
1)
15
1`
1S
1a
1t
1[
0b
0e
1h
19
0i
1!
0j
#580000
0)
05
0`
0S
0a
#590000
1)
15
1`
1S
1a
0t
0r
0k
0K
0Y
0[
1b
0h
07
09
1i
0#
0!
0l
1j
1z
1x
1_
0m
1n
1=
1%
#600000
0)
05
0`
0S
0a
#610000
1)
15
1`
1S
1a
1t
1k
1K
1[
0b
1f
19
1!
1l
0z
#620000
0)
05
0`
0S
0a
#630000
1)
15
1`
1S
1a
0t
1s
1Z
0[
1b
18
09
1"
0!
#640000
0)
05
0`
0S
0a
#650000
1)
15
1`
1S
1a
1t
1[
0b
1e
0f
19
1!
#660000
0)
05
0`
0S
0a
#670000
1)
15
1`
1S
1a
0t
1r
0s
0Z
1Y
0[
1b
08
17
09
0"
1#
0!
#680000
0)
05
0`
0S
0a
#690000
1)
15
1`
1S
1a
1t
1[
0b
0e
1h
19
0i
1!
0j
#700000
0)
05
0`
0S
0a
#710000
1)
15
1`
1S
1a
0t
0r
0k
0K
0Y
0[
1b
0h
07
09
1i
0#
0!
0l
1j
1z
0x
1w
1^
0_
1m
1<
0=
1&
0%
#720000
0)
05
0`
0S
0a
#730000
1)
15
1`
1S
1a
1t
1k
1K
1[
0b
1f
19
1!
1l
0z
#740000
0)
05
0`
0S
0a
#750000
1)
15
1`
1S
1a
0t
1s
1Z
0[
1b
18
09
1"
0!
#760000
0)
05
0`
0S
0a
#770000
1)
15
1`
1S
1a
1t
1[
0b
1e
0f
19
1!
#780000
0)
05
0`
0S
0a
#790000
1)
15
1`
1S
1a
0t
1r
0s
0Z
1Y
0[
1b
08
17
09
0"
1#
0!
#800000
0)
05
0`
0S
0a
#810000
1)
15
1`
1S
1a
1t
1[
0b
0e
1h
19
0i
1!
0j
#820000
0)
05
0`
0S
0a
#830000
1)
15
1`
1S
1a
0t
0r
0k
0K
0Y
0[
1b
0h
07
09
1i
0#
0!
0l
1j
1z
1x
1_
0m
0n
0o
1p
1=
1%
#840000
0)
05
0`
0S
0a
#850000
1)
15
1`
1S
1a
1t
1k
1K
1[
0b
1f
19
1!
1l
0z
#860000
0)
05
0`
0S
0a
#870000
1)
15
1`
1S
1a
0t
1s
1Z
0[
1b
18
09
1"
0!
#880000
0)
05
0`
0S
0a
#890000
1)
15
1`
1S
1a
1t
1[
0b
1e
0f
19
1!
#900000
0)
05
0`
0S
0a
#910000
1)
15
1`
1S
1a
0t
1r
0s
0Z
1Y
0[
1b
08
17
09
0"
1#
0!
#920000
0)
05
0`
0S
0a
#930000
1)
15
1`
1S
1a
1t
1[
0b
0e
1h
19
0i
1!
0j
#940000
0)
05
0`
0S
0a
#950000
1)
15
1`
1S
1a
0t
0r
0k
0K
0Y
0[
1b
0h
07
09
1i
0#
0!
0l
1j
1z
0x
0w
0v
1u
1\
0]
0^
0_
1m
1:
0;
0<
0=
1(
0'
0&
0%
#960000
0)
05
0`
0S
0a
#970000
1)
15
1`
1S
1a
1t
1k
1K
1[
0b
1f
19
1!
1l
0z
#980000
0)
05
0`
0S
0a
#990000
1)
15
1`
1S
1a
0t
1s
1Z
0[
1b
18
09
1"
0!
