Lab04/simulation/qsim/main.msim.vcd
$comment
	File created using the following command:
		vcd file main.msim.vcd -direction
$end
$date
	Tue Apr 23 21:01:13 2024
$end
$version
	ModelSim Version 10.5b
$end
$timescale
	1ps
$end

$scope module main_vhd_vec_tst $end
$var wire 1 ! C00 $end
$var wire 1 " C01 $end
$var wire 1 # C02 $end
$var wire 1 $ C03 $end
$var wire 1 % C10 $end
$var wire 1 & C11 $end
$var wire 1 ' C12 $end
$var wire 1 ( C13 $end
$var wire 1 ) C20 $end
$var wire 1 * C21 $end
$var wire 1 + C22 $end
$var wire 1 , C23 $end
$var wire 1 - CLK $end
$var wire 1 . RST $end

$scope module i1 $end
$var wire 1 / gnd $end
$var wire 1 0 vcc $end
$var wire 1 1 unknown $end
$var wire 1 2 devoe $end
$var wire 1 3 devclrn $end
$var wire 1 4 devpor $end
$var wire 1 5 ww_devoe $end
$var wire 1 6 ww_devclrn $end
$var wire 1 7 ww_devpor $end
$var wire 1 8 ww_C03 $end
$var wire 1 9 ww_CLK $end
$var wire 1 : ww_RST $end
$var wire 1 ; ww_C01 $end
$var wire 1 < ww_C00 $end
$var wire 1 = ww_C02 $end
$var wire 1 > ww_C13 $end
$var wire 1 ? ww_C12 $end
$var wire 1 @ ww_C11 $end
$var wire 1 A ww_C10 $end
$var wire 1 B ww_C23 $end
$var wire 1 C ww_C22 $end
$var wire 1 D ww_C21 $end
$var wire 1 E ww_C20 $end
$var wire 1 F \~QUARTUS_CREATED_ADC1~_CHSEL_bus\ [4] $end
$var wire 1 G \~QUARTUS_CREATED_ADC1~_CHSEL_bus\ [3] $end
$var wire 1 H \~QUARTUS_CREATED_ADC1~_CHSEL_bus\ [2] $end
$var wire 1 I \~QUARTUS_CREATED_ADC1~_CHSEL_bus\ [1] $end
$var wire 1 J \~QUARTUS_CREATED_ADC1~_CHSEL_bus\ [0] $end
$var wire 1 K \~QUARTUS_CREATED_ADC2~_CHSEL_bus\ [4] $end
$var wire 1 L \~QUARTUS_CREATED_ADC2~_CHSEL_bus\ [3] $end
$var wire 1 M \~QUARTUS_CREATED_ADC2~_CHSEL_bus\ [2] $end
$var wire 1 N \~QUARTUS_CREATED_ADC2~_CHSEL_bus\ [1] $end
$var wire 1 O \~QUARTUS_CREATED_ADC2~_CHSEL_bus\ [0] $end
$var wire 1 P \inst|count[3]~clkctrl_INCLK_bus\ [3] $end
$var wire 1 Q \inst|count[3]~clkctrl_INCLK_bus\ [2] $end
$var wire 1 R \inst|count[3]~clkctrl_INCLK_bus\ [1] $end
$var wire 1 S \inst|count[3]~clkctrl_INCLK_bus\ [0] $end
$var wire 1 T \inst2|count[3]~clkctrl_INCLK_bus\ [3] $end
$var wire 1 U \inst2|count[3]~clkctrl_INCLK_bus\ [2] $end
$var wire 1 V \inst2|count[3]~clkctrl_INCLK_bus\ [1] $end
$var wire 1 W \inst2|count[3]~clkctrl_INCLK_bus\ [0] $end
$var wire 1 X \CLK~inputclkctrl_INCLK_bus\ [3] $end
$var wire 1 Y \CLK~inputclkctrl_INCLK_bus\ [2] $end
$var wire 1 Z \CLK~inputclkctrl_INCLK_bus\ [1] $end
$var wire 1 [ \CLK~inputclkctrl_INCLK_bus\ [0] $end
$var wire 1 \ \RST~inputclkctrl_INCLK_bus\ [3] $end
$var wire 1 ] \RST~inputclkctrl_INCLK_bus\ [2] $end
$var wire 1 ^ \RST~inputclkctrl_INCLK_bus\ [1] $end
$var wire 1 _ \RST~inputclkctrl_INCLK_bus\ [0] $end
$var wire 1 ` \~QUARTUS_CREATED_GND~I_combout\ $end
$var wire 1 a \~QUARTUS_CREATED_UNVM~~busy\ $end
$var wire 1 b \~QUARTUS_CREATED_ADC1~~eoc\ $end
$var wire 1 c \~QUARTUS_CREATED_ADC2~~eoc\ $end
$var wire 1 d \C03~output_o\ $end
$var wire 1 e \C01~output_o\ $end
$var wire 1 f \C00~output_o\ $end
$var wire 1 g \C02~output_o\ $end
$var wire 1 h \C13~output_o\ $end
$var wire 1 i \C12~output_o\ $end
$var wire 1 j \C11~output_o\ $end
$var wire 1 k \C10~output_o\ $end
$var wire 1 l \C23~output_o\ $end
$var wire 1 m \C22~output_o\ $end
$var wire 1 n \C21~output_o\ $end
$var wire 1 o \C20~output_o\ $end
$var wire 1 p \CLK~input_o\ $end
$var wire 1 q \CLK~inputclkctrl_outclk\ $end
$var wire 1 r \inst|count[0]~3_combout\ $end
$var wire 1 s \RST~input_o\ $end
$var wire 1 t \RST~inputclkctrl_outclk\ $end
$var wire 1 u \inst|count~1_combout\ $end
$var wire 1 v \inst|count[1]~feeder_combout\ $end
$var wire 1 w \inst|count[2]~2_combout\ $end
$var wire 1 x \inst|count~0_combout\ $end
$var wire 1 y \inst|count[3]~feeder_combout\ $end
$var wire 1 z \inst|count[3]~clkctrl_outclk\ $end
$var wire 1 { \inst2|count[0]~3_combout\ $end
$var wire 1 | \inst2|count[2]~1_combout\ $end
$var wire 1 } \inst2|count~2_combout\ $end
$var wire 1 ~ \inst2|count[1]~feeder_combout\ $end
$var wire 1 !! \inst2|count~0_combout\ $end
$var wire 1 "! \inst2|count[3]~feeder_combout\ $end
$var wire 1 #! \inst2|count[3]~clkctrl_outclk\ $end
$var wire 1 $! \inst3|count[0]~3_combout\ $end
$var wire 1 %! \inst3|count~2_combout\ $end
$var wire 1 &! \inst3|count[2]~1_combout\ $end
$var wire 1 '! \inst3|count~0_combout\ $end
$var wire 1 (! \inst|count\ [3] $end
$var wire 1 )! \inst|count\ [2] $end
$var wire 1 *! \inst|count\ [1] $end
$var wire 1 +! \inst|count\ [0] $end
$var wire 1 ,! \inst2|count\ [3] $end
$var wire 1 -! \inst2|count\ [2] $end
$var wire 1 .! \inst2|count\ [1] $end
$var wire 1 /! \inst2|count\ [0] $end
$var wire 1 0! \inst3|count\ [3] $end
$var wire 1 1! \inst3|count\ [2] $end
$var wire 1 2! \inst3|count\ [1] $end
$var wire 1 3! \inst3|count\ [0] $end
$var wire 1 4! \ALT_INV_RST~inputclkctrl_outclk\ $end
$var wire 1 5! \inst2|ALT_INV_count[3]~clkctrl_outclk\ $end
$var wire 1 6! \inst|ALT_INV_count[3]~clkctrl_outclk\ $end
$upscope $end
$upscope $end
$enddefinitions $end
#0
$dumpvars
0!
0"
0#
0$
0%
0&
0'
0(
0)
0*
0+
0,
0-
0.
0/
10
x1
12
13
14
15
16
17
08
09
0:
0;
0<
0=
0>
0?
0@
0A
0B
0C
0D
0E
0`
za
zb
zc
0d
0e
0f
0g
0h
0i
0j
0k
0l
0m
0n
0o
0p
0q
1r
0s
0t
0u
0v
0w
0x
0y
0z
1{
0|
0}
0~
0!!
0"!
0#!
1$!
0%!
0&!
0'!
14!
15!
16!
0(!
0)!
0*!
0+!
0,!
0-!
0.!
0/!
00!
01!
02!
03!
1X
1Y
1Z
0[
1\
1]
1^
0_
1P
1Q
1R
0S
1T
1U
1V
0W
0F
0G
0H
0I
0J
0K
0L
0M
0N
0O
$end
#1000
1-
19
1p
1[
1q
1+!
1f
0r
1u
1<
1v
1!
#2000
0-
09
0p
0[
0q
#3000
1-
19
1p
1[
1q
0+!
1*!
1e
0f
1r
1;
0<
1"
0!
#4000
0-
09
0p
0[
0q
#5000
1-
19
1p
1[
1q
1+!
1f
0r
0u
1w
1<
0v
1!
#6000
0-
09
0p
0[
0q
#7000
1-
19
1p
1[
1q
0+!
0*!
1)!
1g
0e
0f
1r
1=
0;
0<
1#
0"
0!
#8000
0-
09
0p
0[
0q
#9000
1-
19
1p
1[
1q
1+!
1f
0r
1u
1<
1v
1!
#10000
0-
09
0p
0[
0q
#11000
1-
19
1p
1[
1q
0+!
1*!
1e
0f
1r
1;
0<
1"
0!
#12000
0-
09
0p
0[
0q
#13000
1-
19
1p
1[
1q
1+!
1f
0r
0u
0w
1x
1<
1y
0v
1!
#14000
0-
09
0p
0[
0q
#15000
1-
19
1p
1[
1q
0+!
0*!
0)!
1(!
1S
1d
0g
0e
0f
1r
18
0=
0;
0<
1$
0#
0"
0!
1z
06!
#16000
0-
09
0p
0[
0q
#17000
1-
19
1p
1[
1q
1+!
1f
0r
0x
1<
0y
1!
#18000
0-
09
0p
0[
0q
#19000
1-
19
1p
1[
1q
0+!
0(!
0S
0d
0f
1r
08
0<
0$
0!
0z
16!
1/!
1k
0{
1}
1A
1~
1%
#20000
0-
09
0p
0[
0q
#21000
1-
19
1p
1[
1q
1+!
1f
0r
1u
1<
1v
1!
#22000
0-
09
0p
0[
0q
#23000
1-
19
1p
1[
1q
0+!
1*!
1e
0f
1r
1;
0<
1"
0!
#24000
0-
09
0p
0[
0q
#25000
1-
19
1p
1[
1q
1+!
1f
0r
0u
1w
1<
0v
1!
#26000
0-
09
0p
0[
0q
#27000
1-
19
1p
1[
1q
0+!
0*!
1)!
1g
0e
0f
1r
1=
0;
0<
1#
0"
0!
#28000
0-
09
0p
0[
0q
#29000
1-
19
1p
1[
1q
1+!
1f
0r
1u
1<
1v
1!
#30000
0-
09
0p
0[
0q
#31000
1-
19
1p
1[
1q
0+!
1*!
1e
0f
1r
1;
0<
1"
0!
#32000
0-
09
0p
0[
0q
#33000
1-
19
1p
1[
1q
1+!
1f
0r
0u
0w
1x
1<
1y
0v
1!
#34000
0-
09
0p
0[
0q
#35000
1-
19
1p
1[
1q
0+!
0*!
0)!
1(!
1S
1d
0g
0e
0f
1r
18
0=
0;
0<
1$
0#
0"
0!
1z
06!
#36000
0-
09
0p
0[
0q
#37000
1-
19
1p
1[
1q
1+!
1f
0r
0x
1<
0y
1!
#38000
0-
09
0p
0[
0q
#39000
1-
19
1p
1[
1q
0+!
0(!
0S
0d
0f
1r
08
0<
0$
0!
0z
16!
0/!
1.!
1j
0k
1{
1@
0A
1&
0%
#40000
0-
09
0p
0[
0q
#41000
1-
19
1p
1[
1q
1+!
1f
0r
1u
1<
1v
1!
#42000
0-
09
0p
0[
0q
#43000
1-
19
1p
1[
1q
0+!
1*!
1e
0f
1r
1;
0<
1"
0!
#44000
0-
09
0p
0[
0q
#45000
1-
19
1p
1[
1q
1+!
1f
0r
0u
1w
1<
0v
1!
#46000
0-
09
0p
0[
0q
#47000
1-
19
1p
1[
1q
0+!
0*!
1)!
1g
0e
0f
1r
1=
0;
0<
1#
0"
0!
#48000
0-
09
0p
0[
0q
#49000
1-
19
1p
1[
1q
1+!
1f
0r
1u
1<
1v
1!
#50000
0-
09
0p
0[
0q
#51000
1-
19
1p
1[
1q
0+!
1*!
1e
0f
1r
1;
0<
1"
0!
#52000
0-
09
0p
0[
0q
#53000
1-
19
1p
1[
1q
1+!
1f
0r
0u
0w
1x
1<
1y
0v
1!
#54000
0-
09
0p
0[
0q
#55000
1-
19
1p
1[
1q
0+!
0*!
0)!
1(!
1S
1d
0g
0e
0f
1r
18
0=
0;
0<
1$
0#
0"
0!
1z
06!
#56000
0-
09
0p
0[
0q
#57000
1-
19
1p
1[
1q
1+!
1f
0r
0x
1<
0y
1!
#58000
0-
09
0p
0[
0q
#59000
1-
19
1p
1[
1q
0+!
0(!
0S
0d
0f
1r
08
0<
0$
0!
0z
16!
1/!
1k
0{
1|
0}
1A
0~
1%
#60000
0-
09
0p
0[
0q
#61000
1-
19
1p
1[
1q
1+!
1f
0r
1u
1<
1v
1!
#62000
0-
09
0p
0[
0q
#63000
1-
19
1p
1[
1q
0+!
1*!
1e
0f
1r
1;
0<
1"
0!
#64000
0-
09
0p
0[
0q
#65000
1-
19
1p
1[
1q
1+!
1f
0r
0u
1w
1<
0v
1!
#66000
0-
09
0p
0[
0q
#67000
1-
19
1p
1[
1q
0+!
0*!
1)!
1g
0e
0f
1r
1=
0;
0<
1#
0"
0!
#68000
0-
09
0p
0[
0q
#69000
1-
19
1p
1[
1q
1+!
1f
0r
1u
1<
1v
1!
#70000
0-
09
0p
0[
0q
#71000
1-
19
1p
1[
1q
0+!
1*!
1e
0f
1r
1;
0<
1"
0!
#72000
0-
09
0p
0[
0q
#73000
1-
19
1p
1[
1q
1+!
1f
0r
0u
0w
1x
1<
1y
0v
1!
#74000
0-
09
0p
0[
0q
#75000
1-
19
1p
1[
1q
0+!
0*!
0)!
1(!
1S
1d
0g
0e
0f
1r
18
0=
0;
0<
1$
0#
0"
0!
1z
06!
#76000
0-
09
0p
0[
0q
#77000
1-
19
1p
1[
1q
1+!
1f
0r
0x
1<
0y
1!
#78000
0-
09
0p
0[
0q
#79000
1-
19
1p
1[
1q
0+!
0(!
0S
0d
0f
1r
08
0<
0$
0!
0z
16!
0/!
1-!
0.!
0j
1i
0k
1{
0@
1?
0A
0&
1'
0%
#80000
0-
09
0p
0[
0q
#81000
1-
19
1p
1[
1q
1+!
1f
0r
1u
1<
1v
1!
#82000
0-
09
0p
0[
0q
#83000
1-
19
1p
1[
1q
0+!
1*!
1e
0f
1r
1;
0<
1"
0!
#84000
0-
09
0p
0[
0q
#85000
1-
19
1p
1[
1q
1+!
1f
0r
0u
1w
1<
0v
1!
#86000
0-
09
0p
0[
0q
#87000
1-
19
1p
1[
1q
0+!
0*!
1)!
1g
0e
0f
1r
1=
0;
0<
1#
0"
0!
#88000
0-
09
0p
0[
0q
#89000
1-
19
1p
1[
1q
1+!
1f
0r
1u
1<
1v
1!
#90000
0-
09
0p
0[
0q
#91000
1-
19
1p
1[
1q
0+!
1*!
1e
0f
1r
1;
0<
1"
0!
#92000
0-
09
0p
0[
0q
#93000
1-
19
1p
1[
1q
1+!
1f
0r
0u
0w
1x
1<
1y
0v
1!
#94000
0-
09
0p
0[
0q
#95000
1-
19
1p
1[
1q
0+!
0*!
0)!
1(!
1S
1d
0g
0e
0f
1r
18
0=
0;
0<
1$
0#
0"
0!
1z
06!
#96000
0-
09
0p
0[
0q
#97000
1-
19
1p
1[
1q
1+!
1f
0r
0x
1<
0y
1!
#98000
0-
09
0p
0[
0q
#99000
1-
19
1p
1[
1q
0+!
0(!
0S
0d
0f
1r
08
0<
0$
0!
0z
16!
1/!
1k
0{
1}
1A
1~
1%
#100000
0-
09
0p
0[
0q
#101000
1-
19
1p
1[
1q
1+!
1f
0r
1u
1<
1v
1!
#102000
0-
09
0p
0[
0q
#103000
1-
19
1p
1[
1q
0+!
1*!
1e
0f
1r
1;
0<
1"
0!
#104000
0-
09
0p
0[
0q
#105000
1-
19
1p
1[
1q
1+!
1f
0r
0u
1w
1<
0v
1!
#106000
0-
09
0p
0[
0q
#107000
1-
19
1p
1[
1q
0+!
0*!
1)!
1g
0e
0f
1r
1=
0;
0<
1#
0"
0!
#108000
0-
09
0p
0[
0q
#109000
1-
19
1p
1[
1q
1+!
1f
0r
1u
1<
1v
1!
#110000
0-
09
0p
0[
0q
#111000
1-
19
1p
1[
1q
0+!
1*!
1e
0f
1r
1;
0<
1"
0!
#112000
0-
09
0p
0[
0q
#113000
1-
19
1p
1[
1q
1+!
1f
0r
0u
0w
1x
1<
1y
0v
1!
#114000
0-
09
0p
0[
0q
#115000
1-
19
1p
1[
1q
0+!
0*!
0)!
1(!
1S
1d
0g
0e
0f
1r
18
0=
0;
0<
1$
0#
0"
0!
1z
06!
#116000
0-
09
0p
0[
0q
#117000
1-
19
1p
1[
1q
1+!
1f
0r
0x
1<
0y
1!
#118000
0-
09
0p
0[
0q
#119000
1-
19
1p
1[
1q
0+!
0(!
0S
0d
0f
1r
08
0<
0$
0!
0z
16!
0/!
1.!
1j
0k
1{
1@
0A
1&
0%
#120000
0-
09
0p
0[
0q
#121000
1-
19
1p
1[
1q
1+!
1f
0r
1u
1<
1v
1!
#122000
0-
09
0p
0[
0q
#123000
1-
19
1p
1[
1q
0+!
1*!
1e
0f
1r
1;
0<
1"
0!
#124000
0-
09
0p
0[
0q
#125000
1-
19
1p
1[
1q
1+!
1f
0r
0u
1w
1<
0v
1!
#126000
0-
09
0p
0[
0q
#127000
1-
19
1p
1[
1q
0+!
0*!
1)!
1g
0e
0f
1r
1=
0;
0<
1#
0"
0!
#128000
0-
09
0p
0[
0q
#129000
1-
19
1p
1[
1q
1+!
1f
0r
1u
1<
1v
1!
#130000
0-
09
0p
0[
0q
#131000
1-
19
1p
1[
1q
0+!
1*!
1e
0f
1r
1;
0<
1"
0!
#132000
0-
09
0p
0[
0q
#133000
1-
19
1p
1[
1q
1+!
1f
0r
0u
0w
1x
1<
1y
0v
1!
#134000
0-
09
0p
0[
0q
#135000
1-
19
1p
1[
1q
0+!
0*!
0)!
1(!
1S
1d
0g
0e
0f
1r
18
0=
0;
0<
1$
0#
0"
0!
1z
06!
#136000
0-
09
0p
0[
0q
#137000
1-
19
1p
1[
1q
1+!
1f
0r
0x
1<
0y
1!
#138000
0-
09
0p
0[
0q
#139000
1-
19
1p
1[
1q
0+!
0(!
0S
0d
0f
1r
08
0<
0$
0!
0z
16!
1/!
1k
0{
0|
0}
1!!
1A
1"!
0~
1%
#140000
0-
09
0p
0[
0q
#141000
1-
19
1p
1[
1q
1+!
1f
0r
1u
1<
1v
1!
#142000
0-
09
0p
0[
0q
#143000
1-
19
1p
1[
1q
0+!
1*!
1e
0f
1r
1;
0<
1"
0!
#144000
0-
09
0p
0[
0q
#145000
1-
19
1p
1[
1q
1+!
1f
0r
0u
1w
1<
0v
1!
#146000
0-
09
0p
0[
0q
#147000
1-
19
1p
1[
1q
0+!
0*!
1)!
1g
0e
0f
1r
1=
0;
0<
1#
0"
0!
#148000
0-
09
0p
0[
0q
#149000
1-
19
1p
1[
1q
1+!
1f
0r
1u
1<
1v
1!
#150000
0-
09
0p
0[
0q
#151000
1-
19
1p
1[
1q
0+!
1*!
1e
0f
1r
1;
0<
1"
0!
#152000
0-
09
0p
0[
0q
#153000
1-
19
1p
1[
1q
1+!
1f
0r
0u
0w
1x
1<
1y
0v
1!
#154000
0-
09
0p
0[
0q
#155000
1-
19
1p
1[
1q
0+!
0*!
0)!
1(!
1S
1d
0g
0e
0f
1r
18
0=
0;
0<
1$
0#
0"
0!
1z
06!
#156000
0-
09
0p
0[
0q
#157000
1-
19
1p
1[
1q
1+!
1f
0r
0x
1<
0y
1!
#158000
0-
09
0p
0[
0q
#159000
1-
19
1p
1[
1q
0+!
0(!
0S
0d
0f
1r
08
0<
0$
0!
0z
16!
0/!
0-!
0.!
1,!
1W
1h
0j
0i
0k
1{
1>
0@
0?
0A
1(
0&
0'
0%
1#!
05!
#160000
0-
09
0p
0[
0q
#161000
1-
19
1p
1[
1q
1+!
1f
0r
1u
1<
1v
1!
#162000
0-
09
0p
0[
0q
#163000
1-
19
1p
1[
1q
0+!
1*!
1e
0f
1r
1;
0<
1"
0!
#164000
0-
09
0p
0[
0q
#165000
1-
19
1p
1[
1q
1+!
1f
0r
0u
1w
1<
0v
1!
#166000
0-
09
0p
0[
0q
#167000
1-
19
1p
1[
1q
0+!
0*!
1)!
1g
0e
0f
1r
1=
0;
0<
1#
0"
0!
#168000
0-
09
0p
0[
0q
#169000
1-
19
1p
1[
1q
1+!
1f
0r
1u
1<
1v
1!
#170000
0-
09
0p
0[
0q
#171000
1-
19
1p
1[
1q
0+!
1*!
1e
0f
1r
1;
0<
1"
0!
#172000
0-
09
0p
0[
0q
#173000
1-
19
1p
1[
1q
1+!
1f
0r
0u
0w
1x
1<
1y
0v
1!
#174000
0-
09
0p
0[
0q
#175000
1-
19
1p
1[
1q
0+!
0*!
0)!
1(!
1S
1d
0g
0e
0f
1r
18
0=
0;
0<
1$
0#
0"
0!
1z
06!
#176000
0-
09
0p
0[
0q
#177000
1-
19
1p
1[
1q
1+!
1f
0r
0x
1<
0y
1!
#178000
0-
09
0p
0[
0q
#179000
1-
19
1p
1[
1q
0+!
0(!
0S
0d
0f
1r
08
0<
0$
0!
0z
16!
1/!
1k
0{
0!!
1A
0"!
1%
#180000
0-
09
0p
0[
0q
#181000
1-
19
1p
1[
1q
1+!
1f
0r
1u
1<
1v
1!
#182000
0-
09
0p
0[
0q
#183000
1-
19
1p
1[
1q
0+!
1*!
1e
0f
1r
1;
0<
1"
0!
#184000
0-
09
0p
0[
0q
#185000
1-
19
1p
1[
1q
1+!
1f
0r
0u
1w
1<
0v
1!
#186000
0-
09
0p
0[
0q
#187000
1-
19
1p
1[
1q
0+!
0*!
1)!
1g
0e
0f
1r
1=
0;
0<
1#
0"
0!
#188000
0-
09
0p
0[
0q
#189000
1-
19
1p
1[
1q
1+!
1f
0r
1u
1<
1v
1!
#190000
0-
09
0p
0[
0q
#191000
1-
19
1p
1[
1q
0+!
1*!
1e
0f
1r
1;
0<
1"
0!
#192000
0-
09
0p
0[
0q
#193000
1-
19
1p
1[
1q
1+!
1f
0r
0u
0w
1x
1<
1y
0v
1!
#194000
0-
09
0p
0[
0q
#195000
1-
19
1p
1[
1q
0+!
0*!
0)!
1(!
1S
1d
0g
0e
0f
1r
18
0=
0;
0<
1$
0#
0"
0!
1z
06!
#196000
0-
09
0p
0[
0q
#197000
1-
19
1p
1[
1q
1+!
1f
0r
0x
1<
0y
1!
#198000
0-
09
0p
0[
0q
#199000
1-
19
1p
1[
1q
0+!
0(!
0S
0d
0f
1r
08
0<
0$
0!
0z
16!
0/!
0,!
0W
0h
0k
1{
0>
0A
0(
0%
0#!
15!
13!
1o
0$!
1%!
1E
1)
#200000
0-
09
0p
0[
0q
#201000
1-
19
1p
1[
1q
1+!
1f
0r
1u
1<
1v
1!
#202000
0-
09
0p
0[
0q
#203000
1-
19
1p
1[
1q
0+!
1*!
1e
0f
1r
1;
0<
1"
0!
#204000
0-
09
0p
0[
0q
#205000
1-
19
1p
1[
1q
1+!
1f
0r
0u
1w
1<
0v
1!
#206000
0-
09
0p
0[
0q
#207000
1-
19
1p
1[
1q
0+!
0*!
1)!
1g
0e
0f
1r
1=
0;
0<
1#
0"
0!
#208000
0-
09
0p
0[
0q
#209000
1-
19
1p
1[
1q
1+!
1f
0r
1u
1<
1v
1!
#210000
0-
09
0p
0[
0q
#211000
1-
19
1p
1[
1q
0+!
1*!
1e
0f
1r
1;
0<
1"
0!
#212000
0-
09
0p
0[
0q
#213000
1-
19
1p
1[
1q
1+!
1f
0r
0u
0w
1x
1<
1y
0v
1!
#214000
0-
09
0p
0[
0q
#215000
1-
19
1p
1[
1q
0+!
0*!
0)!
1(!
1S
1d
0g
0e
0f
1r
18
0=
0;
0<
1$
0#
0"
0!
1z
06!
#216000
0-
09
0p
0[
0q
#217000
1-
19
1p
1[
1q
1+!
1f
0r
0x
1<
0y
1!
#218000
0-
09
0p
0[
0q
#219000
1-
19
1p
1[
1q
0+!
0(!
0S
0d
0f
1r
08
0<
0$
0!
0z
16!
1/!
1k
0{
1}
1A
1~
1%
#220000
0-
09
0p
0[
0q
#221000
1-
19
1p
1[
1q
1+!
1f
0r
1u
1<
1v
1!
#222000
0-
09
0p
0[
0q
#223000
1-
19
1p
1[
1q
0+!
1*!
1e
0f
1r
1;
0<
1"
0!
#224000
0-
09
0p
0[
0q
#225000
1-
19
1p
1[
1q
1+!
1f
0r
0u
1w
1<
0v
1!
#226000
0-
09
0p
0[
0q
#227000
1-
19
1p
1[
1q
0+!
0*!
1)!
1g
0e
0f
1r
1=
0;
0<
1#
0"
0!
#228000
0-
09
0p
0[
0q
#229000
1-
19
1p
1[
1q
1+!
1f
0r
1u
1<
1v
1!
#230000
0-
09
0p
0[
0q
#231000
1-
19
1p
1[
1q
0+!
1*!
1e
0f
1r
1;
0<
1"
0!
#232000
0-
09
0p
0[
0q
#233000
1-
19
1p
1[
1q
1+!
1f
0r
0u
0w
1x
1<
1y
0v
1!
#234000
0-
09
0p
0[
0q
#235000
1-
19
1p
1[
1q
0+!
0*!
0)!
1(!
1S
1d
0g
0e
0f
1r
18
0=
0;
0<
1$
0#
0"
0!
1z
06!
#236000
0-
09
0p
0[
0q
#237000
1-
19
1p
1[
1q
1+!
1f
0r
0x
1<
0y
1!
#238000
0-
09
0p
0[
0q
#239000
1-
19
1p
1[
1q
0+!
0(!
0S
0d
0f
1r
08
0<
0$
0!
0z
16!
0/!
1.!
1j
0k
1{
1@
0A
1&
0%
#240000
0-
09
0p
0[
0q
#241000
1-
19
1p
1[
1q
1+!
1f
0r
1u
1<
1v
1!
#242000
0-
09
0p
0[
0q
#243000
1-
19
1p
1[
1q
0+!
1*!
1e
0f
1r
1;
0<
1"
0!
#244000
0-
09
0p
0[
0q
#245000
1-
19
1p
1[
1q
1+!
1f
0r
0u
1w
1<
0v
1!
#246000
0-
09
0p
0[
0q
#247000
1-
19
1p
1[
1q
0+!
0*!
1)!
1g
0e
0f
1r
1=
0;
0<
1#
0"
0!
#248000
0-
09
0p
0[
0q
#249000
1-
19
1p
1[
1q
1+!
1f
0r
1u
1<
1v
1!
#250000
0-
09
0p
0[
0q
#251000
1-
19
1p
1[
1q
0+!
1*!
1e
0f
1r
1;
0<
1"
0!
#252000
0-
09
0p
0[
0q
#253000
1-
19
1p
1[
1q
1+!
1f
0r
0u
0w
1x
1<
1y
0v
1!
#254000
0-
09
0p
0[
0q
#255000
1-
19
1p
1[
1q
0+!
0*!
0)!
1(!
1S
1d
0g
0e
0f
1r
18
0=
0;
0<
1$
0#
0"
0!
1z
06!
#256000
0-
09
0p
0[
0q
#257000
1-
19
1p
1[
1q
1+!
1f
0r
0x
1<
0y
1!
#258000
0-
09
0p
0[
0q
#259000
1-
19
1p
1[
1q
0+!
0(!
0S
0d
0f
1r
08
0<
0$
0!
0z
16!
1/!
1k
0{
1|
0}
1A
0~
1%
#260000
0-
09
0p
0[
0q
#261000
1-
19
1p
1[
1q
1+!
1f
0r
1u
1<
1v
1!
#262000
0-
09
0p
0[
0q
#263000
1-
19
1p
1[
1q
0+!
1*!
1e
0f
1r
1;
0<
1"
0!
#264000
0-
09
0p
0[
0q
#265000
1-
19
1p
1[
1q
1+!
1f
0r
0u
1w
1<
0v
1!
#266000
0-
09
0p
0[
0q
#267000
1-
19
1p
1[
1q
0+!
0*!
1)!
1g
0e
0f
1r
1=
0;
0<
1#
0"
0!
#268000
0-
09
0p
0[
0q
#269000
1-
19
1p
1[
1q
1+!
1f
0r
1u
1<
1v
1!
#270000
0-
09
0p
0[
0q
#271000
1-
19
1p
1[
1q
0+!
1*!
1e
0f
1r
1;
0<
1"
0!
#272000
0-
09
0p
0[
0q
#273000
1-
19
1p
1[
1q
1+!
1f
0r
0u
0w
1x
1<
1y
0v
1!
#274000
0-
09
0p
0[
0q
#275000
1-
19
1p
1[
1q
0+!
0*!
0)!
1(!
1S
1d
0g
0e
0f
1r
18
0=
0;
0<
1$
0#
0"
0!
1z
06!
#276000
0-
09
0p
0[
0q
#277000
1-
19
1p
1[
1q
1+!
1f
0r
0x
1<
0y
1!
#278000
0-
09
0p
0[
0q
#279000
1-
19
1p
1[
1q
0+!
0(!
0S
0d
0f
1r
08
0<
0$
0!
0z
16!
0/!
1-!
0.!
0j
1i
0k
1{
0@
1?
0A
0&
1'
0%
#280000
0-
09
0p
0[
0q
#281000
1-
19
1p
1[
1q
1+!
1f
0r
1u
1<
1v
1!
#282000
0-
09
0p
0[
0q
#283000
1-
19
1p
1[
1q
0+!
1*!
1e
0f
1r
1;
0<
1"
0!
#284000
0-
09
0p
0[
0q
#285000
1-
19
1p
1[
1q
1+!
1f
0r
0u
1w
1<
0v
1!
#286000
0-
09
0p
0[
0q
#287000
1-
19
1p
1[
1q
0+!
0*!
1)!
1g
0e
0f
1r
1=
0;
0<
1#
0"
0!
#288000
0-
09
0p
0[
0q
#289000
1-
19
1p
1[
1q
1+!
1f
0r
1u
1<
1v
1!
#290000
0-
09
0p
0[
0q
#291000
1-
19
1p
1[
1q
0+!
1*!
1e
0f
1r
1;
0<
1"
0!
#292000
0-
09
0p
0[
0q
#293000
1-
19
1p
1[
1q
1+!
1f
0r
0u
0w
1x
1<
1y
0v
1!
#294000
0-
09
0p
0[
0q
#295000
1-
19
1p
1[
1q
0+!
0*!
0)!
1(!
1S
1d
0g
0e
0f
1r
18
0=
0;
0<
1$
0#
0"
0!
1z
06!
#296000
0-
09
0p
0[
0q
#297000
1-
19
1p
1[
1q
1+!
1f
0r
0x
1<
0y
1!
#298000
0-
09
0p
0[
0q
#299000
1-
19
1p
1[
1q
0+!
0(!
0S
0d
0f
1r
08
0<
0$
0!
0z
16!
1/!
1k
0{
1}
1A
1~
1%
#300000
0-
09
0p
0[
0q
#301000
1-
19
1p
1[
1q
1+!
1f
0r
1u
1<
1v
1!
#302000
0-
09
0p
0[
0q
#303000
1-
19
1p
1[
1q
0+!
1*!
1e
0f
1r
1;
0<
1"
0!
#304000
0-
09
0p
0[
0q
#305000
1-
19
1p
1[
1q
1+!
1f
0r
0u
1w
1<
0v
1!
#306000
0-
09
0p
0[
0q
#307000
1-
19
1p
1[
1q
0+!
0*!
1)!
1g
0e
0f
1r
1=
0;
0<
1#
0"
0!
#308000
0-
09
0p
0[
0q
#309000
1-
19
1p
1[
1q
1+!
1f
0r
1u
1<
1v
1!
#310000
0-
09
0p
0[
0q
#311000
1-
19
1p
1[
1q
0+!
1*!
1e
0f
1r
1;
0<
1"
0!
#312000
0-
09
0p
0[
0q
#313000
1-
19
1p
1[
1q
1+!
1f
0r
0u
0w
1x
1<
1y
0v
1!
#314000
0-
09
0p
0[
0q
#315000
1-
19
1p
1[
1q
0+!
0*!
0)!
1(!
1S
1d
0g
0e
0f
1r
18
0=
0;
0<
1$
0#
0"
0!
1z
06!
#316000
0-
09
0p
0[
0q
#317000
1-
19
1p
1[
1q
1+!
1f
0r
0x
1<
0y
1!
#318000
0-
09
0p
0[
0q
#319000
1-
19
1p
1[
1q
0+!
0(!
0S
0d
0f
1r
08
0<
0$
0!
0z
16!
0/!
1.!
1j
0k
1{
1@
0A
1&
0%
#320000
0-
09
0p
0[
0q
#321000
1-
19
1p
1[
1q
1+!
1f
0r
1u
1<
1v
1!
