P1/simulation/qsim/main.msim.vcd
$comment
	File created using the following command:
		vcd file main.msim.vcd -direction
$end
$date
	Fri May 24 11:27:49 2024
$end
$version
	ModelSim Version 10.5b
$end
$timescale
	1ps
$end

$scope module main_vlg_vec_tst $end
$var reg 1 ! AAA $end
$var reg 1 " BBB $end
$var wire 1 # a_o $end
$var wire 1 $ Qx $end
$var wire 1 % Qy $end
$var wire 1 & Qz $end
$var wire 1 ' Sa $end

$scope module i1 $end
$var wire 1 ( gnd $end
$var wire 1 ) vcc $end
$var wire 1 * unknown $end
$var tri1 1 + devclrn $end
$var tri1 1 , devpor $end
$var tri1 1 - devoe $end
$var wire 1 . ~QUARTUS_CREATED_GND~I_combout $end
$var wire 1 / ~QUARTUS_CREATED_UNVM~~busy $end
$var wire 1 0 ~QUARTUS_CREATED_ADC1~~eoc $end
$var wire 1 1 ~QUARTUS_CREATED_ADC2~~eoc $end
$var wire 1 2 a_o~output_o $end
$var wire 1 3 Qx~output_o $end
$var wire 1 4 Qy~output_o $end
$var wire 1 5 Qz~output_o $end
$var wire 1 6 Sa~output_o $end
$var wire 1 7 BBB~input_o $end
$var wire 1 8 BBB~inputclkctrl_outclk $end
$var wire 1 9 inst2~0_combout $end
$var wire 1 : inst2~feeder_combout $end
$var wire 1 ; inst2~q $end
$var wire 1 < inst3~0_combout $end
$var wire 1 = inst3~q $end
$var wire 1 > AAA~input_o $end
$var wire 1 ? inst1~0_combout $end
$var wire 1 @ inst1~q $end
$var wire 1 A inst4~feeder_combout $end
$var wire 1 B inst4~q $end
$var wire 1 C inst~0_combout $end
$var wire 1 D inst~q $end
$var wire 1 E inst10~0_combout $end
$upscope $end
$upscope $end
$enddefinitions $end
#0
$dumpvars
0!
0"
0#
0$
0%
0&
1'
0(
1)
x*
1+
1,
1-
0.
z/
z0
z1
02
03
04
05
16
07
08
19
1:
0;
1<
0=
0>
1?
0@
0A
0B
0C
0D
0E
$end
#10000
1"
17
18
1;
09
0:
1=
12
1#
0<
#20000
0"
07
08
1@
14
1%
1A
0?
#30000
1"
17
18
0;
19
1:
#40000
1!
0"
07
1>
08
1C
0@
1B
15
04
0%
1&
0A
1?
#50000
1"
17
18
1;
09
0:
0=
02
1E
0#
1<
06
0'
#60000
0"
07
08
1@
0B
1D
13
05
14
0E
1%
0&
1$
1A
0C
16
1'
#70000
1"
17
18
0;
19
1:
#80000
0!
0"
07
0>
08
1B
0D
03
15
1E
1&
0$
0?
06
0'
#90000
1"
17
18
1;
09
0:
1=
12
0E
1#
0<
16
1'
#100000
0"
07
08
0@
04
0%
0A
1?
#110000
1"
17
18
0;
19
1:
#120000
1!
0"
07
1>
08
1C
1@
0B
05
14
1%
0&
1A
0?
#130000
1"
17
18
1;
09
0:
0=
02
0#
1<
#140000
0"
07
08
0@
1B
1D
13
15
04
1E
0%
1&
1$
0A
06
0'
#150000
1"
17
18
0;
19
1:
#160000
0!
0"
07
0>
08
0B
05
0E
0&
0C
16
1'
#170000
1"
17
18
1;
09
0:
1=
12
1E
1#
0<
06
0'
#180000
0"
07
08
0D
03
0E
0$
1?
16
1'
#190000
1"
17
18
0;
19
1:
#200000
1!
0"
07
1>
08
1C
1@
14
1%
1A
0?
#210000
1"
17
18
1;
09
0:
0=
02
0#
1<
#220000
0"
07
08
0@
1B
1D
13
15
04
1E
0%
1&
1$
0A
06
0'
#230000
1"
17
18
0;
19
1:
#240000
0!
0"
07
0>
08
0B
05
0E
0&
0C
16
1'
#250000
1"
17
18
1;
09
0:
1=
12
1E
1#
0<
06
0'
#260000
0"
07
08
0D
03
0E
0$
1?
16
1'
#270000
1"
17
18
0;
19
1:
#280000
1!
0"
07
1>
08
1C
1@
14
1%
1A
0?
#290000
1"
17
18
1;
09
0:
0=
02
0#
1<
#300000
0"
07
08
0@
1B
1D
13
15
04
1E
0%
1&
1$
0A
06
0'
#310000
1"
17
18
0;
19
1:
#320000
0!
0"
07
0>
08
0B
05
0E
0&
0C
16
1'
#330000
1"
17
18
1;
09
0:
1=
12
1E
1#
0<
06
0'
#340000
0"
07
08
0D
03
0E
0$
1?
16
1'
#350000
1"
17
18
0;
19
1:
#360000
1!
0"
07
1>
08
1C
1@
14
1%
1A
0?
#370000
1"
17
18
1;
09
0:
0=
02
0#
1<
#380000
0"
07
08
0@
1B
1D
13
15
04
1E
0%
1&
1$
0A
06
0'
#390000
1"
17
18
0;
19
1:
#400000
0!
0"
07
0>
08
0B
05
0E
0&
0C
16
1'
#410000
1"
17
18
1;
09
0:
1=
12
1E
1#
0<
06
0'
#420000
0"
07
08
0D
03
0E
0$
1?
16
1'
#430000
1"
17
18
0;
19
1:
#440000
1!
0"
07
1>
08
1C
1@
14
1%
1A
0?
#450000
1"
17
18
1;
09
0:
0=
02
0#
1<
#460000
0"
07
08
0@
1B
1D
13
15
04
1E
0%
1&
1$
0A
06
0'
#470000
1"
17
18
0;
19
1:
#480000
0!
0"
07
0>
08
0B
05
0E
0&
0C
16
1'
#490000
1"
17
18
1;
09
0:
1=
12
1E
1#
0<
06
0'
#500000
0"
07
08
0D
03
0E
0$
1?
16
1'
#510000
1"
17
18
0;
19
1:
#520000
1!
0"
07
1>
08
1C
1@
14
1%
1A
0?
#530000
1"
17
18
1;
09
0:
0=
02
0#
1<
#540000
0"
07
08
0@
1B
1D
13
15
04
1E
0%
1&
1$
0A
06
0'
#550000
1"
17
18
0;
19
1:
#560000
0!
0"
07
0>
08
0B
05
0E
0&
0C
16
1'
#570000
1"
17
18
1;
09
0:
1=
12
1E
1#
0<
06
0'
#580000
0"
07
08
0D
03
0E
0$
1?
16
1'
#590000
1"
17
18
0;
19
1:
#600000
1!
0"
07
1>
08
1C
1@
14
1%
1A
0?
#610000
1"
17
18
1;
09
0:
0=
02
0#
1<
#620000
0"
07
08
0@
1B
1D
13
15
04
1E
0%
1&
1$
0A
06
0'
#630000
1"
17
18
0;
19
1:
#640000
0!
0"
07
0>
08
0B
05
0E
0&
0C
16
1'
#650000
1"
17
18
1;
09
0:
1=
12
1E
1#
0<
06
0'
#660000
0"
07
08
0D
03
0E
0$
1?
16
1'
#670000
1"
17
18
0;
19
1:
#680000
1!
0"
07
1>
08
1C
1@
14
1%
1A
0?
#690000
1"
17
18
1;
09
0:
0=
02
0#
1<
#700000
0"
07
08
0@
1B
1D
13
15
04
1E
0%
1&
1$
0A
06
0'
#710000
1"
17
18
0;
19
1:
#720000
0!
0"
07
0>
08
0B
05
0E
0&
0C
16
1'
#730000
1"
17
18
1;
09
0:
1=
12
1E
1#
0<
06
0'
#740000
0"
07
08
0D
03
0E
0$
1?
16
1'
#750000
1"
17
18
0;
19
1:
#760000
1!
0"
07
1>
08
1C
1@
14
1%
1A
0?
#770000
1"
17
18
1;
09
0:
0=
02
0#
1<
#780000
0"
07
08
0@
1B
1D
13
15
04
1E
0%
1&
1$
0A
06
0'
#790000
1"
17
18
0;
19
1:
#800000
0!
0"
07
0>
08
0B
05
0E
0&
0C
16
1'
#810000
1"
17
18
1;
09
0:
1=
12
1E
1#
0<
06
0'
#820000
0"
07
08
0D
03
0E
0$
1?
16
1'
#830000
1"
17
18
0;
19
1:
#840000
1!
0"
07
1>
08
1C
1@
14
1%
1A
0?
#850000
1"
17
18
1;
09
0:
0=
02
0#
1<
#860000
0"
07
08
0@
1B
1D
13
15
04
1E
0%
1&
1$
0A
06
0'
#870000
1"
17
18
0;
19
1:
#880000
0!
0"
07
0>
08
0B
05
0E
0&
0C
16
1'
#890000
1"
17
18
1;
09
0:
1=
12
1E
1#
0<
06
0'
#900000
0"
07
08
0D
03
0E
0$
1?
16
1'
#910000
1"
17
18
0;
19
1:
#920000
1!
0"
07
1>
08
1C
1@
14
1%
1A
0?
#930000
1"
17
18
1;
09
0:
0=
02
0#
1<
#940000
0"
07
08
0@
1B
1D
13
15
04
1E
0%
1&
1$
0A
06
0'
#950000
1"
17
18
0;
19
1:
#960000
0!
0"
07
0>
08
0B
05
0E
0&
0C
16
1'
#970000
1"
17
18
1;
09
0:
1=
12
1E
1#
0<
06
0'
#980000
0"
07
08
0D
03
0E
0$
1?
16
1'
#990000
1"
17
18
0;
19
1:
