MUX/simulation/qsim/FlipFlop.msim.vcd
$comment
	File created using the following command:
		vcd file FlipFlop.msim.vcd -direction
$end
$date
	Fri Apr 05 19:26:55 2024
$end
$version
	ModelSim Version 10.5b
$end
$timescale
	1ps
$end

$scope module contador_vhd_vec_tst $end
$var wire 1 ! clk $end
$var wire 1 " SA $end
$var wire 1 # SB $end
$var wire 1 $ SC $end
$var wire 1 % SD $end

$scope module i1 $end
$var wire 1 & gnd $end
$var wire 1 ' vcc $end
$var wire 1 ( unknown $end
$var wire 1 ) devoe $end
$var wire 1 * devclrn $end
$var wire 1 + devpor $end
$var wire 1 , ww_devoe $end
$var wire 1 - ww_devclrn $end
$var wire 1 . ww_devpor $end
$var wire 1 / ww_SA $end
$var wire 1 0 ww_clk $end
$var wire 1 1 ww_SB $end
$var wire 1 2 ww_SC $end
$var wire 1 3 ww_SD $end
$var wire 1 4 \~QUARTUS_CREATED_ADC1~_CHSEL_bus\ [4] $end
$var wire 1 5 \~QUARTUS_CREATED_ADC1~_CHSEL_bus\ [3] $end
$var wire 1 6 \~QUARTUS_CREATED_ADC1~_CHSEL_bus\ [2] $end
$var wire 1 7 \~QUARTUS_CREATED_ADC1~_CHSEL_bus\ [1] $end
$var wire 1 8 \~QUARTUS_CREATED_ADC1~_CHSEL_bus\ [0] $end
$var wire 1 9 \~QUARTUS_CREATED_ADC2~_CHSEL_bus\ [4] $end
$var wire 1 : \~QUARTUS_CREATED_ADC2~_CHSEL_bus\ [3] $end
$var wire 1 ; \~QUARTUS_CREATED_ADC2~_CHSEL_bus\ [2] $end
$var wire 1 < \~QUARTUS_CREATED_ADC2~_CHSEL_bus\ [1] $end
$var wire 1 = \~QUARTUS_CREATED_ADC2~_CHSEL_bus\ [0] $end
$var wire 1 > \~QUARTUS_CREATED_GND~I_combout\ $end
$var wire 1 ? \~QUARTUS_CREATED_UNVM~~busy\ $end
$var wire 1 @ \~QUARTUS_CREATED_ADC1~~eoc\ $end
$var wire 1 A \~QUARTUS_CREATED_ADC2~~eoc\ $end
$var wire 1 B \SA~output_o\ $end
$var wire 1 C \SB~output_o\ $end
$var wire 1 D \SC~output_o\ $end
$var wire 1 E \SD~output_o\ $end
$var wire 1 F \clk~input_o\ $end
$var wire 1 G \inst~0_combout\ $end
$var wire 1 H \inst~feeder_combout\ $end
$var wire 1 I \inst~q\ $end
$var wire 1 J \inst56~0_combout\ $end
$var wire 1 K \inst56~feeder_combout\ $end
$var wire 1 L \inst56~q\ $end
$var wire 1 M \inst59~0_combout\ $end
$var wire 1 N \inst59~feeder_combout\ $end
$var wire 1 O \inst59~q\ $end
$var wire 1 P \inst63~0_combout\ $end
$var wire 1 Q \inst63~q\ $end
$var wire 1 R \ALT_INV_clk~input_o\ $end
$var wire 1 S \ALT_INV_inst~q\ $end
$var wire 1 T \ALT_INV_inst56~q\ $end
$var wire 1 U \ALT_INV_inst59~q\ $end
$upscope $end
$upscope $end
$enddefinitions $end
#0
$dumpvars
0!
0"
0#
0$
0%
0&
1'
x(
1)
1*
1+
1,
1-
1.
0/
00
01
02
03
0>
z?
z@
zA
0B
0C
0D
0E
0F
1G
1H
0I
1J
1K
0L
1M
1N
0O
1P
0Q
1R
1S
1T
1U
04
05
06
07
08
09
0:
0;
0<
0=
$end
#10000
1!
10
1F
0R
#20000
0!
00
0F
1R
1I
0S
1E
0G
13
0H
1%
#30000
1!
10
1F
0R
#40000
0!
00
0F
1R
0I
1S
0E
1G
1L
03
1H
0T
0%
1D
0J
12
0K
1$
#50000
1!
10
1F
0R
#60000
0!
00
0F
1R
1I
0S
1E
0G
13
0H
1%
#70000
1!
10
1F
0R
#80000
0!
00
0F
1R
0I
1S
0E
1G
0L
03
1H
1T
0%
0D
1J
1O
02
1K
0U
0$
1C
0M
11
0N
1#
#90000
1!
10
1F
0R
#100000
0!
00
0F
1R
1I
0S
1E
0G
13
0H
1%
#110000
1!
10
1F
0R
#120000
0!
00
0F
1R
0I
1S
0E
1G
1L
03
1H
0T
0%
1D
0J
12
0K
1$
#130000
1!
10
1F
0R
#140000
0!
00
0F
1R
1I
0S
1E
0G
13
0H
1%
#150000
1!
10
1F
0R
#160000
0!
00
0F
1R
0I
1S
0E
1G
0L
03
1H
1T
0%
0D
1J
0O
02
1K
1U
0$
0C
1M
1Q
01
1N
0#
1B
0P
1/
1"
#170000
1!
10
1F
0R
#180000
0!
00
0F
1R
1I
0S
1E
0G
13
0H
1%
#190000
1!
10
1F
0R
#200000
0!
00
0F
1R
0I
1S
0E
1G
1L
03
1H
0T
0%
1D
0J
12
0K
1$
#210000
1!
10
1F
0R
#220000
0!
00
0F
1R
1I
0S
1E
0G
13
0H
1%
#230000
1!
10
1F
0R
#240000
0!
00
0F
1R
0I
1S
0E
1G
0L
03
1H
1T
0%
0D
1J
1O
02
1K
0U
0$
1C
0M
11
0N
1#
#250000
1!
10
1F
0R
#260000
0!
00
0F
1R
1I
0S
1E
0G
13
0H
1%
#270000
1!
10
1F
0R
#280000
0!
00
0F
1R
0I
1S
0E
1G
1L
03
1H
0T
0%
1D
0J
12
0K
1$
#290000
1!
10
1F
0R
#300000
0!
00
0F
1R
1I
0S
1E
0G
13
0H
1%
#310000
1!
10
1F
0R
#320000
0!
00
0F
1R
0I
1S
0E
1G
0L
03
1H
1T
0%
0D
1J
0O
02
1K
1U
0$
0C
1M
0Q
01
1N
0#
0B
1P
0/
0"
#330000
1!
10
1F
0R
#340000
0!
00
0F
1R
1I
0S
1E
0G
13
0H
1%
#350000
1!
10
1F
0R
#360000
0!
00
0F
1R
0I
1S
0E
1G
1L
03
1H
0T
0%
1D
0J
12
0K
1$
#370000
1!
10
1F
0R
#380000
0!
00
0F
1R
1I
0S
1E
0G
13
0H
1%
#390000
1!
10
1F
0R
#400000
0!
00
0F
1R
0I
1S
0E
1G
0L
03
1H
1T
0%
0D
1J
1O
02
1K
0U
0$
1C
0M
11
0N
1#
#410000
1!
10
1F
0R
#420000
0!
00
0F
1R
1I
0S
1E
0G
13
0H
1%
#430000
1!
10
1F
0R
#440000
0!
00
0F
1R
0I
1S
0E
1G
1L
03
1H
0T
0%
1D
0J
12
0K
1$
#450000
1!
10
1F
0R
#460000
0!
00
0F
1R
1I
0S
1E
0G
13
0H
1%
#470000
1!
10
1F
0R
#480000
0!
00
0F
1R
0I
1S
0E
1G
0L
03
1H
1T
0%
0D
1J
0O
02
1K
1U
0$
0C
1M
1Q
01
1N
0#
1B
0P
1/
1"
#490000
1!
10
1F
0R
#500000
0!
00
0F
1R
1I
0S
1E
0G
13
0H
1%
#510000
1!
10
1F
0R
#520000
0!
00
0F
1R
0I
1S
0E
1G
1L
03
1H
0T
0%
1D
0J
12
0K
1$
#530000
1!
10
1F
0R
#540000
0!
00
0F
1R
1I
0S
1E
0G
13
0H
1%
#550000
1!
10
1F
0R
#560000
0!
00
0F
1R
0I
1S
0E
1G
0L
03
1H
1T
0%
0D
1J
1O
02
1K
0U
0$
1C
0M
11
0N
1#
#570000
1!
10
1F
0R
#580000
0!
00
0F
1R
1I
0S
1E
0G
13
0H
1%
#590000
1!
10
1F
0R
#600000
0!
00
0F
1R
0I
1S
0E
1G
1L
03
1H
0T
0%
1D
0J
12
0K
1$
#610000
1!
10
1F
0R
#620000
0!
00
0F
1R
1I
0S
1E
0G
13
0H
1%
#630000
1!
10
1F
0R
#640000
0!
00
0F
1R
0I
1S
0E
1G
0L
03
1H
1T
0%
0D
1J
0O
02
1K
1U
0$
0C
1M
0Q
01
1N
0#
0B
1P
0/
0"
#650000
1!
10
1F
0R
#660000
0!
00
0F
1R
1I
0S
1E
0G
13
0H
1%
#670000
1!
10
1F
0R
#680000
0!
00
0F
1R
0I
1S
0E
1G
1L
03
1H
0T
0%
1D
0J
12
0K
1$
#690000
1!
10
1F
0R
#700000
0!
00
0F
1R
1I
0S
1E
0G
13
0H
1%
#710000
1!
10
1F
0R
#720000
0!
00
0F
1R
0I
1S
0E
1G
0L
03
1H
1T
0%
0D
1J
1O
02
1K
0U
0$
1C
0M
11
0N
1#
#730000
1!
10
1F
0R
#740000
0!
00
0F
1R
1I
0S
1E
0G
13
0H
1%
#750000
1!
10
1F
0R
#760000
0!
00
0F
1R
0I
1S
0E
1G
1L
03
1H
0T
0%
1D
0J
12
0K
1$
#770000
1!
10
1F
0R
#780000
0!
00
0F
1R
1I
0S
1E
0G
13
0H
1%
#790000
1!
10
1F
0R
#800000
0!
00
0F
1R
0I
1S
0E
1G
0L
03
1H
1T
0%
0D
1J
0O
02
1K
1U
0$
0C
1M
1Q
01
1N
0#
1B
0P
1/
1"
#810000
1!
10
1F
0R
#820000
0!
00
0F
1R
1I
0S
1E
0G
13
0H
1%
#830000
1!
10
1F
0R
#840000
0!
00
0F
1R
0I
1S
0E
1G
1L
03
1H
0T
0%
1D
0J
12
0K
1$
#850000
1!
10
1F
0R
#860000
0!
00
0F
1R
1I
0S
1E
0G
13
0H
1%
#870000
1!
10
1F
0R
#880000
0!
00
0F
1R
0I
1S
0E
1G
0L
03
1H
1T
0%
0D
1J
1O
02
1K
0U
0$
1C
0M
11
0N
1#
#890000
1!
10
1F
0R
#900000
0!
00
0F
1R
1I
0S
1E
0G
13
0H
1%
#910000
1!
10
1F
0R
#920000
0!
00
0F
1R
0I
1S
0E
1G
1L
03
1H
0T
0%
1D
0J
12
0K
1$
#930000
1!
10
1F
0R
#940000
0!
00
0F
1R
1I
0S
1E
0G
13
0H
1%
#950000
1!
10
1F
0R
#960000
0!
00
0F
1R
0I
1S
0E
1G
0L
03
1H
1T
0%
0D
1J
0O
02
1K
1U
0$
0C
1M
0Q
01
1N
0#
0B
1P
0/
0"
#970000
1!
10
1F
0R
#980000
0!
00
0F
1R
1I
0S
1E
0G
13
0H
1%
#990000
1!
10
1F
0R
